(kicad_sch (version 20230121) (generator eeschema)

  (uuid 60dcd1fe-7079-4cb8-b509-04558ccf5097)

  (paper "A4")

  (title_block
    (title "mkbd65")
    (date "2023-04-23")
    (rev "1")
    (company "XenGi")
    (comment 1 "https://mkbd65.xengi.de")
    (comment 2 "Microcontroller")
  )

  (lib_symbols
    (symbol "Device:C" (pin_numbers hide) (pin_names (offset 0.254)) (in_bom yes) (on_board yes)
      (property "Reference" "C" (at 0.635 2.54 0)
        (effects (font (size 1.27 1.27)) (justify left))
      )
      (property "Value" "C" (at 0.635 -2.54 0)
        (effects (font (size 1.27 1.27)) (justify left))
      )
      (property "Footprint" "" (at 0.9652 -3.81 0)
        (effects (font (size 1.27 1.27)) hide)
      )
      (property "Datasheet" "~" (at 0 0 0)
        (effects (font (size 1.27 1.27)) hide)
      )
      (property "ki_keywords" "cap capacitor" (at 0 0 0)
        (effects (font (size 1.27 1.27)) hide)
      )
      (property "ki_description" "Unpolarized capacitor" (at 0 0 0)
        (effects (font (size 1.27 1.27)) hide)
      )
      (property "ki_fp_filters" "C_*" (at 0 0 0)
        (effects (font (size 1.27 1.27)) hide)
      )
      (symbol "C_0_1"
        (polyline
          (pts
            (xy -2.032 -0.762)
            (xy 2.032 -0.762)
          )
          (stroke (width 0.508) (type default))
          (fill (type none))
        )
        (polyline
          (pts
            (xy -2.032 0.762)
            (xy 2.032 0.762)
          )
          (stroke (width 0.508) (type default))
          (fill (type none))
        )
      )
      (symbol "C_1_1"
        (pin passive line (at 0 3.81 270) (length 2.794)
          (name "~" (effects (font (size 1.27 1.27))))
          (number "1" (effects (font (size 1.27 1.27))))
        )
        (pin passive line (at 0 -3.81 90) (length 2.794)
          (name "~" (effects (font (size 1.27 1.27))))
          (number "2" (effects (font (size 1.27 1.27))))
        )
      )
    )
    (symbol "Device:Crystal_GND24" (pin_names (offset 1.016) hide) (in_bom yes) (on_board yes)
      (property "Reference" "Y" (at 3.175 5.08 0)
        (effects (font (size 1.27 1.27)) (justify left))
      )
      (property "Value" "Crystal_GND24" (at 3.175 3.175 0)
        (effects (font (size 1.27 1.27)) (justify left))
      )
      (property "Footprint" "" (at 0 0 0)
        (effects (font (size 1.27 1.27)) hide)
      )
      (property "Datasheet" "~" (at 0 0 0)
        (effects (font (size 1.27 1.27)) hide)
      )
      (property "ki_keywords" "quartz ceramic resonator oscillator" (at 0 0 0)
        (effects (font (size 1.27 1.27)) hide)
      )
      (property "ki_description" "Four pin crystal, GND on pins 2 and 4" (at 0 0 0)
        (effects (font (size 1.27 1.27)) hide)
      )
      (property "ki_fp_filters" "Crystal*" (at 0 0 0)
        (effects (font (size 1.27 1.27)) hide)
      )
      (symbol "Crystal_GND24_0_1"
        (rectangle (start -1.143 2.54) (end 1.143 -2.54)
          (stroke (width 0.3048) (type default))
          (fill (type none))
        )
        (polyline
          (pts
            (xy -2.54 0)
            (xy -2.032 0)
          )
          (stroke (width 0) (type default))
          (fill (type none))
        )
        (polyline
          (pts
            (xy -2.032 -1.27)
            (xy -2.032 1.27)
          )
          (stroke (width 0.508) (type default))
          (fill (type none))
        )
        (polyline
          (pts
            (xy 0 -3.81)
            (xy 0 -3.556)
          )
          (stroke (width 0) (type default))
          (fill (type none))
        )
        (polyline
          (pts
            (xy 0 3.556)
            (xy 0 3.81)
          )
          (stroke (width 0) (type default))
          (fill (type none))
        )
        (polyline
          (pts
            (xy 2.032 -1.27)
            (xy 2.032 1.27)
          )
          (stroke (width 0.508) (type default))
          (fill (type none))
        )
        (polyline
          (pts
            (xy 2.032 0)
            (xy 2.54 0)
          )
          (stroke (width 0) (type default))
          (fill (type none))
        )
        (polyline
          (pts
            (xy -2.54 -2.286)
            (xy -2.54 -3.556)
            (xy 2.54 -3.556)
            (xy 2.54 -2.286)
          )
          (stroke (width 0) (type default))
          (fill (type none))
        )
        (polyline
          (pts
            (xy -2.54 2.286)
            (xy -2.54 3.556)
            (xy 2.54 3.556)
            (xy 2.54 2.286)
          )
          (stroke (width 0) (type default))
          (fill (type none))
        )
      )
      (symbol "Crystal_GND24_1_1"
        (pin passive line (at -3.81 0 0) (length 1.27)
          (name "1" (effects (font (size 1.27 1.27))))
          (number "1" (effects (font (size 1.27 1.27))))
        )
        (pin passive line (at 0 5.08 270) (length 1.27)
          (name "2" (effects (font (size 1.27 1.27))))
          (number "2" (effects (font (size 1.27 1.27))))
        )
        (pin passive line (at 3.81 0 180) (length 1.27)
          (name "3" (effects (font (size 1.27 1.27))))
          (number "3" (effects (font (size 1.27 1.27))))
        )
        (pin passive line (at 0 -5.08 90) (length 1.27)
          (name "4" (effects (font (size 1.27 1.27))))
          (number "4" (effects (font (size 1.27 1.27))))
        )
      )
    )
    (symbol "Device:FerriteBead_Small" (pin_numbers hide) (pin_names (offset 0)) (in_bom yes) (on_board yes)
      (property "Reference" "FB" (at 1.905 1.27 0)
        (effects (font (size 1.27 1.27)) (justify left))
      )
      (property "Value" "FerriteBead_Small" (at 1.905 -1.27 0)
        (effects (font (size 1.27 1.27)) (justify left))
      )
      (property "Footprint" "" (at -1.778 0 90)
        (effects (font (size 1.27 1.27)) hide)
      )
      (property "Datasheet" "~" (at 0 0 0)
        (effects (font (size 1.27 1.27)) hide)
      )
      (property "ki_keywords" "L ferrite bead inductor filter" (at 0 0 0)
        (effects (font (size 1.27 1.27)) hide)
      )
      (property "ki_description" "Ferrite bead, small symbol" (at 0 0 0)
        (effects (font (size 1.27 1.27)) hide)
      )
      (property "ki_fp_filters" "Inductor_* L_* *Ferrite*" (at 0 0 0)
        (effects (font (size 1.27 1.27)) hide)
      )
      (symbol "FerriteBead_Small_0_1"
        (polyline
          (pts
            (xy 0 -1.27)
            (xy 0 -0.7874)
          )
          (stroke (width 0) (type default))
          (fill (type none))
        )
        (polyline
          (pts
            (xy 0 0.889)
            (xy 0 1.2954)
          )
          (stroke (width 0) (type default))
          (fill (type none))
        )
        (polyline
          (pts
            (xy -1.8288 0.2794)
            (xy -1.1176 1.4986)
            (xy 1.8288 -0.2032)
            (xy 1.1176 -1.4224)
            (xy -1.8288 0.2794)
          )
          (stroke (width 0) (type default))
          (fill (type none))
        )
      )
      (symbol "FerriteBead_Small_1_1"
        (pin passive line (at 0 2.54 270) (length 1.27)
          (name "~" (effects (font (size 1.27 1.27))))
          (number "1" (effects (font (size 1.27 1.27))))
        )
        (pin passive line (at 0 -2.54 90) (length 1.27)
          (name "~" (effects (font (size 1.27 1.27))))
          (number "2" (effects (font (size 1.27 1.27))))
        )
      )
    )
    (symbol "Device:R_Small" (pin_numbers hide) (pin_names (offset 0.254) hide) (in_bom yes) (on_board yes)
      (property "Reference" "R" (at 0.762 0.508 0)
        (effects (font (size 1.27 1.27)) (justify left))
      )
      (property "Value" "R_Small" (at 0.762 -1.016 0)
        (effects (font (size 1.27 1.27)) (justify left))
      )
      (property "Footprint" "" (at 0 0 0)
        (effects (font (size 1.27 1.27)) hide)
      )
      (property "Datasheet" "~" (at 0 0 0)
        (effects (font (size 1.27 1.27)) hide)
      )
      (property "ki_keywords" "R resistor" (at 0 0 0)
        (effects (font (size 1.27 1.27)) hide)
      )
      (property "ki_description" "Resistor, small symbol" (at 0 0 0)
        (effects (font (size 1.27 1.27)) hide)
      )
      (property "ki_fp_filters" "R_*" (at 0 0 0)
        (effects (font (size 1.27 1.27)) hide)
      )
      (symbol "R_Small_0_1"
        (rectangle (start -0.762 1.778) (end 0.762 -1.778)
          (stroke (width 0.2032) (type default))
          (fill (type none))
        )
      )
      (symbol "R_Small_1_1"
        (pin passive line (at 0 2.54 270) (length 0.762)
          (name "~" (effects (font (size 1.27 1.27))))
          (number "1" (effects (font (size 1.27 1.27))))
        )
        (pin passive line (at 0 -2.54 90) (length 0.762)
          (name "~" (effects (font (size 1.27 1.27))))
          (number "2" (effects (font (size 1.27 1.27))))
        )
      )
    )
    (symbol "GND_1" (power) (pin_names (offset 0)) (in_bom yes) (on_board yes)
      (property "Reference" "#PWR" (at 0 -6.35 0)
        (effects (font (size 1.27 1.27)) hide)
      )
      (property "Value" "GND_1" (at 0 -3.81 0)
        (effects (font (size 1.27 1.27)))
      )
      (property "Footprint" "" (at 0 0 0)
        (effects (font (size 1.27 1.27)) hide)
      )
      (property "Datasheet" "" (at 0 0 0)
        (effects (font (size 1.27 1.27)) hide)
      )
      (property "ki_keywords" "global power" (at 0 0 0)
        (effects (font (size 1.27 1.27)) hide)
      )
      (property "ki_description" "Power symbol creates a global label with name \"GND\" , ground" (at 0 0 0)
        (effects (font (size 1.27 1.27)) hide)
      )
      (symbol "GND_1_0_1"
        (polyline
          (pts
            (xy 0 0)
            (xy 0 -1.27)
            (xy 1.27 -1.27)
            (xy 0 -2.54)
            (xy -1.27 -1.27)
            (xy 0 -1.27)
          )
          (stroke (width 0) (type default))
          (fill (type none))
        )
      )
      (symbol "GND_1_1_1"
        (pin power_in line (at 0 0 270) (length 0) hide
          (name "GND" (effects (font (size 1.27 1.27))))
          (number "1" (effects (font (size 1.27 1.27))))
        )
      )
    )
    (symbol "GND_2" (power) (pin_names (offset 0)) (in_bom yes) (on_board yes)
      (property "Reference" "#PWR" (at 0 -6.35 0)
        (effects (font (size 1.27 1.27)) hide)
      )
      (property "Value" "GND_2" (at 0 -3.81 0)
        (effects (font (size 1.27 1.27)))
      )
      (property "Footprint" "" (at 0 0 0)
        (effects (font (size 1.27 1.27)) hide)
      )
      (property "Datasheet" "" (at 0 0 0)
        (effects (font (size 1.27 1.27)) hide)
      )
      (property "ki_keywords" "global power" (at 0 0 0)
        (effects (font (size 1.27 1.27)) hide)
      )
      (property "ki_description" "Power symbol creates a global label with name \"GND\" , ground" (at 0 0 0)
        (effects (font (size 1.27 1.27)) hide)
      )
      (symbol "GND_2_0_1"
        (polyline
          (pts
            (xy 0 0)
            (xy 0 -1.27)
            (xy 1.27 -1.27)
            (xy 0 -2.54)
            (xy -1.27 -1.27)
            (xy 0 -1.27)
          )
          (stroke (width 0) (type default))
          (fill (type none))
        )
      )
      (symbol "GND_2_1_1"
        (pin power_in line (at 0 0 270) (length 0) hide
          (name "GND" (effects (font (size 1.27 1.27))))
          (number "1" (effects (font (size 1.27 1.27))))
        )
      )
    )
    (symbol "GND_3" (power) (pin_names (offset 0)) (in_bom yes) (on_board yes)
      (property "Reference" "#PWR" (at 0 -6.35 0)
        (effects (font (size 1.27 1.27)) hide)
      )
      (property "Value" "GND_3" (at 0 -3.81 0)
        (effects (font (size 1.27 1.27)))
      )
      (property "Footprint" "" (at 0 0 0)
        (effects (font (size 1.27 1.27)) hide)
      )
      (property "Datasheet" "" (at 0 0 0)
        (effects (font (size 1.27 1.27)) hide)
      )
      (property "ki_keywords" "global power" (at 0 0 0)
        (effects (font (size 1.27 1.27)) hide)
      )
      (property "ki_description" "Power symbol creates a global label with name \"GND\" , ground" (at 0 0 0)
        (effects (font (size 1.27 1.27)) hide)
      )
      (symbol "GND_3_0_1"
        (polyline
          (pts
            (xy 0 0)
            (xy 0 -1.27)
            (xy 1.27 -1.27)
            (xy 0 -2.54)
            (xy -1.27 -1.27)
            (xy 0 -1.27)
          )
          (stroke (width 0) (type default))
          (fill (type none))
        )
      )
      (symbol "GND_3_1_1"
        (pin power_in line (at 0 0 270) (length 0) hide
          (name "GND" (effects (font (size 1.27 1.27))))
          (number "1" (effects (font (size 1.27 1.27))))
        )
      )
    )
    (symbol "GND_4" (power) (pin_names (offset 0)) (in_bom yes) (on_board yes)
      (property "Reference" "#PWR" (at 0 -6.35 0)
        (effects (font (size 1.27 1.27)) hide)
      )
      (property "Value" "GND_4" (at 0 -3.81 0)
        (effects (font (size 1.27 1.27)))
      )
      (property "Footprint" "" (at 0 0 0)
        (effects (font (size 1.27 1.27)) hide)
      )
      (property "Datasheet" "" (at 0 0 0)
        (effects (font (size 1.27 1.27)) hide)
      )
      (property "ki_keywords" "global power" (at 0 0 0)
        (effects (font (size 1.27 1.27)) hide)
      )
      (property "ki_description" "Power symbol creates a global label with name \"GND\" , ground" (at 0 0 0)
        (effects (font (size 1.27 1.27)) hide)
      )
      (symbol "GND_4_0_1"
        (polyline
          (pts
            (xy 0 0)
            (xy 0 -1.27)
            (xy 1.27 -1.27)
            (xy 0 -2.54)
            (xy -1.27 -1.27)
            (xy 0 -1.27)
          )
          (stroke (width 0) (type default))
          (fill (type none))
        )
      )
      (symbol "GND_4_1_1"
        (pin power_in line (at 0 0 270) (length 0) hide
          (name "GND" (effects (font (size 1.27 1.27))))
          (number "1" (effects (font (size 1.27 1.27))))
        )
      )
    )
    (symbol "GND_5" (power) (pin_names (offset 0)) (in_bom yes) (on_board yes)
      (property "Reference" "#PWR" (at 0 -6.35 0)
        (effects (font (size 1.27 1.27)) hide)
      )
      (property "Value" "GND_5" (at 0 -3.81 0)
        (effects (font (size 1.27 1.27)))
      )
      (property "Footprint" "" (at 0 0 0)
        (effects (font (size 1.27 1.27)) hide)
      )
      (property "Datasheet" "" (at 0 0 0)
        (effects (font (size 1.27 1.27)) hide)
      )
      (property "ki_keywords" "global power" (at 0 0 0)
        (effects (font (size 1.27 1.27)) hide)
      )
      (property "ki_description" "Power symbol creates a global label with name \"GND\" , ground" (at 0 0 0)
        (effects (font (size 1.27 1.27)) hide)
      )
      (symbol "GND_5_0_1"
        (polyline
          (pts
            (xy 0 0)
            (xy 0 -1.27)
            (xy 1.27 -1.27)
            (xy 0 -2.54)
            (xy -1.27 -1.27)
            (xy 0 -1.27)
          )
          (stroke (width 0) (type default))
          (fill (type none))
        )
      )
      (symbol "GND_5_1_1"
        (pin power_in line (at 0 0 270) (length 0) hide
          (name "GND" (effects (font (size 1.27 1.27))))
          (number "1" (effects (font (size 1.27 1.27))))
        )
      )
    )
    (symbol "MCU_ST_STM32F0:STM32F072CBTx" (in_bom yes) (on_board yes)
      (property "Reference" "U" (at -12.7 39.37 0)
        (effects (font (size 1.27 1.27)) (justify left))
      )
      (property "Value" "STM32F072CBTx" (at 10.16 39.37 0)
        (effects (font (size 1.27 1.27)) (justify left))
      )
      (property "Footprint" "Package_QFP:LQFP-48_7x7mm_P0.5mm" (at -12.7 -35.56 0)
        (effects (font (size 1.27 1.27)) (justify right) hide)
      )
      (property "Datasheet" "https://www.st.com/resource/en/datasheet/stm32f072cb.pdf" (at 0 0 0)
        (effects (font (size 1.27 1.27)) hide)
      )
      (property "ki_locked" "" (at 0 0 0)
        (effects (font (size 1.27 1.27)))
      )
      (property "ki_keywords" "Arm Cortex-M0 STM32F0 STM32F0x2" (at 0 0 0)
        (effects (font (size 1.27 1.27)) hide)
      )
      (property "ki_description" "STMicroelectronics Arm Cortex-M0 MCU, 128KB flash, 16KB RAM, 48 MHz, 2.0-3.6V, 37 GPIO, LQFP48" (at 0 0 0)
        (effects (font (size 1.27 1.27)) hide)
      )
      (property "ki_fp_filters" "LQFP*7x7mm*P0.5mm*" (at 0 0 0)
        (effects (font (size 1.27 1.27)) hide)
      )
      (symbol "STM32F072CBTx_0_1"
        (rectangle (start -12.7 -35.56) (end 15.24 38.1)
          (stroke (width 0.254) (type default))
          (fill (type background))
        )
      )
      (symbol "STM32F072CBTx_1_1"
        (pin power_in line (at -2.54 40.64 270) (length 2.54)
          (name "VBAT" (effects (font (size 1.27 1.27))))
          (number "1" (effects (font (size 1.27 1.27))))
        )
        (pin bidirectional line (at 17.78 35.56 180) (length 2.54)
          (name "PA0" (effects (font (size 1.27 1.27))))
          (number "10" (effects (font (size 1.27 1.27))))
          (alternate "ADC_IN0" bidirectional line)
          (alternate "COMP1_INM" bidirectional line)
          (alternate "COMP1_OUT" bidirectional line)
          (alternate "RTC_TAMP2" bidirectional line)
          (alternate "SYS_WKUP1" bidirectional line)
          (alternate "TIM2_CH1" bidirectional line)
          (alternate "TIM2_ETR" bidirectional line)
          (alternate "TSC_G1_IO1" bidirectional line)
          (alternate "USART2_CTS" bidirectional line)
          (alternate "USART4_TX" bidirectional line)
        )
        (pin bidirectional line (at 17.78 33.02 180) (length 2.54)
          (name "PA1" (effects (font (size 1.27 1.27))))
          (number "11" (effects (font (size 1.27 1.27))))
          (alternate "ADC_IN1" bidirectional line)
          (alternate "COMP1_INP" bidirectional line)
          (alternate "TIM15_CH1N" bidirectional line)
          (alternate "TIM2_CH2" bidirectional line)
          (alternate "TSC_G1_IO2" bidirectional line)
          (alternate "USART2_DE" bidirectional line)
          (alternate "USART2_RTS" bidirectional line)
          (alternate "USART4_RX" bidirectional line)
        )
        (pin bidirectional line (at 17.78 30.48 180) (length 2.54)
          (name "PA2" (effects (font (size 1.27 1.27))))
          (number "12" (effects (font (size 1.27 1.27))))
          (alternate "ADC_IN2" bidirectional line)
          (alternate "COMP2_INM" bidirectional line)
          (alternate "COMP2_OUT" bidirectional line)
          (alternate "SYS_WKUP4" bidirectional line)
          (alternate "TIM15_CH1" bidirectional line)
          (alternate "TIM2_CH3" bidirectional line)
          (alternate "TSC_G1_IO3" bidirectional line)
          (alternate "USART2_TX" bidirectional line)
        )
        (pin bidirectional line (at 17.78 27.94 180) (length 2.54)
          (name "PA3" (effects (font (size 1.27 1.27))))
          (number "13" (effects (font (size 1.27 1.27))))
          (alternate "ADC_IN3" bidirectional line)
          (alternate "COMP2_INP" bidirectional line)
          (alternate "TIM15_CH2" bidirectional line)
          (alternate "TIM2_CH4" bidirectional line)
          (alternate "TSC_G1_IO4" bidirectional line)
          (alternate "USART2_RX" bidirectional line)
        )
        (pin bidirectional line (at 17.78 25.4 180) (length 2.54)
          (name "PA4" (effects (font (size 1.27 1.27))))
          (number "14" (effects (font (size 1.27 1.27))))
          (alternate "ADC_IN4" bidirectional line)
          (alternate "COMP1_INM" bidirectional line)
          (alternate "COMP2_INM" bidirectional line)
          (alternate "DAC_OUT1" bidirectional line)
          (alternate "I2S1_WS" bidirectional line)
          (alternate "SPI1_NSS" bidirectional line)
          (alternate "TIM14_CH1" bidirectional line)
          (alternate "TSC_G2_IO1" bidirectional line)
          (alternate "USART2_CK" bidirectional line)
        )
        (pin bidirectional line (at 17.78 22.86 180) (length 2.54)
          (name "PA5" (effects (font (size 1.27 1.27))))
          (number "15" (effects (font (size 1.27 1.27))))
          (alternate "ADC_IN5" bidirectional line)
          (alternate "CEC" bidirectional line)
          (alternate "COMP1_INM" bidirectional line)
          (alternate "COMP2_INM" bidirectional line)
          (alternate "DAC_OUT2" bidirectional line)
          (alternate "I2S1_CK" bidirectional line)
          (alternate "SPI1_SCK" bidirectional line)
          (alternate "TIM2_CH1" bidirectional line)
          (alternate "TIM2_ETR" bidirectional line)
          (alternate "TSC_G2_IO2" bidirectional line)
        )
        (pin bidirectional line (at 17.78 20.32 180) (length 2.54)
          (name "PA6" (effects (font (size 1.27 1.27))))
          (number "16" (effects (font (size 1.27 1.27))))
          (alternate "ADC_IN6" bidirectional line)
          (alternate "COMP1_OUT" bidirectional line)
          (alternate "I2S1_MCK" bidirectional line)
          (alternate "SPI1_MISO" bidirectional line)
          (alternate "TIM16_CH1" bidirectional line)
          (alternate "TIM1_BKIN" bidirectional line)
          (alternate "TIM3_CH1" bidirectional line)
          (alternate "TSC_G2_IO3" bidirectional line)
          (alternate "USART3_CTS" bidirectional line)
        )
        (pin bidirectional line (at 17.78 17.78 180) (length 2.54)
          (name "PA7" (effects (font (size 1.27 1.27))))
          (number "17" (effects (font (size 1.27 1.27))))
          (alternate "ADC_IN7" bidirectional line)
          (alternate "COMP2_OUT" bidirectional line)
          (alternate "I2S1_SD" bidirectional line)
          (alternate "SPI1_MOSI" bidirectional line)
          (alternate "TIM14_CH1" bidirectional line)
          (alternate "TIM17_CH1" bidirectional line)
          (alternate "TIM1_CH1N" bidirectional line)
          (alternate "TIM3_CH2" bidirectional line)
          (alternate "TSC_G2_IO4" bidirectional line)
        )
        (pin bidirectional line (at -15.24 7.62 0) (length 2.54)
          (name "PB0" (effects (font (size 1.27 1.27))))
          (number "18" (effects (font (size 1.27 1.27))))
          (alternate "ADC_IN8" bidirectional line)
          (alternate "TIM1_CH2N" bidirectional line)
          (alternate "TIM3_CH3" bidirectional line)
          (alternate "TSC_G3_IO2" bidirectional line)
          (alternate "USART3_CK" bidirectional line)
        )
        (pin bidirectional line (at -15.24 5.08 0) (length 2.54)
          (name "PB1" (effects (font (size 1.27 1.27))))
          (number "19" (effects (font (size 1.27 1.27))))
          (alternate "ADC_IN9" bidirectional line)
          (alternate "TIM14_CH1" bidirectional line)
          (alternate "TIM1_CH3N" bidirectional line)
          (alternate "TIM3_CH4" bidirectional line)
          (alternate "TSC_G3_IO3" bidirectional line)
          (alternate "USART3_DE" bidirectional line)
          (alternate "USART3_RTS" bidirectional line)
        )
        (pin bidirectional line (at -15.24 17.78 0) (length 2.54)
          (name "PC13" (effects (font (size 1.27 1.27))))
          (number "2" (effects (font (size 1.27 1.27))))
          (alternate "RTC_OUT_ALARM" bidirectional line)
          (alternate "RTC_OUT_CALIB" bidirectional line)
          (alternate "RTC_TAMP1" bidirectional line)
          (alternate "RTC_TS" bidirectional line)
          (alternate "SYS_WKUP2" bidirectional line)
        )
        (pin bidirectional line (at -15.24 2.54 0) (length 2.54)
          (name "PB2" (effects (font (size 1.27 1.27))))
          (number "20" (effects (font (size 1.27 1.27))))
          (alternate "TSC_G3_IO4" bidirectional line)
        )
        (pin bidirectional line (at -15.24 -17.78 0) (length 2.54)
          (name "PB10" (effects (font (size 1.27 1.27))))
          (number "21" (effects (font (size 1.27 1.27))))
          (alternate "CEC" bidirectional line)
          (alternate "I2C2_SCL" bidirectional line)
          (alternate "I2S2_CK" bidirectional line)
          (alternate "SPI2_SCK" bidirectional line)
          (alternate "TIM2_CH3" bidirectional line)
          (alternate "TSC_SYNC" bidirectional line)
          (alternate "USART3_TX" bidirectional line)
        )
        (pin bidirectional line (at -15.24 -20.32 0) (length 2.54)
          (name "PB11" (effects (font (size 1.27 1.27))))
          (number "22" (effects (font (size 1.27 1.27))))
          (alternate "I2C2_SDA" bidirectional line)
          (alternate "TIM2_CH4" bidirectional line)
          (alternate "TSC_G6_IO1" bidirectional line)
          (alternate "USART3_RX" bidirectional line)
        )
        (pin power_in line (at 0 -38.1 90) (length 2.54)
          (name "VSS" (effects (font (size 1.27 1.27))))
          (number "23" (effects (font (size 1.27 1.27))))
        )
        (pin power_in line (at 0 40.64 270) (length 2.54)
          (name "VDD" (effects (font (size 1.27 1.27))))
          (number "24" (effects (font (size 1.27 1.27))))
        )
        (pin bidirectional line (at -15.24 -22.86 0) (length 2.54)
          (name "PB12" (effects (font (size 1.27 1.27))))
          (number "25" (effects (font (size 1.27 1.27))))
          (alternate "I2S2_WS" bidirectional line)
          (alternate "SPI2_NSS" bidirectional line)
          (alternate "TIM15_BKIN" bidirectional line)
          (alternate "TIM1_BKIN" bidirectional line)
          (alternate "TSC_G6_IO2" bidirectional line)
          (alternate "USART3_CK" bidirectional line)
        )
        (pin bidirectional line (at -15.24 -25.4 0) (length 2.54)
          (name "PB13" (effects (font (size 1.27 1.27))))
          (number "26" (effects (font (size 1.27 1.27))))
          (alternate "I2C2_SCL" bidirectional line)
          (alternate "I2S2_CK" bidirectional line)
          (alternate "SPI2_SCK" bidirectional line)
          (alternate "TIM1_CH1N" bidirectional line)
          (alternate "TSC_G6_IO3" bidirectional line)
          (alternate "USART3_CTS" bidirectional line)
        )
        (pin bidirectional line (at -15.24 -27.94 0) (length 2.54)
          (name "PB14" (effects (font (size 1.27 1.27))))
          (number "27" (effects (font (size 1.27 1.27))))
          (alternate "I2C2_SDA" bidirectional line)
          (alternate "I2S2_MCK" bidirectional line)
          (alternate "SPI2_MISO" bidirectional line)
          (alternate "TIM15_CH1" bidirectional line)
          (alternate "TIM1_CH2N" bidirectional line)
          (alternate "TSC_G6_IO4" bidirectional line)
          (alternate "USART3_DE" bidirectional line)
          (alternate "USART3_RTS" bidirectional line)
        )
        (pin bidirectional line (at -15.24 -30.48 0) (length 2.54)
          (name "PB15" (effects (font (size 1.27 1.27))))
          (number "28" (effects (font (size 1.27 1.27))))
          (alternate "I2S2_SD" bidirectional line)
          (alternate "RTC_REFIN" bidirectional line)
          (alternate "SPI2_MOSI" bidirectional line)
          (alternate "SYS_WKUP7" bidirectional line)
          (alternate "TIM15_CH1N" bidirectional line)
          (alternate "TIM15_CH2" bidirectional line)
          (alternate "TIM1_CH3N" bidirectional line)
        )
        (pin bidirectional line (at 17.78 15.24 180) (length 2.54)
          (name "PA8" (effects (font (size 1.27 1.27))))
          (number "29" (effects (font (size 1.27 1.27))))
          (alternate "CRS_SYNC" bidirectional line)
          (alternate "RCC_MCO" bidirectional line)
          (alternate "TIM1_CH1" bidirectional line)
          (alternate "USART1_CK" bidirectional line)
        )
        (pin bidirectional line (at -15.24 15.24 0) (length 2.54)
          (name "PC14" (effects (font (size 1.27 1.27))))
          (number "3" (effects (font (size 1.27 1.27))))
          (alternate "RCC_OSC32_IN" bidirectional line)
        )
        (pin bidirectional line (at 17.78 12.7 180) (length 2.54)
          (name "PA9" (effects (font (size 1.27 1.27))))
          (number "30" (effects (font (size 1.27 1.27))))
          (alternate "DAC_EXTI9" bidirectional line)
          (alternate "TIM15_BKIN" bidirectional line)
          (alternate "TIM1_CH2" bidirectional line)
          (alternate "TSC_G4_IO1" bidirectional line)
          (alternate "USART1_TX" bidirectional line)
        )
        (pin bidirectional line (at 17.78 10.16 180) (length 2.54)
          (name "PA10" (effects (font (size 1.27 1.27))))
          (number "31" (effects (font (size 1.27 1.27))))
          (alternate "TIM17_BKIN" bidirectional line)
          (alternate "TIM1_CH3" bidirectional line)
          (alternate "TSC_G4_IO2" bidirectional line)
          (alternate "USART1_RX" bidirectional line)
        )
        (pin bidirectional line (at 17.78 7.62 180) (length 2.54)
          (name "PA11" (effects (font (size 1.27 1.27))))
          (number "32" (effects (font (size 1.27 1.27))))
          (alternate "CAN_RX" bidirectional line)
          (alternate "COMP1_OUT" bidirectional line)
          (alternate "TIM1_CH4" bidirectional line)
          (alternate "TSC_G4_IO3" bidirectional line)
          (alternate "USART1_CTS" bidirectional line)
          (alternate "USB_DM" bidirectional line)
        )
        (pin bidirectional line (at 17.78 5.08 180) (length 2.54)
          (name "PA12" (effects (font (size 1.27 1.27))))
          (number "33" (effects (font (size 1.27 1.27))))
          (alternate "CAN_TX" bidirectional line)
          (alternate "COMP2_OUT" bidirectional line)
          (alternate "TIM1_ETR" bidirectional line)
          (alternate "TSC_G4_IO4" bidirectional line)
          (alternate "USART1_DE" bidirectional line)
          (alternate "USART1_RTS" bidirectional line)
          (alternate "USB_DP" bidirectional line)
        )
        (pin bidirectional line (at 17.78 2.54 180) (length 2.54)
          (name "PA13" (effects (font (size 1.27 1.27))))
          (number "34" (effects (font (size 1.27 1.27))))
          (alternate "IR_OUT" bidirectional line)
          (alternate "SYS_SWDIO" bidirectional line)
          (alternate "USB_NOE" bidirectional line)
        )
        (pin passive line (at 0 -38.1 90) (length 2.54) hide
          (name "VSS" (effects (font (size 1.27 1.27))))
          (number "35" (effects (font (size 1.27 1.27))))
        )
        (pin power_in line (at 7.62 40.64 270) (length 2.54)
          (name "VDDIO2" (effects (font (size 1.27 1.27))))
          (number "36" (effects (font (size 1.27 1.27))))
        )
        (pin bidirectional line (at 17.78 0 180) (length 2.54)
          (name "PA14" (effects (font (size 1.27 1.27))))
          (number "37" (effects (font (size 1.27 1.27))))
          (alternate "SYS_SWCLK" bidirectional line)
          (alternate "USART2_TX" bidirectional line)
        )
        (pin bidirectional line (at 17.78 -2.54 180) (length 2.54)
          (name "PA15" (effects (font (size 1.27 1.27))))
          (number "38" (effects (font (size 1.27 1.27))))
          (alternate "I2S1_WS" bidirectional line)
          (alternate "SPI1_NSS" bidirectional line)
          (alternate "TIM2_CH1" bidirectional line)
          (alternate "TIM2_ETR" bidirectional line)
          (alternate "USART2_RX" bidirectional line)
          (alternate "USART4_DE" bidirectional line)
          (alternate "USART4_RTS" bidirectional line)
        )
        (pin bidirectional line (at -15.24 0 0) (length 2.54)
          (name "PB3" (effects (font (size 1.27 1.27))))
          (number "39" (effects (font (size 1.27 1.27))))
          (alternate "I2S1_CK" bidirectional line)
          (alternate "SPI1_SCK" bidirectional line)
          (alternate "TIM2_CH2" bidirectional line)
          (alternate "TSC_G5_IO1" bidirectional line)
        )
        (pin bidirectional line (at -15.24 12.7 0) (length 2.54)
          (name "PC15" (effects (font (size 1.27 1.27))))
          (number "4" (effects (font (size 1.27 1.27))))
          (alternate "RCC_OSC32_OUT" bidirectional line)
        )
        (pin bidirectional line (at -15.24 -2.54 0) (length 2.54)
          (name "PB4" (effects (font (size 1.27 1.27))))
          (number "40" (effects (font (size 1.27 1.27))))
          (alternate "I2S1_MCK" bidirectional line)
          (alternate "SPI1_MISO" bidirectional line)
          (alternate "TIM17_BKIN" bidirectional line)
          (alternate "TIM3_CH1" bidirectional line)
          (alternate "TSC_G5_IO2" bidirectional line)
        )
        (pin bidirectional line (at -15.24 -5.08 0) (length 2.54)
          (name "PB5" (effects (font (size 1.27 1.27))))
          (number "41" (effects (font (size 1.27 1.27))))
          (alternate "I2C1_SMBA" bidirectional line)
          (alternate "I2S1_SD" bidirectional line)
          (alternate "SPI1_MOSI" bidirectional line)
          (alternate "SYS_WKUP6" bidirectional line)
          (alternate "TIM16_BKIN" bidirectional line)
          (alternate "TIM3_CH2" bidirectional line)
        )
        (pin bidirectional line (at -15.24 -7.62 0) (length 2.54)
          (name "PB6" (effects (font (size 1.27 1.27))))
          (number "42" (effects (font (size 1.27 1.27))))
          (alternate "I2C1_SCL" bidirectional line)
          (alternate "TIM16_CH1N" bidirectional line)
          (alternate "TSC_G5_IO3" bidirectional line)
          (alternate "USART1_TX" bidirectional line)
        )
        (pin bidirectional line (at -15.24 -10.16 0) (length 2.54)
          (name "PB7" (effects (font (size 1.27 1.27))))
          (number "43" (effects (font (size 1.27 1.27))))
          (alternate "I2C1_SDA" bidirectional line)
          (alternate "TIM17_CH1N" bidirectional line)
          (alternate "TSC_G5_IO4" bidirectional line)
          (alternate "USART1_RX" bidirectional line)
          (alternate "USART4_CTS" bidirectional line)
        )
        (pin input line (at -15.24 30.48 0) (length 2.54)
          (name "BOOT0" (effects (font (size 1.27 1.27))))
          (number "44" (effects (font (size 1.27 1.27))))
        )
        (pin bidirectional line (at -15.24 -12.7 0) (length 2.54)
          (name "PB8" (effects (font (size 1.27 1.27))))
          (number "45" (effects (font (size 1.27 1.27))))
          (alternate "CAN_RX" bidirectional line)
          (alternate "CEC" bidirectional line)
          (alternate "I2C1_SCL" bidirectional line)
          (alternate "TIM16_CH1" bidirectional line)
          (alternate "TSC_SYNC" bidirectional line)
        )
        (pin bidirectional line (at -15.24 -15.24 0) (length 2.54)
          (name "PB9" (effects (font (size 1.27 1.27))))
          (number "46" (effects (font (size 1.27 1.27))))
          (alternate "CAN_TX" bidirectional line)
          (alternate "DAC_EXTI9" bidirectional line)
          (alternate "I2C1_SDA" bidirectional line)
          (alternate "I2S2_WS" bidirectional line)
          (alternate "IR_OUT" bidirectional line)
          (alternate "SPI2_NSS" bidirectional line)
          (alternate "TIM17_CH1" bidirectional line)
        )
        (pin passive line (at 0 -38.1 90) (length 2.54) hide
          (name "VSS" (effects (font (size 1.27 1.27))))
          (number "47" (effects (font (size 1.27 1.27))))
        )
        (pin power_in line (at 2.54 40.64 270) (length 2.54)
          (name "VDD" (effects (font (size 1.27 1.27))))
          (number "48" (effects (font (size 1.27 1.27))))
        )
        (pin bidirectional line (at -15.24 25.4 0) (length 2.54)
          (name "PF0" (effects (font (size 1.27 1.27))))
          (number "5" (effects (font (size 1.27 1.27))))
          (alternate "CRS_SYNC" bidirectional line)
          (alternate "RCC_OSC_IN" bidirectional line)
        )
        (pin bidirectional line (at -15.24 22.86 0) (length 2.54)
          (name "PF1" (effects (font (size 1.27 1.27))))
          (number "6" (effects (font (size 1.27 1.27))))
          (alternate "RCC_OSC_OUT" bidirectional line)
        )
        (pin input line (at -15.24 35.56 0) (length 2.54)
          (name "NRST" (effects (font (size 1.27 1.27))))
          (number "7" (effects (font (size 1.27 1.27))))
        )
        (pin power_in line (at 2.54 -38.1 90) (length 2.54)
          (name "VSSA" (effects (font (size 1.27 1.27))))
          (number "8" (effects (font (size 1.27 1.27))))
        )
        (pin power_in line (at 5.08 40.64 270) (length 2.54)
          (name "VDDA" (effects (font (size 1.27 1.27))))
          (number "9" (effects (font (size 1.27 1.27))))
        )
      )
    )
    (symbol "Switch:SW_SPDT" (pin_names (offset 0) hide) (in_bom yes) (on_board yes)
      (property "Reference" "SW" (at 0 4.318 0)
        (effects (font (size 1.27 1.27)))
      )
      (property "Value" "SW_SPDT" (at 0 -5.08 0)
        (effects (font (size 1.27 1.27)))
      )
      (property "Footprint" "" (at 0 0 0)
        (effects (font (size 1.27 1.27)) hide)
      )
      (property "Datasheet" "~" (at 0 0 0)
        (effects (font (size 1.27 1.27)) hide)
      )
      (property "ki_keywords" "switch single-pole double-throw spdt ON-ON" (at 0 0 0)
        (effects (font (size 1.27 1.27)) hide)
      )
      (property "ki_description" "Switch, single pole double throw" (at 0 0 0)
        (effects (font (size 1.27 1.27)) hide)
      )
      (symbol "SW_SPDT_0_0"
        (circle (center -2.032 0) (radius 0.508)
          (stroke (width 0) (type default))
          (fill (type none))
        )
        (circle (center 2.032 -2.54) (radius 0.508)
          (stroke (width 0) (type default))
          (fill (type none))
        )
      )
      (symbol "SW_SPDT_0_1"
        (polyline
          (pts
            (xy -1.524 0.254)
            (xy 1.651 2.286)
          )
          (stroke (width 0) (type default))
          (fill (type none))
        )
        (circle (center 2.032 2.54) (radius 0.508)
          (stroke (width 0) (type default))
          (fill (type none))
        )
      )
      (symbol "SW_SPDT_1_1"
        (pin passive line (at 5.08 2.54 180) (length 2.54)
          (name "A" (effects (font (size 1.27 1.27))))
          (number "1" (effects (font (size 1.27 1.27))))
        )
        (pin passive line (at -5.08 0 0) (length 2.54)
          (name "B" (effects (font (size 1.27 1.27))))
          (number "2" (effects (font (size 1.27 1.27))))
        )
        (pin passive line (at 5.08 -2.54 180) (length 2.54)
          (name "C" (effects (font (size 1.27 1.27))))
          (number "3" (effects (font (size 1.27 1.27))))
        )
      )
    )
    (symbol "power:+3V0" (power) (pin_names (offset 0)) (in_bom yes) (on_board yes)
      (property "Reference" "#PWR" (at 0 -3.81 0)
        (effects (font (size 1.27 1.27)) hide)
      )
      (property "Value" "+3V0" (at 0 3.556 0)
        (effects (font (size 1.27 1.27)))
      )
      (property "Footprint" "" (at 0 0 0)
        (effects (font (size 1.27 1.27)) hide)
      )
      (property "Datasheet" "" (at 0 0 0)
        (effects (font (size 1.27 1.27)) hide)
      )
      (property "ki_keywords" "global power" (at 0 0 0)
        (effects (font (size 1.27 1.27)) hide)
      )
      (property "ki_description" "Power symbol creates a global label with name \"+3V0\"" (at 0 0 0)
        (effects (font (size 1.27 1.27)) hide)
      )
      (symbol "+3V0_0_1"
        (polyline
          (pts
            (xy -0.762 1.27)
            (xy 0 2.54)
          )
          (stroke (width 0) (type default))
          (fill (type none))
        )
        (polyline
          (pts
            (xy 0 0)
            (xy 0 2.54)
          )
          (stroke (width 0) (type default))
          (fill (type none))
        )
        (polyline
          (pts
            (xy 0 2.54)
            (xy 0.762 1.27)
          )
          (stroke (width 0) (type default))
          (fill (type none))
        )
      )
      (symbol "+3V0_1_1"
        (pin power_in line (at 0 0 90) (length 0) hide
          (name "+3V0" (effects (font (size 1.27 1.27))))
          (number "1" (effects (font (size 1.27 1.27))))
        )
      )
    )
    (symbol "power:PWR_FLAG" (power) (pin_numbers hide) (pin_names (offset 0) hide) (in_bom yes) (on_board yes)
      (property "Reference" "#FLG" (at 0 1.905 0)
        (effects (font (size 1.27 1.27)) hide)
      )
      (property "Value" "PWR_FLAG" (at 0 3.81 0)
        (effects (font (size 1.27 1.27)))
      )
      (property "Footprint" "" (at 0 0 0)
        (effects (font (size 1.27 1.27)) hide)
      )
      (property "Datasheet" "~" (at 0 0 0)
        (effects (font (size 1.27 1.27)) hide)
      )
      (property "ki_keywords" "flag power" (at 0 0 0)
        (effects (font (size 1.27 1.27)) hide)
      )
      (property "ki_description" "Special symbol for telling ERC where power comes from" (at 0 0 0)
        (effects (font (size 1.27 1.27)) hide)
      )
      (symbol "PWR_FLAG_0_0"
        (pin power_out line (at 0 0 90) (length 0)
          (name "pwr" (effects (font (size 1.27 1.27))))
          (number "1" (effects (font (size 1.27 1.27))))
        )
      )
      (symbol "PWR_FLAG_0_1"
        (polyline
          (pts
            (xy 0 0)
            (xy 0 1.27)
            (xy -1.016 1.905)
            (xy 0 2.54)
            (xy 1.016 1.905)
            (xy 0 1.27)
          )
          (stroke (width 0) (type default))
          (fill (type none))
        )
      )
    )
  )

  (junction (at 147.32 59.69) (diameter 0) (color 0 0 0 0)
    (uuid 095b82d8-69f9-435a-ac7a-0abe682829fc)
  )
  (junction (at 115.57 57.15) (diameter 0) (color 0 0 0 0)
    (uuid 22c1da4c-2733-4c4a-b713-62ea5c51047e)
  )
  (junction (at 68.58 107.95) (diameter 0) (color 0 0 0 0)
    (uuid 22c53528-0975-42d6-8d23-c63855b1c4b9)
  )
  (junction (at 115.57 49.53) (diameter 0) (color 0 0 0 0)
    (uuid 34d8c3b4-d780-472b-9c53-de98a2d16b1b)
  )
  (junction (at 165.1 49.53) (diameter 0) (color 0 0 0 0)
    (uuid 40f2c1d5-e0e9-4adf-b3dc-cc483ff52f6e)
  )
  (junction (at 147.32 49.53) (diameter 0) (color 0 0 0 0)
    (uuid 46e42b16-da47-44ff-8545-78a55ae8022f)
  )
  (junction (at 68.58 99.06) (diameter 0) (color 0 0 0 0)
    (uuid 4718077c-9c1d-47cf-9ee9-9a4546a44e83)
  )
  (junction (at 77.47 49.53) (diameter 0) (color 0 0 0 0)
    (uuid 4a9a3e5a-19b8-4284-846e-9564cd8313dc)
  )
  (junction (at 135.89 49.53) (diameter 0) (color 0 0 0 0)
    (uuid 4c19ab84-eb75-4a08-877a-7d889ca5edd2)
  )
  (junction (at 120.65 57.15) (diameter 0) (color 0 0 0 0)
    (uuid 4d4b88d0-6362-47e5-8114-511893a1ec12)
  )
  (junction (at 77.47 59.69) (diameter 0) (color 0 0 0 0)
    (uuid 5e04d9fd-2f9b-4c18-aabe-c587576bfa97)
  )
  (junction (at 64.77 59.69) (diameter 0) (color 0 0 0 0)
    (uuid 61041510-26f0-4eed-b9ca-cbcdc09cdb36)
  )
  (junction (at 52.07 59.69) (diameter 0) (color 0 0 0 0)
    (uuid 71e9562e-738b-4afe-8e8e-12ceb41c7f8d)
  )
  (junction (at 58.42 107.95) (diameter 0) (color 0 0 0 0)
    (uuid 7fccdbaa-ed75-415b-949b-921a8c32e8e1)
  )
  (junction (at 119.38 138.43) (diameter 0) (color 0 0 0 0)
    (uuid 8385ffdc-9b82-4c00-a9ed-935124309e5b)
  )
  (junction (at 123.19 49.53) (diameter 0) (color 0 0 0 0)
    (uuid 93588490-1517-4a2c-a6c5-4f513190ebbf)
  )
  (junction (at 118.11 57.15) (diameter 0) (color 0 0 0 0)
    (uuid a3ac84aa-8c5c-4d40-8321-adde06afc4dd)
  )
  (junction (at 58.42 92.71) (diameter 0) (color 0 0 0 0)
    (uuid a9e57bac-57ae-4397-b0ed-e4f60c200809)
  )
  (junction (at 64.77 49.53) (diameter 0) (color 0 0 0 0)
    (uuid ba20f2a2-4464-47fa-b508-09ae9d2615ea)
  )
  (junction (at 90.17 59.69) (diameter 0) (color 0 0 0 0)
    (uuid d22e9bba-8eb4-4d5c-9da5-e088ccc1b9ff)
  )
  (junction (at 78.74 92.71) (diameter 0) (color 0 0 0 0)
    (uuid e0ffa643-294e-47f5-8fce-9164811e71f1)
  )
  (junction (at 102.87 49.53) (diameter 0) (color 0 0 0 0)
    (uuid e15e6312-f4c6-4471-8649-c3eafb5806b3)
  )
  (junction (at 90.17 49.53) (diameter 0) (color 0 0 0 0)
    (uuid e52b5c33-0567-46d9-9a5a-c60c89d49349)
  )

  (no_connect (at 102.87 104.14) (uuid 0439ee58-05b9-49e6-8649-ef6071e22c10))
  (no_connect (at 143.51 99.06) (uuid 1d878cf5-ed8b-4c3f-80cd-9f7b543d339d))
  (no_connect (at 102.87 106.68) (uuid 20dbe804-4902-4f00-ab6b-24143ce178b7))
  (no_connect (at 102.87 101.6) (uuid 2363dc70-227c-48b4-bde4-229c95263cde))
  (no_connect (at 102.87 111.76) (uuid 36c9b705-92ee-464d-a66e-a005ca0a4615))
  (no_connect (at 135.89 88.9) (uuid 43fdadb7-b292-4e8c-ad65-0cbffb41fec0))
  (no_connect (at 143.51 96.52) (uuid 4ae571af-a08c-482d-814c-1b7c9a9650f0))
  (no_connect (at 102.87 109.22) (uuid 5a8cc693-1081-4b9a-9653-2fba7f71a71d))
  (no_connect (at 102.87 81.28) (uuid 66d2f9e3-2fbe-4919-967d-6de6a7749cd2))
  (no_connect (at 102.87 114.3) (uuid 94ff7320-8fdb-4524-95e3-09205cec3591))
  (no_connect (at 102.87 86.36) (uuid 9e320504-1bea-4687-924e-61c909154e56))
  (no_connect (at 102.87 99.06) (uuid a05597dd-8369-410d-bec4-f07cc755f1f5))
  (no_connect (at 102.87 83.82) (uuid d4d9d4cf-91c9-4174-a9b5-3885d549a95c))
  (no_connect (at 135.89 86.36) (uuid d5c19d3a-0e86-42e6-98ef-ff2a89059213))
  (no_connect (at 135.89 101.6) (uuid e4ba0910-3ff3-42a1-badd-c33a7226ddd8))

  (wire (pts (xy 88.9 73.66) (xy 88.9 83.82))
    (stroke (width 0) (type default))
    (uuid 00f84639-2b6b-4925-9486-7f45db79fbef)
  )
  (wire (pts (xy 90.17 49.53) (xy 102.87 49.53))
    (stroke (width 0) (type default))
    (uuid 01fbb2f6-49eb-4fa0-9cdb-4594d6b38c29)
  )
  (wire (pts (xy 64.77 49.53) (xy 64.77 50.8))
    (stroke (width 0) (type default))
    (uuid 063e2ad0-0a10-478c-9bca-4dd594d54744)
  )
  (wire (pts (xy 101.6 91.44) (xy 102.87 91.44))
    (stroke (width 0) (type default))
    (uuid 0bfa07b1-d843-4db3-81fc-63df8f00aa4c)
  )
  (wire (pts (xy 135.89 71.12) (xy 137.16 71.12))
    (stroke (width 0) (type default))
    (uuid 0cb831f3-390b-4151-93b0-4fc2b7972952)
  )
  (wire (pts (xy 135.89 66.04) (xy 137.16 66.04))
    (stroke (width 0) (type default))
    (uuid 0d2d33d6-41e9-4e4f-a2d9-a51f51b1cc28)
  )
  (wire (pts (xy 123.19 48.26) (xy 123.19 49.53))
    (stroke (width 0) (type default))
    (uuid 102977f8-8386-4adb-a0d2-29f700d15e5e)
  )
  (wire (pts (xy 125.73 57.15) (xy 120.65 57.15))
    (stroke (width 0) (type default))
    (uuid 10713e1a-674f-4b8b-8292-a36cba581cbe)
  )
  (polyline (pts (xy 44.45 35.56) (xy 177.8 35.56))
    (stroke (width 0) (type dash))
    (uuid 128f109e-9889-4ba9-841f-d68121c9bfe2)
  )

  (wire (pts (xy 78.74 92.71) (xy 72.39 92.71))
    (stroke (width 0) (type default))
    (uuid 13f21cbb-719b-4764-9763-2c40668c986c)
  )
  (polyline (pts (xy 177.8 35.56) (xy 177.8 146.05))
    (stroke (width 0) (type dash))
    (uuid 190cedf5-5c2a-464d-b411-7a3f0c138d9a)
  )

  (wire (pts (xy 115.57 48.26) (xy 115.57 49.53))
    (stroke (width 0) (type default))
    (uuid 195511d2-cb74-4241-831d-7c45f3cc0af1)
  )
  (wire (pts (xy 88.9 73.66) (xy 102.87 73.66))
    (stroke (width 0) (type default))
    (uuid 196c7ac8-9a3a-4083-95e2-46e182e392f9)
  )
  (wire (pts (xy 101.6 121.92) (xy 102.87 121.92))
    (stroke (width 0) (type default))
    (uuid 1b9fbf1e-29a9-47b3-b6ec-f11267b68d22)
  )
  (wire (pts (xy 118.11 138.43) (xy 119.38 138.43))
    (stroke (width 0) (type default))
    (uuid 1c48ed4b-c34f-498f-836e-e45d50b73887)
  )
  (wire (pts (xy 135.89 58.42) (xy 135.89 59.69))
    (stroke (width 0) (type default))
    (uuid 1e41eec3-ed0b-450d-a6b4-8ec775b5942c)
  )
  (wire (pts (xy 123.19 49.53) (xy 123.19 58.42))
    (stroke (width 0) (type default))
    (uuid 200a9b3c-62b5-428a-a5c8-67a924b853c0)
  )
  (polyline (pts (xy 177.8 146.05) (xy 44.45 146.05))
    (stroke (width 0) (type dash))
    (uuid 23d06667-8047-4ca4-a527-a9225715c805)
  )

  (wire (pts (xy 58.42 107.95) (xy 58.42 106.68))
    (stroke (width 0) (type default))
    (uuid 253e7eca-0b72-49ba-b78e-66472e68683e)
  )
  (wire (pts (xy 101.6 129.54) (xy 102.87 129.54))
    (stroke (width 0) (type default))
    (uuid 27e55ad4-b59f-44d7-b824-4d6cc58b9e76)
  )
  (wire (pts (xy 147.32 49.53) (xy 147.32 50.8))
    (stroke (width 0) (type default))
    (uuid 2ea6ed0f-7c87-4188-a7be-e255504fe9f7)
  )
  (wire (pts (xy 68.58 86.36) (xy 63.5 86.36))
    (stroke (width 0) (type default))
    (uuid 2fb8e006-267b-4e33-b24a-8006cd881697)
  )
  (wire (pts (xy 73.66 66.04) (xy 74.93 66.04))
    (stroke (width 0) (type default))
    (uuid 38d092b0-71a8-424d-a818-8f11d0a19ff7)
  )
  (wire (pts (xy 73.66 71.12) (xy 74.93 71.12))
    (stroke (width 0) (type default))
    (uuid 39a5ce58-d2b4-4f4b-ba38-f53c9dc6382b)
  )
  (wire (pts (xy 91.44 76.2) (xy 102.87 76.2))
    (stroke (width 0) (type default))
    (uuid 3f68494c-34e6-4c8b-af07-667703c41f3d)
  )
  (wire (pts (xy 165.1 49.53) (xy 165.1 50.8))
    (stroke (width 0) (type default))
    (uuid 3fac7f8c-7a6d-4b15-97aa-c0cf3ba66935)
  )
  (wire (pts (xy 90.17 49.53) (xy 90.17 50.8))
    (stroke (width 0) (type default))
    (uuid 43580773-39f7-4577-b2f6-2c9ff8536772)
  )
  (wire (pts (xy 135.89 50.8) (xy 135.89 49.53))
    (stroke (width 0) (type default))
    (uuid 446a5816-35c4-48a8-ad7b-437c0a2ba201)
  )
  (wire (pts (xy 64.77 59.69) (xy 52.07 59.69))
    (stroke (width 0) (type default))
    (uuid 4dbe3ec0-5a68-4202-94bc-9d543db39151)
  )
  (wire (pts (xy 101.6 116.84) (xy 102.87 116.84))
    (stroke (width 0) (type default))
    (uuid 4f7046bb-558d-407f-b0a9-4afe89ea111c)
  )
  (wire (pts (xy 73.66 72.39) (xy 73.66 71.12))
    (stroke (width 0) (type default))
    (uuid 52fa7d1e-98d3-49c0-9c74-1984e7f60f27)
  )
  (wire (pts (xy 119.38 138.43) (xy 120.65 138.43))
    (stroke (width 0) (type default))
    (uuid 5510b5b0-aace-4c9e-9c8a-00a315f55648)
  )
  (polyline (pts (xy 44.45 35.56) (xy 44.45 146.05))
    (stroke (width 0) (type dash))
    (uuid 5620cb51-3a59-4701-b24b-9a4c9376f27b)
  )

  (wire (pts (xy 123.19 49.53) (xy 135.89 49.53))
    (stroke (width 0) (type default))
    (uuid 56f99ca1-918e-40b9-8695-54b518aec344)
  )
  (wire (pts (xy 120.65 57.15) (xy 120.65 58.42))
    (stroke (width 0) (type default))
    (uuid 58e85f66-4214-4464-9b26-9c85cf63d1b7)
  )
  (wire (pts (xy 78.74 107.95) (xy 68.58 107.95))
    (stroke (width 0) (type default))
    (uuid 614c852e-7970-478e-bfd7-7b64b45862ab)
  )
  (wire (pts (xy 101.6 93.98) (xy 102.87 93.98))
    (stroke (width 0) (type default))
    (uuid 61b11c34-fbcd-49ae-b399-a95ba5bc4ff7)
  )
  (wire (pts (xy 52.07 58.42) (xy 52.07 59.69))
    (stroke (width 0) (type default))
    (uuid 61f189ff-7bf0-43aa-9e9c-1f5161d479f1)
  )
  (wire (pts (xy 147.32 49.53) (xy 156.21 49.53))
    (stroke (width 0) (type default))
    (uuid 65d5ff5a-b08c-424c-afed-70fcd14a7441)
  )
  (wire (pts (xy 161.29 49.53) (xy 165.1 49.53))
    (stroke (width 0) (type default))
    (uuid 67d8f167-50d1-4621-ba12-6730ad1dbbde)
  )
  (wire (pts (xy 102.87 49.53) (xy 115.57 49.53))
    (stroke (width 0) (type default))
    (uuid 6846a6f3-f4d0-428d-86df-538b35ac6dbc)
  )
  (wire (pts (xy 68.58 87.63) (xy 68.58 86.36))
    (stroke (width 0) (type default))
    (uuid 6e66f2da-3103-43be-8222-6717f7817131)
  )
  (wire (pts (xy 58.42 83.82) (xy 88.9 83.82))
    (stroke (width 0) (type default))
    (uuid 7026832f-2982-4277-be2e-5d70492807eb)
  )
  (wire (pts (xy 135.89 63.5) (xy 137.16 63.5))
    (stroke (width 0) (type default))
    (uuid 712dac98-fa49-446e-a0e3-b09e5ffc4328)
  )
  (wire (pts (xy 77.47 49.53) (xy 90.17 49.53))
    (stroke (width 0) (type default))
    (uuid 71842124-6498-484a-a06d-1915cef523b1)
  )
  (wire (pts (xy 102.87 58.42) (xy 102.87 59.69))
    (stroke (width 0) (type default))
    (uuid 74d975bb-32b0-46e9-843f-3b5e2affc58f)
  )
  (wire (pts (xy 58.42 63.5) (xy 102.87 63.5))
    (stroke (width 0) (type default))
    (uuid 82cdf7e6-ddc8-497c-a9c6-da3389c4f296)
  )
  (wire (pts (xy 165.1 58.42) (xy 165.1 60.96))
    (stroke (width 0) (type default))
    (uuid 841da64b-a4bf-4f0a-9932-170f8de57ef5)
  )
  (wire (pts (xy 102.87 49.53) (xy 102.87 50.8))
    (stroke (width 0) (type default))
    (uuid 885c33d4-c35f-4033-bc49-a5e881d339aa)
  )
  (wire (pts (xy 101.6 127) (xy 102.87 127))
    (stroke (width 0) (type default))
    (uuid 88d7ab39-a36e-4335-8de2-439cf66deec9)
  )
  (wire (pts (xy 58.42 92.71) (xy 64.77 92.71))
    (stroke (width 0) (type default))
    (uuid 8c0cf15f-ad65-4321-9a33-d79eb51af40f)
  )
  (wire (pts (xy 118.11 57.15) (xy 118.11 58.42))
    (stroke (width 0) (type default))
    (uuid 8c109c35-8ba7-441c-98c5-d82aaac44945)
  )
  (wire (pts (xy 52.07 50.8) (xy 52.07 49.53))
    (stroke (width 0) (type default))
    (uuid 8c7aec1a-6831-47a3-90da-dbc09d75d77a)
  )
  (wire (pts (xy 135.89 76.2) (xy 137.16 76.2))
    (stroke (width 0) (type default))
    (uuid 8fd57e41-c502-4def-b433-fe8699872e9c)
  )
  (wire (pts (xy 135.89 49.53) (xy 147.32 49.53))
    (stroke (width 0) (type default))
    (uuid 90293b86-2977-49c4-b616-15a0682d4db4)
  )
  (wire (pts (xy 77.47 49.53) (xy 77.47 50.8))
    (stroke (width 0) (type default))
    (uuid 909ebadf-ea90-4ec0-83fd-76f23785d295)
  )
  (wire (pts (xy 115.57 49.53) (xy 115.57 57.15))
    (stroke (width 0) (type default))
    (uuid 950fe5bf-0f7f-4e84-8cc2-7f3126bb38a8)
  )
  (wire (pts (xy 135.89 73.66) (xy 137.16 73.66))
    (stroke (width 0) (type default))
    (uuid 956df012-094e-4765-b564-204daa0eb37c)
  )
  (wire (pts (xy 77.47 58.42) (xy 77.47 59.69))
    (stroke (width 0) (type default))
    (uuid 97942ae8-a770-4653-b0d8-85f55c4425f2)
  )
  (wire (pts (xy 58.42 92.71) (xy 58.42 83.82))
    (stroke (width 0) (type default))
    (uuid 9a79fc68-3f67-4c1b-aa4e-169da36da22e)
  )
  (wire (pts (xy 64.77 49.53) (xy 77.47 49.53))
    (stroke (width 0) (type default))
    (uuid 9c0a9e19-bf79-457a-bcd7-11c720d73d65)
  )
  (wire (pts (xy 78.74 92.71) (xy 91.44 92.71))
    (stroke (width 0) (type default))
    (uuid 9ea9bcb7-e927-4193-a333-16b0e1910d89)
  )
  (wire (pts (xy 68.58 99.06) (xy 68.58 107.95))
    (stroke (width 0) (type default))
    (uuid 9f4cd21f-e62b-4a32-b3b6-21348c7d2fad)
  )
  (wire (pts (xy 95.25 68.58) (xy 102.87 68.58))
    (stroke (width 0) (type default))
    (uuid 9fd5e24e-f477-41bf-a7ef-216b2865fe68)
  )
  (wire (pts (xy 135.89 83.82) (xy 137.16 83.82))
    (stroke (width 0) (type default))
    (uuid a2b629bf-290a-452a-9e0f-dd450cf47a22)
  )
  (wire (pts (xy 125.73 58.42) (xy 125.73 57.15))
    (stroke (width 0) (type default))
    (uuid a330f9e3-9dd2-473c-a165-babf40fe4360)
  )
  (wire (pts (xy 135.89 68.58) (xy 137.16 68.58))
    (stroke (width 0) (type default))
    (uuid a4e4c8ab-6fa3-4b2a-ad48-633b6234f214)
  )
  (wire (pts (xy 165.1 49.53) (xy 165.1 48.26))
    (stroke (width 0) (type default))
    (uuid a7a38458-5c3d-4d96-ab02-11ce3564bbd5)
  )
  (wire (pts (xy 58.42 99.06) (xy 58.42 92.71))
    (stroke (width 0) (type default))
    (uuid ab4ec7af-6c2b-46b4-9f91-2a2df87381aa)
  )
  (wire (pts (xy 77.47 59.69) (xy 64.77 59.69))
    (stroke (width 0) (type default))
    (uuid ae02d455-57f2-46e2-a7e5-321ee90b5a9e)
  )
  (wire (pts (xy 120.65 138.43) (xy 120.65 137.16))
    (stroke (width 0) (type default))
    (uuid b01352f7-0092-42e9-9bed-95d0615e1a09)
  )
  (wire (pts (xy 135.89 78.74) (xy 137.16 78.74))
    (stroke (width 0) (type default))
    (uuid b1cdd4ad-ea05-4486-8ab6-2b639db7a1dd)
  )
  (wire (pts (xy 147.32 59.69) (xy 147.32 60.96))
    (stroke (width 0) (type default))
    (uuid b2588f46-b7f1-4579-bf92-ac8e94ed9cc4)
  )
  (wire (pts (xy 68.58 97.79) (xy 68.58 99.06))
    (stroke (width 0) (type default))
    (uuid b3b119fe-2f39-45b4-965d-41cb3c78b7ce)
  )
  (wire (pts (xy 101.6 119.38) (xy 102.87 119.38))
    (stroke (width 0) (type default))
    (uuid b3be3d1f-ec73-4496-bb7d-2dd1544a654e)
  )
  (wire (pts (xy 118.11 57.15) (xy 120.65 57.15))
    (stroke (width 0) (type default))
    (uuid b848a437-85fc-42cd-8a39-d8ad2bbe3ff4)
  )
  (wire (pts (xy 115.57 57.15) (xy 118.11 57.15))
    (stroke (width 0) (type default))
    (uuid b891075d-0535-4384-811b-f110a0839aea)
  )
  (wire (pts (xy 119.38 138.43) (xy 119.38 139.7))
    (stroke (width 0) (type default))
    (uuid bad2783e-a230-42e1-8df2-94951e465ee6)
  )
  (wire (pts (xy 118.11 137.16) (xy 118.11 138.43))
    (stroke (width 0) (type default))
    (uuid bd7debf9-4d14-46fa-8ac6-cb70b23c048a)
  )
  (wire (pts (xy 90.17 59.69) (xy 77.47 59.69))
    (stroke (width 0) (type default))
    (uuid bdc82e91-175c-47a3-baf0-83a0787ecd7e)
  )
  (wire (pts (xy 135.89 81.28) (xy 137.16 81.28))
    (stroke (width 0) (type default))
    (uuid becbff7f-7917-44cf-a214-6fcae6fdb2c9)
  )
  (wire (pts (xy 90.17 58.42) (xy 90.17 59.69))
    (stroke (width 0) (type default))
    (uuid cc8ba9aa-9273-4db1-b1fd-fb89f3746a63)
  )
  (wire (pts (xy 147.32 58.42) (xy 147.32 59.69))
    (stroke (width 0) (type default))
    (uuid cca37ded-3d48-4261-a989-062020bd6098)
  )
  (wire (pts (xy 58.42 72.39) (xy 58.42 73.66))
    (stroke (width 0) (type default))
    (uuid cd98608c-cd16-44af-a732-c717e8a116a5)
  )
  (wire (pts (xy 78.74 99.06) (xy 78.74 92.71))
    (stroke (width 0) (type default))
    (uuid cdc6f200-437c-4818-afdd-a2a957f45ed0)
  )
  (wire (pts (xy 58.42 63.5) (xy 58.42 64.77))
    (stroke (width 0) (type default))
    (uuid ceb721c5-ac8f-4b24-b77a-a696fa3c5d70)
  )
  (wire (pts (xy 68.58 107.95) (xy 58.42 107.95))
    (stroke (width 0) (type default))
    (uuid d49cff53-a907-45fe-b92b-a9bd983b4fae)
  )
  (wire (pts (xy 101.6 96.52) (xy 102.87 96.52))
    (stroke (width 0) (type default))
    (uuid dd6a6cc5-aca2-4704-8b05-602ccf8456e4)
  )
  (wire (pts (xy 135.89 96.52) (xy 143.51 96.52))
    (stroke (width 0) (type default))
    (uuid de9bfd30-536c-4416-b73c-f79ec0742fd0)
  )
  (wire (pts (xy 64.77 58.42) (xy 64.77 59.69))
    (stroke (width 0) (type default))
    (uuid df10f751-584f-4f0e-aba6-e1a3f1581715)
  )
  (wire (pts (xy 101.6 124.46) (xy 102.87 124.46))
    (stroke (width 0) (type default))
    (uuid e04f1ac1-081d-4508-91ba-a842e4b537ca)
  )
  (wire (pts (xy 135.89 99.06) (xy 143.51 99.06))
    (stroke (width 0) (type default))
    (uuid e1dee390-0031-4dc1-8be5-2431c0190936)
  )
  (wire (pts (xy 63.5 86.36) (xy 63.5 99.06))
    (stroke (width 0) (type default))
    (uuid e1e96e87-c3e9-46cf-9a95-1511a765b76d)
  )
  (wire (pts (xy 115.57 58.42) (xy 115.57 57.15))
    (stroke (width 0) (type default))
    (uuid e543e098-9ead-4c48-9f8b-0bb4e94cafde)
  )
  (wire (pts (xy 52.07 49.53) (xy 64.77 49.53))
    (stroke (width 0) (type default))
    (uuid e861f593-484e-401b-901b-f0a8653072c9)
  )
  (wire (pts (xy 102.87 59.69) (xy 90.17 59.69))
    (stroke (width 0) (type default))
    (uuid e9f45cfa-193f-4381-a5de-42fe00d190e6)
  )
  (wire (pts (xy 135.89 93.98) (xy 147.32 93.98))
    (stroke (width 0) (type default))
    (uuid eae0e197-2758-4ccb-a49b-5edb7e971ea9)
  )
  (wire (pts (xy 135.89 91.44) (xy 147.32 91.44))
    (stroke (width 0) (type default))
    (uuid ecfa4a61-dfb7-46e4-ac4d-24d011e47d84)
  )
  (wire (pts (xy 91.44 76.2) (xy 91.44 92.71))
    (stroke (width 0) (type default))
    (uuid ed4e281a-7493-4912-900c-15881d46ab94)
  )
  (wire (pts (xy 63.5 99.06) (xy 68.58 99.06))
    (stroke (width 0) (type default))
    (uuid ed6def73-71ac-4eeb-8645-d6eb7dc9175d)
  )
  (wire (pts (xy 52.07 59.69) (xy 52.07 60.96))
    (stroke (width 0) (type default))
    (uuid eecb7e26-92a8-449b-8015-2d0769b14aed)
  )
  (wire (pts (xy 58.42 107.95) (xy 58.42 109.22))
    (stroke (width 0) (type default))
    (uuid f170b7c3-7ac8-4012-b7f8-37bcaed67da6)
  )
  (wire (pts (xy 85.09 68.58) (xy 90.17 68.58))
    (stroke (width 0) (type default))
    (uuid f5d376ae-146d-410d-ab3c-2483c68315b2)
  )
  (wire (pts (xy 78.74 106.68) (xy 78.74 107.95))
    (stroke (width 0) (type default))
    (uuid fa25ed11-bc17-476c-b311-cb8d7c822af9)
  )
  (wire (pts (xy 135.89 59.69) (xy 147.32 59.69))
    (stroke (width 0) (type default))
    (uuid fe75618e-3107-47e9-aecb-db7dc1dec881)
  )

  (text "CL = 2*(CLO-Cs) = 2*(15-5)pF = 20pF" (at 46.99 82.55 0)
    (effects (font (size 1.27 1.27) bold) (justify left bottom))
    (uuid 1d220676-9145-436d-886f-4f68853e0f30)
  )
  (text "mkbd65 Microcontroller" (at 15.24 21.59 0)
    (effects (font (size 5.2 5.2) bold) (justify left bottom))
    (uuid 2bbe88e7-55f2-41d3-822f-7d1abebc6a2f)
  )
  (text "Pinout using STM32CubeMX" (at 45.72 148.59 0)
    (effects (font (size 1.27 1.27) bold) (justify left bottom))
    (uuid 5876d085-93fe-4aa9-a318-a85e128f26be)
  )
  (text "1x 100nF per VDD/VBAT pin" (at 64.77 46.99 0)
    (effects (font (size 1.27 1.27) bold) (justify left bottom))
    (uuid 611299b9-e7e6-421a-b1b1-ab6d9ae6b0cd)
  )
  (text "USB App note AN4879" (at 148.59 88.9 0)
    (effects (font (size 1.27 1.27) bold) (justify left bottom))
    (uuid 7df47abf-39ba-407e-ba83-c32ea9f4f4c6)
  )
  (text "Microcontroller" (at 45.72 34.29 0)
    (effects (font (size 2.54 2.54) (thickness 0.508) bold) (justify left bottom))
    (uuid 82faffb5-432b-4ef6-a17d-82ded3c65711)
  )
  (text "VDDA filtering" (at 149.86 68.58 0)
    (effects (font (size 1.27 1.27) bold) (justify left bottom))
    (uuid 85eab9dc-b27f-430a-92af-ee105393da6c)
  )
  (text "COL0-12 and ROW0-4 connect to switch matrix\nUSB_DM and USB_DP connect to phones USB-C"
    (at 49.53 140.97 0)
    (effects (font (size 1.27 1.27) bold) (justify left bottom))
    (uuid a0f07ea1-01fb-48ca-af71-b016794ffb40)
  )
  (text "Analog power management\nmight be unnecessary" (at 123.19 40.64 0)
    (effects (font (size 1.27 1.27)) (justify left bottom))
    (uuid c47e140b-dc60-46f3-88ba-13c9f911eb69)
  )

  (label "USB_DM" (at 137.16 91.44 0) (fields_autoplaced)
    (effects (font (size 1.27 1.27)) (justify left bottom))
    (uuid 0ca0ee12-18df-4837-9f83-d72465fbdbc9)
  )
  (label "SW_BOOT0" (at 85.09 68.58 0) (fields_autoplaced)
    (effects (font (size 0.635 0.635)) (justify left bottom))
    (uuid 2ba1240c-6c9b-4882-bf24-1feda4c8bc7c)
  )
  (label "HSE_OUT" (at 93.98 76.2 0) (fields_autoplaced)
    (effects (font (size 1.27 1.27)) (justify left bottom))
    (uuid 3f93ddbd-8bd3-4bd0-9717-55be1d5b441e)
  )
  (label "NRST" (at 86.36 63.5 0) (fields_autoplaced)
    (effects (font (size 1.27 1.27)) (justify left bottom))
    (uuid 4fbc7e00-5112-4087-8026-b992dbb9effe)
  )
  (label "BOOT0" (at 95.25 68.58 0) (fields_autoplaced)
    (effects (font (size 1.27 1.27)) (justify left bottom))
    (uuid 879cadc6-76d3-42e0-8a93-3341325cc841)
  )
  (label "USB_DP" (at 137.16 93.98 0) (fields_autoplaced)
    (effects (font (size 1.27 1.27)) (justify left bottom))
    (uuid 89aba1e2-f0d3-4d1d-814e-f9323ba364b7)
  )
  (label "SWCLK" (at 137.16 99.06 0) (fields_autoplaced)
    (effects (font (size 1.27 1.27)) (justify left bottom))
    (uuid a0f8eb50-c0d5-4b97-a22a-48ff9d8fd023)
  )
  (label "SWDIO" (at 137.16 96.52 0) (fields_autoplaced)
    (effects (font (size 1.27 1.27)) (justify left bottom))
    (uuid b6598e40-adf5-4059-afe1-a23ee0947202)
  )
  (label "HSE_IN" (at 93.98 73.66 0) (fields_autoplaced)
    (effects (font (size 1.27 1.27)) (justify left bottom))
    (uuid f7a29d97-8dc4-4f26-8c17-aa00065fbf0c)
  )

  (hierarchical_label "ROW4" (shape input) (at 137.16 83.82 0) (fields_autoplaced)
    (effects (font (size 1.27 1.27)) (justify left))
    (uuid 0d15dd26-3610-483e-8c1e-63d0b2bc2671)
  )
  (hierarchical_label "COL9" (shape input) (at 101.6 93.98 180) (fields_autoplaced)
    (effects (font (size 1.27 1.27)) (justify right))
    (uuid 13a10737-28ae-426a-9ce3-3f6f2d7f8429)
  )
  (hierarchical_label "COL12" (shape input) (at 101.6 119.38 180) (fields_autoplaced)
    (effects (font (size 1.27 1.27)) (justify right))
    (uuid 2e63c8a7-384c-49a1-8456-8cf912476384)
  )
  (hierarchical_label "COL3" (shape input) (at 137.16 71.12 0) (fields_autoplaced)
    (effects (font (size 1.27 1.27)) (justify left))
    (uuid 30d04874-e36c-4d7d-b340-9db2c7c63a74)
  )
  (hierarchical_label "COL11" (shape input) (at 101.6 116.84 180) (fields_autoplaced)
    (effects (font (size 1.27 1.27)) (justify right))
    (uuid 4e0554c1-dddf-4ad3-bcc3-f400da8dcc75)
  )
  (hierarchical_label "USB_DM" (shape input) (at 147.32 91.44 0) (fields_autoplaced)
    (effects (font (size 1.27 1.27)) (justify left))
    (uuid 51f75be4-5b56-4509-bace-c02102a2dfa9)
  )
  (hierarchical_label "ROW0" (shape input) (at 101.6 121.92 180) (fields_autoplaced)
    (effects (font (size 1.27 1.27)) (justify right))
    (uuid 5d20ed85-6e04-4f43-9201-95e734bde6eb)
  )
  (hierarchical_label "COL2" (shape input) (at 137.16 68.58 0) (fields_autoplaced)
    (effects (font (size 1.27 1.27)) (justify left))
    (uuid 662c1891-bf92-479e-af2f-c74a587cf1b5)
  )
  (hierarchical_label "COL7" (shape input) (at 137.16 81.28 0) (fields_autoplaced)
    (effects (font (size 1.27 1.27)) (justify left))
    (uuid 683ab8ce-6663-421e-a3f9-c418626e1367)
  )
  (hierarchical_label "COL10" (shape input) (at 101.6 96.52 180) (fields_autoplaced)
    (effects (font (size 1.27 1.27)) (justify right))
    (uuid 7d0fab4d-fa79-434e-84a5-6f1d145a51cb)
  )
  (hierarchical_label "COL0" (shape input) (at 137.16 63.5 0) (fields_autoplaced)
    (effects (font (size 1.27 1.27)) (justify left))
    (uuid 907ae120-60e6-47b2-b9ac-790f5cf0e693)
  )
  (hierarchical_label "COL5" (shape input) (at 137.16 76.2 0) (fields_autoplaced)
    (effects (font (size 1.27 1.27)) (justify left))
    (uuid aa10d223-e7eb-4507-84cd-dd9097c138e2)
  )
  (hierarchical_label "COL4" (shape input) (at 137.16 73.66 0) (fields_autoplaced)
    (effects (font (size 1.27 1.27)) (justify left))
    (uuid c5336f43-57b0-44ad-9382-861c26fc3aaf)
  )
  (hierarchical_label "ROW2" (shape input) (at 101.6 127 180) (fields_autoplaced)
    (effects (font (size 1.27 1.27)) (justify right))
    (uuid c5528be9-7c0c-441f-8570-1ac91bfeef97)
  )
  (hierarchical_label "COL1" (shape input) (at 137.16 66.04 0) (fields_autoplaced)
    (effects (font (size 1.27 1.27)) (justify left))
    (uuid c7ced0a6-7d8d-49e0-8d75-275fbf2370be)
  )
  (hierarchical_label "ROW3" (shape input) (at 101.6 129.54 180) (fields_autoplaced)
    (effects (font (size 1.27 1.27)) (justify right))
    (uuid d9eb09bf-81aa-40d4-82ae-f8b7cf2347ac)
  )
  (hierarchical_label "USB_DP" (shape input) (at 147.32 93.98 0) (fields_autoplaced)
    (effects (font (size 1.27 1.27)) (justify left))
    (uuid daf59415-0e73-4366-a7b5-d47746f388cd)
  )
  (hierarchical_label "ROW1" (shape input) (at 101.6 124.46 180) (fields_autoplaced)
    (effects (font (size 1.27 1.27)) (justify right))
    (uuid de519843-50e4-44c3-a078-2f3f9386a30d)
  )
  (hierarchical_label "COL6" (shape input) (at 137.16 78.74 0) (fields_autoplaced)
    (effects (font (size 1.27 1.27)) (justify left))
    (uuid f424ec92-bbbb-46d7-8fc8-e2307111296f)
  )
  (hierarchical_label "COL8" (shape input) (at 101.6 91.44 180) (fields_autoplaced)
    (effects (font (size 1.27 1.27)) (justify right))
    (uuid fdd36651-8e43-4f11-a060-4b133d0bb039)
  )

  (symbol (lib_name "GND_1") (lib_id "power:GND") (at 119.38 139.7 0) (unit 1)
    (in_bom yes) (on_board yes) (dnp no)
    (uuid 0c1789b0-ac12-4de7-9392-6d38c33c3e78)
    (property "Reference" "#PWR016" (at 119.38 146.05 0)
      (effects (font (size 1.27 1.27)) hide)
    )
    (property "Value" "GND" (at 119.38 143.51 0)
      (effects (font (size 1.27 1.27)))
    )
    (property "Footprint" "" (at 119.38 139.7 0)
      (effects (font (size 1.27 1.27)) hide)
    )
    (property "Datasheet" "" (at 119.38 139.7 0)
      (effects (font (size 1.27 1.27)) hide)
    )
    (pin "1" (uuid d016d46f-39c4-4575-981a-158e3cb30a01))
    (instances
      (project "mkbd65"
        (path "/efeac2a2-7682-4dc7-83ee-f6f1b23da506/00000000-0000-0000-0000-00005d9fef73"
          (reference "#PWR016") (unit 1)
        )
      )
    )
  )

  (symbol (lib_id "Device:C") (at 102.87 54.61 0) (unit 1)
    (in_bom yes) (on_board yes) (dnp no) (fields_autoplaced)
    (uuid 10131d3b-3777-461a-9f74-4362e192d691)
    (property "Reference" "C20" (at 106.68 53.975 0)
      (effects (font (size 1.27 1.27)) (justify left))
    )
    (property "Value" "100nF" (at 106.68 56.515 0)
      (effects (font (size 1.27 1.27)) (justify left))
    )
    (property "Footprint" "Capacitor_SMD:C_0805_2012Metric_Pad1.18x1.45mm_HandSolder" (at 103.8352 58.42 0)
      (effects (font (size 1.27 1.27)) hide)
    )
    (property "Datasheet" "~" (at 102.87 54.61 0)
      (effects (font (size 1.27 1.27)) hide)
    )
    (pin "1" (uuid f79b4cb3-05c9-46c6-8413-3ab8b6080677))
    (pin "2" (uuid 94e23f4f-1ab1-4677-8cfc-48f07e256d3d))
    (instances
      (project "mkbd65"
        (path "/efeac2a2-7682-4dc7-83ee-f6f1b23da506/00000000-0000-0000-0000-00005d9fef73"
          (reference "C20") (unit 1)
        )
      )
    )
  )

  (symbol (lib_id "power:+3V0") (at 115.57 48.26 0) (unit 1)
    (in_bom yes) (on_board yes) (dnp no)
    (uuid 22180b7c-fab9-4886-98da-2cd3ab82d3ea)
    (property "Reference" "#PWR017" (at 115.57 52.07 0)
      (effects (font (size 1.27 1.27)) hide)
    )
    (property "Value" "+3V0" (at 115.57 44.45 0)
      (effects (font (size 1.27 1.27)))
    )
    (property "Footprint" "" (at 115.57 48.26 0)
      (effects (font (size 1.27 1.27)) hide)
    )
    (property "Datasheet" "" (at 115.57 48.26 0)
      (effects (font (size 1.27 1.27)) hide)
    )
    (pin "1" (uuid 896b5299-cc47-4c54-b505-1be90bb84398))
    (instances
      (project "mkbd65"
        (path "/efeac2a2-7682-4dc7-83ee-f6f1b23da506/00000000-0000-0000-0000-00005d9fef73"
          (reference "#PWR017") (unit 1)
        )
      )
    )
  )

  (symbol (lib_name "GND_4") (lib_id "power:GND") (at 58.42 109.22 0) (unit 1)
    (in_bom yes) (on_board yes) (dnp no)
    (uuid 2447757c-a89d-49ef-8207-bdab129d56f4)
    (property "Reference" "#PWR026" (at 58.42 115.57 0)
      (effects (font (size 1.27 1.27)) hide)
    )
    (property "Value" "GND" (at 58.42 113.03 0)
      (effects (font (size 1.27 1.27)))
    )
    (property "Footprint" "" (at 58.42 109.22 0)
      (effects (font (size 1.27 1.27)) hide)
    )
    (property "Datasheet" "" (at 58.42 109.22 0)
      (effects (font (size 1.27 1.27)) hide)
    )
    (pin "1" (uuid 9c3faaeb-86c8-4a01-879a-f27e25267556))
    (instances
      (project "mkbd65"
        (path "/efeac2a2-7682-4dc7-83ee-f6f1b23da506/00000000-0000-0000-0000-00005d9fef73"
          (reference "#PWR026") (unit 1)
        )
      )
    )
  )

  (symbol (lib_id "Device:C") (at 58.42 68.58 0) (unit 1)
    (in_bom yes) (on_board yes) (dnp no) (fields_autoplaced)
    (uuid 3c142cbb-20a9-4ee1-9e91-1fecb3baaadd)
    (property "Reference" "C9" (at 62.23 67.945 0)
      (effects (font (size 1.27 1.27)) (justify left))
    )
    (property "Value" "100nF" (at 62.23 70.485 0)
      (effects (font (size 1.27 1.27)) (justify left))
    )
    (property "Footprint" "Capacitor_SMD:C_0805_2012Metric_Pad1.18x1.45mm_HandSolder" (at 59.3852 72.39 0)
      (effects (font (size 1.27 1.27)) hide)
    )
    (property "Datasheet" "~" (at 58.42 68.58 0)
      (effects (font (size 1.27 1.27)) hide)
    )
    (pin "1" (uuid f8703a6d-4d2c-41a2-a52c-4eddf68cd22a))
    (pin "2" (uuid 35d1de5c-34bf-4464-b4fc-3c72f6daeee4))
    (instances
      (project "mkbd65"
        (path "/efeac2a2-7682-4dc7-83ee-f6f1b23da506/00000000-0000-0000-0000-00005d9fef73"
          (reference "C9") (unit 1)
        )
      )
    )
  )

  (symbol (lib_name "GND_5") (lib_id "power:GND") (at 73.66 72.39 0) (unit 1)
    (in_bom yes) (on_board yes) (dnp no)
    (uuid 50df9428-eade-43a7-ae13-d73dcb089270)
    (property "Reference" "#PWR024" (at 73.66 78.74 0)
      (effects (font (size 1.27 1.27)) hide)
    )
    (property "Value" "GND" (at 73.66 76.2 0)
      (effects (font (size 1.27 1.27)))
    )
    (property "Footprint" "" (at 73.66 72.39 0)
      (effects (font (size 1.27 1.27)) hide)
    )
    (property "Datasheet" "" (at 73.66 72.39 0)
      (effects (font (size 1.27 1.27)) hide)
    )
    (pin "1" (uuid 06b6a2cc-a98d-4ce2-a029-fadd89f76792))
    (instances
      (project "mkbd65"
        (path "/efeac2a2-7682-4dc7-83ee-f6f1b23da506/00000000-0000-0000-0000-00005d9fef73"
          (reference "#PWR024") (unit 1)
        )
      )
    )
  )

  (symbol (lib_id "Switch:SW_SPDT") (at 80.01 68.58 180) (unit 1)
    (in_bom yes) (on_board yes) (dnp no)
    (uuid 5d7a5c14-55f0-43f3-bdf9-8b76e3ba09fe)
    (property "Reference" "SW66" (at 81.28 66.04 0)
      (effects (font (size 1.27 1.27)))
    )
    (property "Value" "SW_SPDT" (at 82.55 72.39 0)
      (effects (font (size 1.27 1.27)))
    )
    (property "Footprint" "" (at 80.01 68.58 0)
      (effects (font (size 1.27 1.27)) hide)
    )
    (property "Datasheet" "~" (at 80.01 68.58 0)
      (effects (font (size 1.27 1.27)) hide)
    )
    (pin "1" (uuid 6399a64e-2f26-4b40-87cf-db2ed75c777c))
    (pin "2" (uuid cb6a61f6-35ef-4f53-af02-ed9bc91016c0))
    (pin "3" (uuid 724734e9-3f0e-4d4b-abd6-f62d731d18b3))
    (instances
      (project "mkbd65"
        (path "/efeac2a2-7682-4dc7-83ee-f6f1b23da506/00000000-0000-0000-0000-00005d9fef73"
          (reference "SW66") (unit 1)
        )
      )
    )
  )

  (symbol (lib_id "power:+3V0") (at 165.1 48.26 0) (unit 1)
    (in_bom yes) (on_board yes) (dnp no)
    (uuid 5e3bc0ea-d46f-4309-b6d2-5f57690c3a51)
    (property "Reference" "#PWR021" (at 165.1 52.07 0)
      (effects (font (size 1.27 1.27)) hide)
    )
    (property "Value" "+3V0" (at 165.1 44.45 0)
      (effects (font (size 1.27 1.27)))
    )
    (property "Footprint" "" (at 165.1 48.26 0)
      (effects (font (size 1.27 1.27)) hide)
    )
    (property "Datasheet" "" (at 165.1 48.26 0)
      (effects (font (size 1.27 1.27)) hide)
    )
    (pin "1" (uuid fd5bed4a-20e5-4e35-b16c-d2a05d59349b))
    (instances
      (project "mkbd65"
        (path "/efeac2a2-7682-4dc7-83ee-f6f1b23da506/00000000-0000-0000-0000-00005d9fef73"
          (reference "#PWR021") (unit 1)
        )
      )
    )
  )

  (symbol (lib_id "Device:C") (at 165.1 54.61 0) (unit 1)
    (in_bom yes) (on_board yes) (dnp no)
    (uuid 66b8866e-3b06-4e23-9b65-555c57597464)
    (property "Reference" "C14" (at 168.91 53.975 0)
      (effects (font (size 1.27 1.27)) (justify left))
    )
    (property "Value" "1uF" (at 168.91 56.515 0)
      (effects (font (size 1.27 1.27)) (justify left))
    )
    (property "Footprint" "Capacitor_SMD:C_0805_2012Metric_Pad1.18x1.45mm_HandSolder" (at 166.0652 58.42 0)
      (effects (font (size 1.27 1.27)) hide)
    )
    (property "Datasheet" "~" (at 165.1 54.61 0)
      (effects (font (size 1.27 1.27)) hide)
    )
    (pin "1" (uuid adb911ed-fea7-442d-8865-76c4c57b3967))
    (pin "2" (uuid 06a57ab7-3324-4ffb-83ae-838c13ca3e53))
    (instances
      (project "mkbd65"
        (path "/efeac2a2-7682-4dc7-83ee-f6f1b23da506/00000000-0000-0000-0000-00005d9fef73"
          (reference "C14") (unit 1)
        )
      )
    )
  )

  (symbol (lib_id "power:+3V0") (at 73.66 66.04 90) (unit 1)
    (in_bom yes) (on_board yes) (dnp no)
    (uuid 6a75962a-df40-4cf6-ace3-b58196e27926)
    (property "Reference" "#PWR025" (at 77.47 66.04 0)
      (effects (font (size 1.27 1.27)) hide)
    )
    (property "Value" "+3V0" (at 71.12 66.04 90)
      (effects (font (size 1.27 1.27)) (justify left))
    )
    (property "Footprint" "" (at 73.66 66.04 0)
      (effects (font (size 1.27 1.27)) hide)
    )
    (property "Datasheet" "" (at 73.66 66.04 0)
      (effects (font (size 1.27 1.27)) hide)
    )
    (pin "1" (uuid 44b675db-a46b-4527-8687-bdc93f1bab85))
    (instances
      (project "mkbd65"
        (path "/efeac2a2-7682-4dc7-83ee-f6f1b23da506/00000000-0000-0000-0000-00005d9fef73"
          (reference "#PWR025") (unit 1)
        )
      )
    )
  )

  (symbol (lib_id "Device:FerriteBead_Small") (at 158.75 49.53 90) (unit 1)
    (in_bom yes) (on_board yes) (dnp no)
    (uuid 6aa97c9c-6574-49c1-9c47-3d940f756c67)
    (property "Reference" "FB1" (at 158.75 46.228 90)
      (effects (font (size 1.27 1.27)))
    )
    (property "Value" "120R" (at 158.75 52.578 90)
      (effects (font (size 1.27 1.27)))
    )
    (property "Footprint" "Inductor_SMD:L_0805_2012Metric_Pad1.15x1.40mm_HandSolder" (at 158.75 51.308 90)
      (effects (font (size 1.27 1.27)) hide)
    )
    (property "Datasheet" "~" (at 158.75 49.53 0)
      (effects (font (size 1.27 1.27)) hide)
    )
    (pin "1" (uuid e335686c-3247-4c09-8e06-269c93619e92))
    (pin "2" (uuid 434c3840-8fb4-4a30-a1e1-3551b6ad24b2))
    (instances
      (project "mkbd65"
        (path "/efeac2a2-7682-4dc7-83ee-f6f1b23da506/00000000-0000-0000-0000-00005d9fef73"
          (reference "FB1") (unit 1)
        )
      )
    )
  )

  (symbol (lib_id "Device:C") (at 90.17 54.61 0) (unit 1)
    (in_bom yes) (on_board yes) (dnp no) (fields_autoplaced)
    (uuid 727c31ae-517f-4a6a-96da-05599c13970c)
    (property "Reference" "C21" (at 93.98 53.975 0)
      (effects (font (size 1.27 1.27)) (justify left))
    )
    (property "Value" "100nF" (at 93.98 56.515 0)
      (effects (font (size 1.27 1.27)) (justify left))
    )
    (property "Footprint" "Capacitor_SMD:C_0805_2012Metric_Pad1.18x1.45mm_HandSolder" (at 91.1352 58.42 0)
      (effects (font (size 1.27 1.27)) hide)
    )
    (property "Datasheet" "~" (at 90.17 54.61 0)
      (effects (font (size 1.27 1.27)) hide)
    )
    (pin "1" (uuid 9111439e-4cc4-4a37-8e01-684436cfd195))
    (pin "2" (uuid 2bce7904-0944-41b1-a08b-f399cfae1ad3))
    (instances
      (project "mkbd65"
        (path "/efeac2a2-7682-4dc7-83ee-f6f1b23da506/00000000-0000-0000-0000-00005d9fef73"
          (reference "C21") (unit 1)
        )
      )
    )
  )

  (symbol (lib_id "Device:C") (at 64.77 54.61 0) (unit 1)
    (in_bom yes) (on_board yes) (dnp no) (fields_autoplaced)
    (uuid 79f87f11-c02f-4f41-9269-7d4e7fcbc8c0)
    (property "Reference" "C23" (at 68.58 53.975 0)
      (effects (font (size 1.27 1.27)) (justify left))
    )
    (property "Value" "100nF" (at 68.58 56.515 0)
      (effects (font (size 1.27 1.27)) (justify left))
    )
    (property "Footprint" "Capacitor_SMD:C_0805_2012Metric_Pad1.18x1.45mm_HandSolder" (at 65.7352 58.42 0)
      (effects (font (size 1.27 1.27)) hide)
    )
    (property "Datasheet" "~" (at 64.77 54.61 0)
      (effects (font (size 1.27 1.27)) hide)
    )
    (pin "1" (uuid 02aa7fe8-8cd0-477c-98e4-41300c1ba224))
    (pin "2" (uuid bd4b1d8e-8d97-4d26-946c-ab6ff11ebe7f))
    (instances
      (project "mkbd65"
        (path "/efeac2a2-7682-4dc7-83ee-f6f1b23da506/00000000-0000-0000-0000-00005d9fef73"
          (reference "C23") (unit 1)
        )
      )
    )
  )

  (symbol (lib_id "Device:C") (at 52.07 54.61 0) (unit 1)
    (in_bom yes) (on_board yes) (dnp no) (fields_autoplaced)
    (uuid 7d9130d8-7a19-4f0b-b326-3e0c54cd78dd)
    (property "Reference" "C24" (at 55.88 53.975 0)
      (effects (font (size 1.27 1.27)) (justify left))
    )
    (property "Value" "10uF" (at 55.88 56.515 0)
      (effects (font (size 1.27 1.27)) (justify left))
    )
    (property "Footprint" "Capacitor_SMD:C_0805_2012Metric_Pad1.18x1.45mm_HandSolder" (at 53.0352 58.42 0)
      (effects (font (size 1.27 1.27)) hide)
    )
    (property "Datasheet" "~" (at 52.07 54.61 0)
      (effects (font (size 1.27 1.27)) hide)
    )
    (pin "1" (uuid 2812f885-eede-4dfb-84ee-c3ae887a47b0))
    (pin "2" (uuid 07b91d3f-2d4a-4c72-91d9-5edcb8257bab))
    (instances
      (project "mkbd65"
        (path "/efeac2a2-7682-4dc7-83ee-f6f1b23da506/00000000-0000-0000-0000-00005d9fef73"
          (reference "C24") (unit 1)
        )
      )
    )
  )

  (symbol (lib_id "MCU_ST_STM32F0:STM32F072CBTx") (at 118.11 99.06 0) (unit 1)
    (in_bom yes) (on_board yes) (dnp no)
    (uuid 8463c097-da71-49ae-adf0-3ab89fe9f6e2)
    (property "Reference" "U4" (at 130.81 59.69 0)
      (effects (font (size 1.27 1.27)) (justify left))
    )
    (property "Value" "STM32F072CBTx" (at 121.92 135.89 0)
      (effects (font (size 1.27 1.27)) (justify left))
    )
    (property "Footprint" "Package_QFP:LQFP-48_7x7mm_P0.5mm" (at 105.41 134.62 0)
      (effects (font (size 1.27 1.27)) (justify right) hide)
    )
    (property "Datasheet" "https://www.st.com/resource/en/datasheet/stm32f072cb.pdf" (at 118.11 99.06 0)
      (effects (font (size 1.27 1.27)) hide)
    )
    (property "lcsc" "C81720" (at 118.11 99.06 0)
      (effects (font (size 1.27 1.27)) hide)
    )
    (property "mouser" "511-STM32F072CBT6" (at 118.11 99.06 0)
      (effects (font (size 1.27 1.27)) hide)
    )
    (pin "1" (uuid f31451cc-e24a-41d8-9aeb-a43c472c28b2))
    (pin "10" (uuid 90249e0b-26a0-416d-8b75-5face7223312))
    (pin "11" (uuid f30118d6-6474-4591-8d51-0d6ed298f747))
    (pin "12" (uuid aae49652-1a60-4ff2-b606-be800fb0b5b0))
    (pin "13" (uuid 272a9021-1e8f-44cb-b940-fdf3c6fab89f))
    (pin "14" (uuid 66824675-3e68-4213-bfe6-b2cd612d8dd2))
    (pin "15" (uuid f3be63b4-b48c-4438-9964-b74c256aab79))
    (pin "16" (uuid 9a51a447-3872-4f4f-8239-61fc6da8d4a1))
    (pin "17" (uuid 3bf7c443-52ad-4e0c-b67a-d87b6060ba6d))
    (pin "18" (uuid eab9a367-9da7-4fad-8e9e-8dd997bd3b68))
    (pin "19" (uuid 260ed5a0-bc62-4b47-ae3b-8aedea78b99e))
    (pin "2" (uuid 837f8ae1-7ff2-49c0-a9c7-d44943d4fbb9))
    (pin "20" (uuid 7eb534b1-804b-4bd3-a8ef-2b461537428e))
    (pin "21" (uuid 57a3605b-50eb-4a45-a1f4-9dbb25f87f5a))
    (pin "22" (uuid 873ea656-f02b-4424-a80f-0e058d137adb))
    (pin "23" (uuid b64d70ba-5788-493e-8403-6b365cb745dd))
    (pin "24" (uuid caca39bf-edba-4097-894f-b8ec9b119fa0))
    (pin "25" (uuid ac175d5a-8500-4a25-85d1-46e5e74386d5))
    (pin "26" (uuid 5fd1862c-a818-489d-b2d0-60237165f473))
    (pin "27" (uuid 64adaeb2-0850-4c9c-8e03-53faca309579))
    (pin "28" (uuid 2f59e12b-2a4d-4e11-93b4-432057fae2f4))
    (pin "29" (uuid bbc93626-4f49-4cd6-8b3d-b35bb4f055d1))
    (pin "3" (uuid 3a5a7f6b-e62c-4e3f-96ea-38f363658d23))
    (pin "30" (uuid 5d8a8c0b-48b0-4ef4-8e1a-c3364d9a4b64))
    (pin "31" (uuid 85598798-f9cc-451e-b92c-9ec749f4dce8))
    (pin "32" (uuid 0dbc25d4-8989-4e8c-a4a0-ac500b7ca0c5))
    (pin "33" (uuid 0e5b438b-c0ed-4fcd-95f8-9f20ce443447))
    (pin "34" (uuid 21823228-5623-4eb9-90f5-4670be94f88a))
    (pin "35" (uuid 6d1f426e-402c-445e-a6c3-12f9842984bb))
    (pin "36" (uuid 6ca98f47-6875-40cf-940f-64650e9238c4))
    (pin "37" (uuid 6168fd70-47fe-4e84-bd2f-a21311da419d))
    (pin "38" (uuid 4dc7cd25-20a3-4244-90f3-f25f0cac6711))
    (pin "39" (uuid 0ef70541-34f3-4d69-93dc-cc5d9b5fa7f9))
    (pin "4" (uuid 4435a0f3-772a-4ee9-9212-04240bb32a31))
    (pin "40" (uuid 9576afe3-d49b-4bec-b83e-16de1988e644))
    (pin "41" (uuid 493b4484-9982-40c3-90cd-26a2e43d6419))
    (pin "42" (uuid c4ef34ac-ccbb-4309-8549-d70178074486))
    (pin "43" (uuid b01ea716-ed98-4935-807b-2fd15b9f5622))
    (pin "44" (uuid 410dedfa-e7a5-4ecb-91c6-18a08a6df063))
    (pin "45" (uuid 8ad3fbfe-48ff-4ea0-a7fc-1e397f770530))
    (pin "46" (uuid bee9682e-2ba0-4ef6-a38d-9967118289e7))
    (pin "47" (uuid 1da366d2-3d4e-4d67-b6d3-2edd261586ca))
    (pin "48" (uuid 18db7a25-52d6-46a1-b6f7-cb55ed940aae))
    (pin "5" (uuid 85eb5fdd-0aec-4f1e-9f46-91b07c94980d))
    (pin "6" (uuid cc8b5c8e-f0f7-4c1a-8231-919d487e5d97))
    (pin "7" (uuid 986d45b2-83f2-4fe6-9860-e9b20fd99cc5))
    (pin "8" (uuid 2229323a-972f-4ad3-b2e7-e2a6a83d9b39))
    (pin "9" (uuid fef0a929-e5a2-43e4-8e0a-2e513db117b9))
    (instances
      (project "mkbd65"
        (path "/efeac2a2-7682-4dc7-83ee-f6f1b23da506/00000000-0000-0000-0000-00005d9fef73"
          (reference "U4") (unit 1)
        )
      )
    )
  )

  (symbol (lib_name "GND_3") (lib_id "power:GND") (at 165.1 60.96 0) (unit 1)
    (in_bom yes) (on_board yes) (dnp no)
    (uuid 84978729-73b5-4c38-ba71-6a39b0144113)
    (property "Reference" "#PWR022" (at 165.1 67.31 0)
      (effects (font (size 1.27 1.27)) hide)
    )
    (property "Value" "GND" (at 165.1 64.77 0)
      (effects (font (size 1.27 1.27)))
    )
    (property "Footprint" "" (at 165.1 60.96 0)
      (effects (font (size 1.27 1.27)) hide)
    )
    (property "Datasheet" "" (at 165.1 60.96 0)
      (effects (font (size 1.27 1.27)) hide)
    )
    (pin "1" (uuid 2a3c4d36-0caf-4197-a15e-22df198f9622))
    (instances
      (project "mkbd65"
        (path "/efeac2a2-7682-4dc7-83ee-f6f1b23da506/00000000-0000-0000-0000-00005d9fef73"
          (reference "#PWR022") (unit 1)
        )
      )
    )
  )

  (symbol (lib_id "Device:C") (at 78.74 102.87 0) (unit 1)
    (in_bom yes) (on_board yes) (dnp no) (fields_autoplaced)
    (uuid 8574c3f7-3833-433f-8c69-6673056636eb)
    (property "Reference" "C16" (at 82.55 101.6 0)
      (effects (font (size 1.27 1.27)) (justify left))
    )
    (property "Value" "20pF" (at 82.55 104.14 0)
      (effects (font (size 1.27 1.27)) (justify left))
    )
    (property "Footprint" "Capacitor_SMD:C_0805_2012Metric_Pad1.18x1.45mm_HandSolder" (at 79.7052 106.68 0)
      (effects (font (size 1.27 1.27)) hide)
    )
    (property "Datasheet" "~" (at 78.74 102.87 0)
      (effects (font (size 1.27 1.27)) hide)
    )
    (pin "1" (uuid 32df3886-cf89-4300-80b1-b9de33d6da8f))
    (pin "2" (uuid 14f06871-d39b-4c4a-9dab-918292d549bd))
    (instances
      (project "mkbd65"
        (path "/efeac2a2-7682-4dc7-83ee-f6f1b23da506/00000000-0000-0000-0000-00005d9fef73"
          (reference "C16") (unit 1)
        )
      )
    )
  )

  (symbol (lib_id "Device:Crystal_GND24") (at 68.58 92.71 0) (unit 1)
    (in_bom yes) (on_board yes) (dnp no)
    (uuid 9d6aac05-a03d-42b2-84ac-804f550cf0dc)
    (property "Reference" "Y1" (at 72.39 88.9 0)
      (effects (font (size 1.27 1.27)))
    )
    (property "Value" "32MHz" (at 74.93 95.25 0)
      (effects (font (size 1.27 1.27)))
    )
    (property "Footprint" "Oscillator:Oscillator_SMD_ECS_2520MV-xxx-xx-4Pin_2.5x2.0mm" (at 68.58 92.71 0)
      (effects (font (size 1.27 1.27)) hide)
    )
    (property "Datasheet" "https://www.mouser.de/datasheet/2/122/ECS_2520MVLC-1903379.pdf" (at 68.58 92.71 0)
      (effects (font (size 1.27 1.27)) hide)
    )
    (property "lcsc" "" (at 68.58 92.71 0)
      (effects (font (size 1.27 1.27)) hide)
    )
    (property "mouser" "520-2520MVLC-320CNTR" (at 68.58 92.71 0)
      (effects (font (size 1.27 1.27)) hide)
    )
    (pin "1" (uuid a455e87c-7bd4-47de-816d-0bdde2d9d486))
    (pin "2" (uuid 4c8fe62e-d638-4385-954c-d5a72aedacef))
    (pin "3" (uuid 860579db-8e53-4c02-bb31-7927a887537b))
    (pin "4" (uuid bee82378-e759-4200-b52c-561f68122a45))
    (instances
      (project "mkbd65"
        (path "/efeac2a2-7682-4dc7-83ee-f6f1b23da506/00000000-0000-0000-0000-00005d9fef73"
          (reference "Y1") (unit 1)
        )
      )
    )
  )

  (symbol (lib_name "GND_3") (lib_id "power:GND") (at 147.32 60.96 0) (unit 1)
    (in_bom yes) (on_board yes) (dnp no)
    (uuid a29e7468-00bd-476b-b042-e2efc8b470e6)
    (property "Reference" "#PWR020" (at 147.32 67.31 0)
      (effects (font (size 1.27 1.27)) hide)
    )
    (property "Value" "GND" (at 147.32 64.77 0)
      (effects (font (size 1.27 1.27)))
    )
    (property "Footprint" "" (at 147.32 60.96 0)
      (effects (font (size 1.27 1.27)) hide)
    )
    (property "Datasheet" "" (at 147.32 60.96 0)
      (effects (font (size 1.27 1.27)) hide)
    )
    (pin "1" (uuid 2e39825f-f376-4ca6-a1e7-bda77ff25e9c))
    (instances
      (project "mkbd65"
        (path "/efeac2a2-7682-4dc7-83ee-f6f1b23da506/00000000-0000-0000-0000-00005d9fef73"
          (reference "#PWR020") (unit 1)
        )
      )
    )
  )

  (symbol (lib_id "Device:C") (at 147.32 54.61 0) (unit 1)
    (in_bom yes) (on_board yes) (dnp no)
    (uuid a62c95e4-7d6f-4b96-a72e-8c52da6ca84b)
    (property "Reference" "C13" (at 151.13 53.975 0)
      (effects (font (size 1.27 1.27)) (justify left))
    )
    (property "Value" "1uF" (at 151.13 56.515 0)
      (effects (font (size 1.27 1.27)) (justify left))
    )
    (property "Footprint" "Capacitor_SMD:C_0805_2012Metric_Pad1.18x1.45mm_HandSolder" (at 148.2852 58.42 0)
      (effects (font (size 1.27 1.27)) hide)
    )
    (property "Datasheet" "~" (at 147.32 54.61 0)
      (effects (font (size 1.27 1.27)) hide)
    )
    (pin "1" (uuid 76b051a5-10e5-4c77-84c1-c2f403431f65))
    (pin "2" (uuid 11bbfbf2-bca0-463f-8483-0ee1e777f908))
    (instances
      (project "mkbd65"
        (path "/efeac2a2-7682-4dc7-83ee-f6f1b23da506/00000000-0000-0000-0000-00005d9fef73"
          (reference "C13") (unit 1)
        )
      )
    )
  )

  (symbol (lib_id "Device:C") (at 135.89 54.61 0) (unit 1)
    (in_bom yes) (on_board yes) (dnp no) (fields_autoplaced)
    (uuid ac5dbf99-ced6-40d1-80ee-14e26feee8bc)
    (property "Reference" "C10" (at 139.7 53.975 0)
      (effects (font (size 1.27 1.27)) (justify left))
    )
    (property "Value" "10nF" (at 139.7 56.515 0)
      (effects (font (size 1.27 1.27)) (justify left))
    )
    (property "Footprint" "Capacitor_SMD:C_0805_2012Metric_Pad1.18x1.45mm_HandSolder" (at 136.8552 58.42 0)
      (effects (font (size 1.27 1.27)) hide)
    )
    (property "Datasheet" "~" (at 135.89 54.61 0)
      (effects (font (size 1.27 1.27)) hide)
    )
    (pin "1" (uuid ed039495-d736-45cc-90fd-37b35841b4ea))
    (pin "2" (uuid 13dff8a2-6f8c-4444-ab80-e8938e928627))
    (instances
      (project "mkbd65"
        (path "/efeac2a2-7682-4dc7-83ee-f6f1b23da506/00000000-0000-0000-0000-00005d9fef73"
          (reference "C10") (unit 1)
        )
      )
    )
  )

  (symbol (lib_name "GND_4") (lib_id "power:GND") (at 58.42 73.66 0) (unit 1)
    (in_bom yes) (on_board yes) (dnp no)
    (uuid af222873-8fa0-41a2-975e-6cf6a6932b0c)
    (property "Reference" "#PWR023" (at 58.42 80.01 0)
      (effects (font (size 1.27 1.27)) hide)
    )
    (property "Value" "GND" (at 58.42 77.47 0)
      (effects (font (size 1.27 1.27)))
    )
    (property "Footprint" "" (at 58.42 73.66 0)
      (effects (font (size 1.27 1.27)) hide)
    )
    (property "Datasheet" "" (at 58.42 73.66 0)
      (effects (font (size 1.27 1.27)) hide)
    )
    (pin "1" (uuid dec1c051-961c-4334-b1b9-f423c2bc5c32))
    (instances
      (project "mkbd65"
        (path "/efeac2a2-7682-4dc7-83ee-f6f1b23da506/00000000-0000-0000-0000-00005d9fef73"
          (reference "#PWR023") (unit 1)
        )
      )
    )
  )

  (symbol (lib_name "GND_2") (lib_id "power:GND") (at 52.07 60.96 0) (unit 1)
    (in_bom yes) (on_board yes) (dnp no)
    (uuid b7c55657-b011-4e97-bc53-0813196c0fcb)
    (property "Reference" "#PWR018" (at 52.07 67.31 0)
      (effects (font (size 1.27 1.27)) hide)
    )
    (property "Value" "GND" (at 52.07 64.77 0)
      (effects (font (size 1.27 1.27)))
    )
    (property "Footprint" "" (at 52.07 60.96 0)
      (effects (font (size 1.27 1.27)) hide)
    )
    (property "Datasheet" "" (at 52.07 60.96 0)
      (effects (font (size 1.27 1.27)) hide)
    )
    (pin "1" (uuid 17055670-685d-4920-b0b2-d3b052266600))
    (instances
      (project "mkbd65"
        (path "/efeac2a2-7682-4dc7-83ee-f6f1b23da506/00000000-0000-0000-0000-00005d9fef73"
          (reference "#PWR018") (unit 1)
        )
      )
    )
  )

  (symbol (lib_id "Device:C") (at 77.47 54.61 0) (unit 1)
    (in_bom yes) (on_board yes) (dnp no) (fields_autoplaced)
    (uuid d23edd70-4321-4f59-a5c4-a38299300696)
    (property "Reference" "C22" (at 81.28 53.975 0)
      (effects (font (size 1.27 1.27)) (justify left))
    )
    (property "Value" "100nF" (at 81.28 56.515 0)
      (effects (font (size 1.27 1.27)) (justify left))
    )
    (property "Footprint" "Capacitor_SMD:C_0805_2012Metric_Pad1.18x1.45mm_HandSolder" (at 78.4352 58.42 0)
      (effects (font (size 1.27 1.27)) hide)
    )
    (property "Datasheet" "~" (at 77.47 54.61 0)
      (effects (font (size 1.27 1.27)) hide)
    )
    (pin "1" (uuid 13a3631c-199a-421e-bfef-f6a4da2e8869))
    (pin "2" (uuid d1363b07-0363-4019-a120-e064d272cc7f))
    (instances
      (project "mkbd65"
        (path "/efeac2a2-7682-4dc7-83ee-f6f1b23da506/00000000-0000-0000-0000-00005d9fef73"
          (reference "C22") (unit 1)
        )
      )
    )
  )

  (symbol (lib_id "Device:C") (at 58.42 102.87 0) (unit 1)
    (in_bom yes) (on_board yes) (dnp no) (fields_autoplaced)
    (uuid de1cacd0-ba97-490d-b43a-1c38e9a42b97)
    (property "Reference" "C15" (at 62.23 101.6 0)
      (effects (font (size 1.27 1.27)) (justify left))
    )
    (property "Value" "20pF" (at 62.23 104.14 0)
      (effects (font (size 1.27 1.27)) (justify left))
    )
    (property "Footprint" "Capacitor_SMD:C_0805_2012Metric_Pad1.18x1.45mm_HandSolder" (at 59.3852 106.68 0)
      (effects (font (size 1.27 1.27)) hide)
    )
    (property "Datasheet" "~" (at 58.42 102.87 0)
      (effects (font (size 1.27 1.27)) hide)
    )
    (pin "1" (uuid 38269576-3130-4d93-81da-b9dbbb68fee6))
    (pin "2" (uuid 744ece9d-202a-458b-8c4d-c7b23871753b))
    (instances
      (project "mkbd65"
        (path "/efeac2a2-7682-4dc7-83ee-f6f1b23da506/00000000-0000-0000-0000-00005d9fef73"
          (reference "C15") (unit 1)
        )
      )
    )
  )

  (symbol (lib_id "power:PWR_FLAG") (at 123.19 48.26 0) (unit 1)
    (in_bom yes) (on_board yes) (dnp no) (fields_autoplaced)
    (uuid e790abc5-fb40-479b-8a9f-42dfbfc9c88b)
    (property "Reference" "#FLG01" (at 123.19 46.355 0)
      (effects (font (size 1.27 1.27)) hide)
    )
    (property "Value" "PWR_FLAG" (at 123.19 44.45 0)
      (effects (font (size 1.27 1.27)))
    )
    (property "Footprint" "" (at 123.19 48.26 0)
      (effects (font (size 1.27 1.27)) hide)
    )
    (property "Datasheet" "~" (at 123.19 48.26 0)
      (effects (font (size 1.27 1.27)) hide)
    )
    (pin "1" (uuid 0116c21d-419b-4b9c-b6a0-04b8d3ae22c5))
    (instances
      (project "mkbd65"
        (path "/efeac2a2-7682-4dc7-83ee-f6f1b23da506/00000000-0000-0000-0000-00005d9fef73"
          (reference "#FLG01") (unit 1)
        )
      )
    )
  )

  (symbol (lib_id "Device:R_Small") (at 92.71 68.58 90) (unit 1)
    (in_bom yes) (on_board yes) (dnp no)
    (uuid ed0fc010-f2a1-466f-87b4-d57b5ee7ec49)
    (property "Reference" "R3" (at 92.71 66.04 90)
      (effects (font (size 1.27 1.27)))
    )
    (property "Value" "10k" (at 92.71 71.12 90)
      (effects (font (size 1.27 1.27)))
    )
    (property "Footprint" "Resistor_SMD:R_0805_2012Metric_Pad1.20x1.40mm_HandSolder" (at 92.71 68.58 0)
      (effects (font (size 1.27 1.27)) hide)
    )
    (property "Datasheet" "~" (at 92.71 68.58 0)
      (effects (font (size 1.27 1.27)) hide)
    )
    (pin "1" (uuid 6ad4918a-accb-412c-9540-d7bb5bbc29f0))
    (pin "2" (uuid f4e13333-e307-44c6-a794-274e51e00ac0))
    (instances
      (project "mkbd65"
        (path "/efeac2a2-7682-4dc7-83ee-f6f1b23da506/00000000-0000-0000-0000-00005d9fef73"
          (reference "R3") (unit 1)
        )
      )
    )
  )
)
