(kicad_symbol_lib (version 20211014) (generator kicad_symbol_editor)
  (symbol "ATmega32U4-MU-MCU_Microchip_ATmega" (in_bom yes) (on_board yes)
    (property "Reference" "U" (id 0) (at -12.7 44.45 0)
      (effects (font (size 1.27 1.27)) (justify left bottom))
    )
    (property "Value" "ATmega32U4-MU-MCU_Microchip_ATmega" (id 1) (at 2.54 -44.45 0)
      (effects (font (size 1.27 1.27)) (justify left top))
    )
    (property "Footprint" "Package_DFN_QFN:QFN-44-1EP_7x7mm_P0.5mm_EP5.2x5.2mm" (id 2) (at 0 0 0)
      (effects (font (size 1.27 1.27) italic) hide)
    )
    (property "Datasheet" "" (id 3) (at 0 0 0)
      (effects (font (size 1.27 1.27)) hide)
    )
    (property "ki_fp_filters" "QFN*1EP*7x7mm*P0.5mm*" (id 4) (at 0 0 0)
      (effects (font (size 1.27 1.27)) hide)
    )
    (symbol "ATmega32U4-MU-MCU_Microchip_ATmega_0_1"
      (rectangle (start -12.7 -43.18) (end 12.7 43.18)
        (stroke (width 0.254) (type default) (color 0 0 0 0))
        (fill (type background))
      )
    )
    (symbol "ATmega32U4-MU-MCU_Microchip_ATmega_1_1"
      (pin tri_state line (at 15.24 -17.78 180) (length 2.54)
        (name "PE6" (effects (font (size 1.27 1.27))))
        (number "1" (effects (font (size 1.27 1.27))))
      )
      (pin tri_state line (at 15.24 33.02 180) (length 2.54)
        (name "PB2" (effects (font (size 1.27 1.27))))
        (number "10" (effects (font (size 1.27 1.27))))
      )
      (pin tri_state line (at 15.24 30.48 180) (length 2.54)
        (name "PB3" (effects (font (size 1.27 1.27))))
        (number "11" (effects (font (size 1.27 1.27))))
      )
      (pin tri_state line (at 15.24 20.32 180) (length 2.54)
        (name "PB7" (effects (font (size 1.27 1.27))))
        (number "12" (effects (font (size 1.27 1.27))))
      )
      (pin input line (at -15.24 38.1 0) (length 2.54)
        (name "~{RESET}" (effects (font (size 1.27 1.27))))
        (number "13" (effects (font (size 1.27 1.27))))
      )
      (pin power_in line (at 0 45.72 270) (length 2.54)
        (name "VCC" (effects (font (size 1.27 1.27))))
        (number "14" (effects (font (size 1.27 1.27))))
      )
      (pin power_in line (at 0 -45.72 90) (length 2.54)
        (name "GND" (effects (font (size 1.27 1.27))))
        (number "15" (effects (font (size 1.27 1.27))))
      )
      (pin output line (at -15.24 27.94 0) (length 2.54)
        (name "XTAL2" (effects (font (size 1.27 1.27))))
        (number "16" (effects (font (size 1.27 1.27))))
      )
      (pin input line (at -15.24 33.02 0) (length 2.54)
        (name "XTAL1" (effects (font (size 1.27 1.27))))
        (number "17" (effects (font (size 1.27 1.27))))
      )
      (pin tri_state line (at 15.24 7.62 180) (length 2.54)
        (name "PD0" (effects (font (size 1.27 1.27))))
        (number "18" (effects (font (size 1.27 1.27))))
      )
      (pin tri_state line (at 15.24 5.08 180) (length 2.54)
        (name "PD1" (effects (font (size 1.27 1.27))))
        (number "19" (effects (font (size 1.27 1.27))))
      )
      (pin power_in line (at -2.54 45.72 270) (length 2.54)
        (name "UVCC" (effects (font (size 1.27 1.27))))
        (number "2" (effects (font (size 1.27 1.27))))
      )
      (pin tri_state line (at 15.24 2.54 180) (length 2.54)
        (name "PD2" (effects (font (size 1.27 1.27))))
        (number "20" (effects (font (size 1.27 1.27))))
      )
      (pin tri_state line (at 15.24 0 180) (length 2.54)
        (name "PD3" (effects (font (size 1.27 1.27))))
        (number "21" (effects (font (size 1.27 1.27))))
      )
      (pin tri_state line (at 15.24 -5.08 180) (length 2.54)
        (name "PD5" (effects (font (size 1.27 1.27))))
        (number "22" (effects (font (size 1.27 1.27))))
      )
      (pin passive line (at 0 -45.72 90) (length 2.54) hide
        (name "GND" (effects (font (size 1.27 1.27))))
        (number "23" (effects (font (size 1.27 1.27))))
      )
      (pin power_in line (at 2.54 45.72 270) (length 2.54)
        (name "AVCC" (effects (font (size 1.27 1.27))))
        (number "24" (effects (font (size 1.27 1.27))))
      )
      (pin tri_state line (at 15.24 -2.54 180) (length 2.54)
        (name "PD4" (effects (font (size 1.27 1.27))))
        (number "25" (effects (font (size 1.27 1.27))))
      )
      (pin tri_state line (at 15.24 -7.62 180) (length 2.54)
        (name "PD6" (effects (font (size 1.27 1.27))))
        (number "26" (effects (font (size 1.27 1.27))))
      )
      (pin tri_state line (at 15.24 -10.16 180) (length 2.54)
        (name "PD7" (effects (font (size 1.27 1.27))))
        (number "27" (effects (font (size 1.27 1.27))))
      )
      (pin tri_state line (at 15.24 27.94 180) (length 2.54)
        (name "PB4" (effects (font (size 1.27 1.27))))
        (number "28" (effects (font (size 1.27 1.27))))
      )
      (pin tri_state line (at 15.24 25.4 180) (length 2.54)
        (name "PB5" (effects (font (size 1.27 1.27))))
        (number "29" (effects (font (size 1.27 1.27))))
      )
      (pin bidirectional line (at -15.24 10.16 0) (length 2.54)
        (name "D-" (effects (font (size 1.27 1.27))))
        (number "3" (effects (font (size 1.27 1.27))))
      )
      (pin tri_state line (at 15.24 22.86 180) (length 2.54)
        (name "PB6" (effects (font (size 1.27 1.27))))
        (number "30" (effects (font (size 1.27 1.27))))
      )
      (pin tri_state line (at 15.24 15.24 180) (length 2.54)
        (name "PC6" (effects (font (size 1.27 1.27))))
        (number "31" (effects (font (size 1.27 1.27))))
      )
      (pin tri_state line (at 15.24 12.7 180) (length 2.54)
        (name "PC7" (effects (font (size 1.27 1.27))))
        (number "32" (effects (font (size 1.27 1.27))))
      )
      (pin tri_state line (at 15.24 -15.24 180) (length 2.54)
        (name "~{HWB}/PE2" (effects (font (size 1.27 1.27))))
        (number "33" (effects (font (size 1.27 1.27))))
      )
      (pin passive line (at 0 45.72 270) (length 2.54) hide
        (name "VCC" (effects (font (size 1.27 1.27))))
        (number "34" (effects (font (size 1.27 1.27))))
      )
      (pin passive line (at 0 -45.72 90) (length 2.54) hide
        (name "GND" (effects (font (size 1.27 1.27))))
        (number "35" (effects (font (size 1.27 1.27))))
      )
      (pin tri_state line (at 15.24 -35.56 180) (length 2.54)
        (name "PF7" (effects (font (size 1.27 1.27))))
        (number "36" (effects (font (size 1.27 1.27))))
      )
      (pin tri_state line (at 15.24 -33.02 180) (length 2.54)
        (name "PF6" (effects (font (size 1.27 1.27))))
        (number "37" (effects (font (size 1.27 1.27))))
      )
      (pin tri_state line (at 15.24 -30.48 180) (length 2.54)
        (name "PF5" (effects (font (size 1.27 1.27))))
        (number "38" (effects (font (size 1.27 1.27))))
      )
      (pin tri_state line (at 15.24 -27.94 180) (length 2.54)
        (name "PF4" (effects (font (size 1.27 1.27))))
        (number "39" (effects (font (size 1.27 1.27))))
      )
      (pin bidirectional line (at -15.24 12.7 0) (length 2.54)
        (name "D+" (effects (font (size 1.27 1.27))))
        (number "4" (effects (font (size 1.27 1.27))))
      )
      (pin tri_state line (at 15.24 -25.4 180) (length 2.54)
        (name "PF1" (effects (font (size 1.27 1.27))))
        (number "40" (effects (font (size 1.27 1.27))))
      )
      (pin tri_state line (at 15.24 -22.86 180) (length 2.54)
        (name "PF0" (effects (font (size 1.27 1.27))))
        (number "41" (effects (font (size 1.27 1.27))))
      )
      (pin passive line (at -15.24 22.86 0) (length 2.54)
        (name "AREF" (effects (font (size 1.27 1.27))))
        (number "42" (effects (font (size 1.27 1.27))))
      )
      (pin passive line (at 0 -45.72 90) (length 2.54) hide
        (name "GND" (effects (font (size 1.27 1.27))))
        (number "43" (effects (font (size 1.27 1.27))))
      )
      (pin passive line (at 2.54 45.72 270) (length 2.54) hide
        (name "AVCC" (effects (font (size 1.27 1.27))))
        (number "44" (effects (font (size 1.27 1.27))))
      )
      (pin passive line (at 0 -45.72 90) (length 2.54) hide
        (name "GND" (effects (font (size 1.27 1.27))))
        (number "45" (effects (font (size 1.27 1.27))))
      )
      (pin passive line (at -2.54 -45.72 90) (length 2.54)
        (name "UGND" (effects (font (size 1.27 1.27))))
        (number "5" (effects (font (size 1.27 1.27))))
      )
      (pin passive line (at -15.24 5.08 0) (length 2.54)
        (name "UCAP" (effects (font (size 1.27 1.27))))
        (number "6" (effects (font (size 1.27 1.27))))
      )
      (pin input line (at -15.24 17.78 0) (length 2.54)
        (name "VBUS" (effects (font (size 1.27 1.27))))
        (number "7" (effects (font (size 1.27 1.27))))
      )
      (pin tri_state line (at 15.24 38.1 180) (length 2.54)
        (name "PB0" (effects (font (size 1.27 1.27))))
        (number "8" (effects (font (size 1.27 1.27))))
      )
      (pin tri_state line (at 15.24 35.56 180) (length 2.54)
        (name "PB1" (effects (font (size 1.27 1.27))))
        (number "9" (effects (font (size 1.27 1.27))))
      )
    )
  )
)
