(kicad_sch (version 20230121) (generator eeschema)

  (uuid 8c95609a-b7f0-4d5f-9105-6abc12a5582a)

  (paper "A4")

  (title_block
    (title "mkbd65")
    (date "2023-04-23")
    (rev "1")
    (company "XenGi")
    (comment 1 "https://mkbd65.xengi.de")
    (comment 2 "USB CT-VPD")
  )

  (lib_symbols
    (symbol "Connector:Conn_01x05_Pin" (pin_names (offset 1.016) hide) (in_bom yes) (on_board yes)
      (property "Reference" "J" (at 0 7.62 0)
        (effects (font (size 1.27 1.27)))
      )
      (property "Value" "Conn_01x05_Pin" (at 0 -7.62 0)
        (effects (font (size 1.27 1.27)))
      )
      (property "Footprint" "" (at 0 0 0)
        (effects (font (size 1.27 1.27)) hide)
      )
      (property "Datasheet" "~" (at 0 0 0)
        (effects (font (size 1.27 1.27)) hide)
      )
      (property "ki_locked" "" (at 0 0 0)
        (effects (font (size 1.27 1.27)))
      )
      (property "ki_keywords" "connector" (at 0 0 0)
        (effects (font (size 1.27 1.27)) hide)
      )
      (property "ki_description" "Generic connector, single row, 01x05, script generated" (at 0 0 0)
        (effects (font (size 1.27 1.27)) hide)
      )
      (property "ki_fp_filters" "Connector*:*_1x??_*" (at 0 0 0)
        (effects (font (size 1.27 1.27)) hide)
      )
      (symbol "Conn_01x05_Pin_1_1"
        (polyline
          (pts
            (xy 1.27 -5.08)
            (xy 0.8636 -5.08)
          )
          (stroke (width 0.1524) (type default))
          (fill (type none))
        )
        (polyline
          (pts
            (xy 1.27 -2.54)
            (xy 0.8636 -2.54)
          )
          (stroke (width 0.1524) (type default))
          (fill (type none))
        )
        (polyline
          (pts
            (xy 1.27 0)
            (xy 0.8636 0)
          )
          (stroke (width 0.1524) (type default))
          (fill (type none))
        )
        (polyline
          (pts
            (xy 1.27 2.54)
            (xy 0.8636 2.54)
          )
          (stroke (width 0.1524) (type default))
          (fill (type none))
        )
        (polyline
          (pts
            (xy 1.27 5.08)
            (xy 0.8636 5.08)
          )
          (stroke (width 0.1524) (type default))
          (fill (type none))
        )
        (rectangle (start 0.8636 -4.953) (end 0 -5.207)
          (stroke (width 0.1524) (type default))
          (fill (type outline))
        )
        (rectangle (start 0.8636 -2.413) (end 0 -2.667)
          (stroke (width 0.1524) (type default))
          (fill (type outline))
        )
        (rectangle (start 0.8636 0.127) (end 0 -0.127)
          (stroke (width 0.1524) (type default))
          (fill (type outline))
        )
        (rectangle (start 0.8636 2.667) (end 0 2.413)
          (stroke (width 0.1524) (type default))
          (fill (type outline))
        )
        (rectangle (start 0.8636 5.207) (end 0 4.953)
          (stroke (width 0.1524) (type default))
          (fill (type outline))
        )
        (pin passive line (at 5.08 5.08 180) (length 3.81)
          (name "Pin_1" (effects (font (size 1.27 1.27))))
          (number "1" (effects (font (size 1.27 1.27))))
        )
        (pin passive line (at 5.08 2.54 180) (length 3.81)
          (name "Pin_2" (effects (font (size 1.27 1.27))))
          (number "2" (effects (font (size 1.27 1.27))))
        )
        (pin passive line (at 5.08 0 180) (length 3.81)
          (name "Pin_3" (effects (font (size 1.27 1.27))))
          (number "3" (effects (font (size 1.27 1.27))))
        )
        (pin passive line (at 5.08 -2.54 180) (length 3.81)
          (name "Pin_4" (effects (font (size 1.27 1.27))))
          (number "4" (effects (font (size 1.27 1.27))))
        )
        (pin passive line (at 5.08 -5.08 180) (length 3.81)
          (name "Pin_5" (effects (font (size 1.27 1.27))))
          (number "5" (effects (font (size 1.27 1.27))))
        )
      )
    )
    (symbol "Connector:USB_C_Receptacle_PowerOnly_6P" (pin_names (offset 1.016)) (in_bom yes) (on_board yes)
      (property "Reference" "J" (at 0 16.51 0)
        (effects (font (size 1.27 1.27)) (justify bottom))
      )
      (property "Value" "USB_C_Receptacle_PowerOnly_6P" (at 0 13.97 0)
        (effects (font (size 1.27 1.27)) (justify bottom))
      )
      (property "Footprint" "" (at 3.81 2.54 0)
        (effects (font (size 1.27 1.27)) hide)
      )
      (property "Datasheet" "https://www.usb.org/sites/default/files/documents/usb_type-c.zip" (at 0 0 0)
        (effects (font (size 1.27 1.27)) hide)
      )
      (property "ki_keywords" "usb universal serial bus type-C power-only charging-only 6P 6C" (at 0 0 0)
        (effects (font (size 1.27 1.27)) hide)
      )
      (property "ki_description" "USB Power-Only 6P Type-C Receptacle connector" (at 0 0 0)
        (effects (font (size 1.27 1.27)) hide)
      )
      (property "ki_fp_filters" "USB*C*Receptacle*" (at 0 0 0)
        (effects (font (size 1.27 1.27)) hide)
      )
      (symbol "USB_C_Receptacle_PowerOnly_6P_0_0"
        (rectangle (start -0.254 -12.7) (end 0.254 -11.684)
          (stroke (width 0) (type default))
          (fill (type none))
        )
        (rectangle (start 10.16 -7.366) (end 9.144 -7.874)
          (stroke (width 0) (type default))
          (fill (type none))
        )
        (rectangle (start 10.16 -4.826) (end 9.144 -5.334)
          (stroke (width 0) (type default))
          (fill (type none))
        )
        (rectangle (start 10.16 7.874) (end 9.144 7.366)
          (stroke (width 0) (type default))
          (fill (type none))
        )
      )
      (symbol "USB_C_Receptacle_PowerOnly_6P_0_1"
        (rectangle (start -10.16 12.7) (end 10.16 -12.7)
          (stroke (width 0.254) (type default))
          (fill (type background))
        )
        (arc (start -8.89 -1.27) (mid -6.985 -3.1667) (end -5.08 -1.27)
          (stroke (width 0.508) (type default))
          (fill (type none))
        )
        (arc (start -7.62 -1.27) (mid -6.985 -1.9023) (end -6.35 -1.27)
          (stroke (width 0.254) (type default))
          (fill (type none))
        )
        (arc (start -7.62 -1.27) (mid -6.985 -1.9023) (end -6.35 -1.27)
          (stroke (width 0.254) (type default))
          (fill (type outline))
        )
        (rectangle (start -7.62 -1.27) (end -6.35 6.35)
          (stroke (width 0.254) (type default))
          (fill (type outline))
        )
        (arc (start -6.35 6.35) (mid -6.985 6.9823) (end -7.62 6.35)
          (stroke (width 0.254) (type default))
          (fill (type none))
        )
        (arc (start -6.35 6.35) (mid -6.985 6.9823) (end -7.62 6.35)
          (stroke (width 0.254) (type default))
          (fill (type outline))
        )
        (arc (start -5.08 6.35) (mid -6.985 8.2467) (end -8.89 6.35)
          (stroke (width 0.508) (type default))
          (fill (type none))
        )
        (circle (center -2.54 3.683) (radius 0.635)
          (stroke (width 0.254) (type default))
          (fill (type outline))
        )
        (circle (center 0 -3.302) (radius 1.27)
          (stroke (width 0) (type default))
          (fill (type outline))
        )
        (polyline
          (pts
            (xy -8.89 -1.27)
            (xy -8.89 6.35)
          )
          (stroke (width 0.508) (type default))
          (fill (type none))
        )
        (polyline
          (pts
            (xy -5.08 6.35)
            (xy -5.08 -1.27)
          )
          (stroke (width 0.508) (type default))
          (fill (type none))
        )
        (polyline
          (pts
            (xy 0 -3.302)
            (xy 0 6.858)
          )
          (stroke (width 0.508) (type default))
          (fill (type none))
        )
        (polyline
          (pts
            (xy 0 -0.762)
            (xy -2.54 1.778)
            (xy -2.54 3.048)
          )
          (stroke (width 0.508) (type default))
          (fill (type none))
        )
        (polyline
          (pts
            (xy 0 0.508)
            (xy 2.54 3.048)
            (xy 2.54 4.318)
          )
          (stroke (width 0.508) (type default))
          (fill (type none))
        )
        (polyline
          (pts
            (xy -1.27 6.858)
            (xy 0 9.398)
            (xy 1.27 6.858)
            (xy -1.27 6.858)
          )
          (stroke (width 0.254) (type default))
          (fill (type outline))
        )
        (rectangle (start 1.905 4.318) (end 3.175 5.588)
          (stroke (width 0.254) (type default))
          (fill (type outline))
        )
      )
      (symbol "USB_C_Receptacle_PowerOnly_6P_1_1"
        (pin passive line (at 0 -17.78 90) (length 5.08)
          (name "GND" (effects (font (size 1.27 1.27))))
          (number "A12" (effects (font (size 1.27 1.27))))
        )
        (pin bidirectional line (at 15.24 -5.08 180) (length 5.08)
          (name "CC1" (effects (font (size 1.27 1.27))))
          (number "A5" (effects (font (size 1.27 1.27))))
        )
        (pin passive line (at 15.24 7.62 180) (length 5.08)
          (name "VBUS" (effects (font (size 1.27 1.27))))
          (number "A9" (effects (font (size 1.27 1.27))))
        )
        (pin passive line (at 0 -17.78 90) (length 5.08) hide
          (name "GND" (effects (font (size 1.27 1.27))))
          (number "B12" (effects (font (size 1.27 1.27))))
        )
        (pin bidirectional line (at 15.24 -7.62 180) (length 5.08)
          (name "CC2" (effects (font (size 1.27 1.27))))
          (number "B5" (effects (font (size 1.27 1.27))))
        )
        (pin passive line (at 15.24 7.62 180) (length 5.08) hide
          (name "VBUS" (effects (font (size 1.27 1.27))))
          (number "B9" (effects (font (size 1.27 1.27))))
        )
        (pin passive line (at -7.62 -17.78 90) (length 5.08)
          (name "SHIELD" (effects (font (size 1.27 1.27))))
          (number "S1" (effects (font (size 1.27 1.27))))
        )
      )
    )
    (symbol "Connector_Generic_MountingPin:Conn_01x06_MountingPin" (pin_names (offset 1.016) hide) (in_bom yes) (on_board yes)
      (property "Reference" "J" (at 0 7.62 0)
        (effects (font (size 1.27 1.27)))
      )
      (property "Value" "Conn_01x06_MountingPin" (at 1.27 -10.16 0)
        (effects (font (size 1.27 1.27)) (justify left))
      )
      (property "Footprint" "" (at 0 0 0)
        (effects (font (size 1.27 1.27)) hide)
      )
      (property "Datasheet" "~" (at 0 0 0)
        (effects (font (size 1.27 1.27)) hide)
      )
      (property "ki_keywords" "connector" (at 0 0 0)
        (effects (font (size 1.27 1.27)) hide)
      )
      (property "ki_description" "Generic connectable mounting pin connector, single row, 01x06, script generated (kicad-library-utils/schlib/autogen/connector/)" (at 0 0 0)
        (effects (font (size 1.27 1.27)) hide)
      )
      (property "ki_fp_filters" "Connector*:*_1x??-1MP*" (at 0 0 0)
        (effects (font (size 1.27 1.27)) hide)
      )
      (symbol "Conn_01x06_MountingPin_1_1"
        (rectangle (start -1.27 -7.493) (end 0 -7.747)
          (stroke (width 0.1524) (type default))
          (fill (type none))
        )
        (rectangle (start -1.27 -4.953) (end 0 -5.207)
          (stroke (width 0.1524) (type default))
          (fill (type none))
        )
        (rectangle (start -1.27 -2.413) (end 0 -2.667)
          (stroke (width 0.1524) (type default))
          (fill (type none))
        )
        (rectangle (start -1.27 0.127) (end 0 -0.127)
          (stroke (width 0.1524) (type default))
          (fill (type none))
        )
        (rectangle (start -1.27 2.667) (end 0 2.413)
          (stroke (width 0.1524) (type default))
          (fill (type none))
        )
        (rectangle (start -1.27 5.207) (end 0 4.953)
          (stroke (width 0.1524) (type default))
          (fill (type none))
        )
        (rectangle (start -1.27 6.35) (end 1.27 -8.89)
          (stroke (width 0.254) (type default))
          (fill (type background))
        )
        (polyline
          (pts
            (xy -1.016 -9.652)
            (xy 1.016 -9.652)
          )
          (stroke (width 0.1524) (type default))
          (fill (type none))
        )
        (text "Mounting" (at 0 -9.271 0)
          (effects (font (size 0.381 0.381)))
        )
        (pin passive line (at -5.08 5.08 0) (length 3.81)
          (name "Pin_1" (effects (font (size 1.27 1.27))))
          (number "1" (effects (font (size 1.27 1.27))))
        )
        (pin passive line (at -5.08 2.54 0) (length 3.81)
          (name "Pin_2" (effects (font (size 1.27 1.27))))
          (number "2" (effects (font (size 1.27 1.27))))
        )
        (pin passive line (at -5.08 0 0) (length 3.81)
          (name "Pin_3" (effects (font (size 1.27 1.27))))
          (number "3" (effects (font (size 1.27 1.27))))
        )
        (pin passive line (at -5.08 -2.54 0) (length 3.81)
          (name "Pin_4" (effects (font (size 1.27 1.27))))
          (number "4" (effects (font (size 1.27 1.27))))
        )
        (pin passive line (at -5.08 -5.08 0) (length 3.81)
          (name "Pin_5" (effects (font (size 1.27 1.27))))
          (number "5" (effects (font (size 1.27 1.27))))
        )
        (pin passive line (at -5.08 -7.62 0) (length 3.81)
          (name "Pin_6" (effects (font (size 1.27 1.27))))
          (number "6" (effects (font (size 1.27 1.27))))
        )
        (pin passive line (at 0 -12.7 90) (length 3.048)
          (name "MountPin" (effects (font (size 1.27 1.27))))
          (number "MP" (effects (font (size 1.27 1.27))))
        )
      )
    )
    (symbol "Device:C_Small" (pin_numbers hide) (pin_names (offset 0.254) hide) (in_bom yes) (on_board yes)
      (property "Reference" "C" (at 0.254 1.778 0)
        (effects (font (size 1.27 1.27)) (justify left))
      )
      (property "Value" "C_Small" (at 0.254 -2.032 0)
        (effects (font (size 1.27 1.27)) (justify left))
      )
      (property "Footprint" "" (at 0 0 0)
        (effects (font (size 1.27 1.27)) hide)
      )
      (property "Datasheet" "~" (at 0 0 0)
        (effects (font (size 1.27 1.27)) hide)
      )
      (property "ki_keywords" "capacitor cap" (at 0 0 0)
        (effects (font (size 1.27 1.27)) hide)
      )
      (property "ki_description" "Unpolarized capacitor, small symbol" (at 0 0 0)
        (effects (font (size 1.27 1.27)) hide)
      )
      (property "ki_fp_filters" "C_*" (at 0 0 0)
        (effects (font (size 1.27 1.27)) hide)
      )
      (symbol "C_Small_0_1"
        (polyline
          (pts
            (xy -1.524 -0.508)
            (xy 1.524 -0.508)
          )
          (stroke (width 0.3302) (type default))
          (fill (type none))
        )
        (polyline
          (pts
            (xy -1.524 0.508)
            (xy 1.524 0.508)
          )
          (stroke (width 0.3048) (type default))
          (fill (type none))
        )
      )
      (symbol "C_Small_1_1"
        (pin passive line (at 0 2.54 270) (length 2.032)
          (name "~" (effects (font (size 1.27 1.27))))
          (number "1" (effects (font (size 1.27 1.27))))
        )
        (pin passive line (at 0 -2.54 90) (length 2.032)
          (name "~" (effects (font (size 1.27 1.27))))
          (number "2" (effects (font (size 1.27 1.27))))
        )
      )
    )
    (symbol "Device:LED" (pin_numbers hide) (pin_names (offset 1.016) hide) (in_bom yes) (on_board yes)
      (property "Reference" "D" (at 0 2.54 0)
        (effects (font (size 1.27 1.27)))
      )
      (property "Value" "LED" (at 0 -2.54 0)
        (effects (font (size 1.27 1.27)))
      )
      (property "Footprint" "" (at 0 0 0)
        (effects (font (size 1.27 1.27)) hide)
      )
      (property "Datasheet" "~" (at 0 0 0)
        (effects (font (size 1.27 1.27)) hide)
      )
      (property "ki_keywords" "LED diode" (at 0 0 0)
        (effects (font (size 1.27 1.27)) hide)
      )
      (property "ki_description" "Light emitting diode" (at 0 0 0)
        (effects (font (size 1.27 1.27)) hide)
      )
      (property "ki_fp_filters" "LED* LED_SMD:* LED_THT:*" (at 0 0 0)
        (effects (font (size 1.27 1.27)) hide)
      )
      (symbol "LED_0_1"
        (polyline
          (pts
            (xy -1.27 -1.27)
            (xy -1.27 1.27)
          )
          (stroke (width 0.254) (type default))
          (fill (type none))
        )
        (polyline
          (pts
            (xy -1.27 0)
            (xy 1.27 0)
          )
          (stroke (width 0) (type default))
          (fill (type none))
        )
        (polyline
          (pts
            (xy 1.27 -1.27)
            (xy 1.27 1.27)
            (xy -1.27 0)
            (xy 1.27 -1.27)
          )
          (stroke (width 0.254) (type default))
          (fill (type none))
        )
        (polyline
          (pts
            (xy -3.048 -0.762)
            (xy -4.572 -2.286)
            (xy -3.81 -2.286)
            (xy -4.572 -2.286)
            (xy -4.572 -1.524)
          )
          (stroke (width 0) (type default))
          (fill (type none))
        )
        (polyline
          (pts
            (xy -1.778 -0.762)
            (xy -3.302 -2.286)
            (xy -2.54 -2.286)
            (xy -3.302 -2.286)
            (xy -3.302 -1.524)
          )
          (stroke (width 0) (type default))
          (fill (type none))
        )
      )
      (symbol "LED_1_1"
        (pin passive line (at -3.81 0 0) (length 2.54)
          (name "K" (effects (font (size 1.27 1.27))))
          (number "1" (effects (font (size 1.27 1.27))))
        )
        (pin passive line (at 3.81 0 180) (length 2.54)
          (name "A" (effects (font (size 1.27 1.27))))
          (number "2" (effects (font (size 1.27 1.27))))
        )
      )
    )
    (symbol "Device:R_Small" (pin_numbers hide) (pin_names (offset 0.254) hide) (in_bom yes) (on_board yes)
      (property "Reference" "R" (at 0.762 0.508 0)
        (effects (font (size 1.27 1.27)) (justify left))
      )
      (property "Value" "R_Small" (at 0.762 -1.016 0)
        (effects (font (size 1.27 1.27)) (justify left))
      )
      (property "Footprint" "" (at 0 0 0)
        (effects (font (size 1.27 1.27)) hide)
      )
      (property "Datasheet" "~" (at 0 0 0)
        (effects (font (size 1.27 1.27)) hide)
      )
      (property "ki_keywords" "R resistor" (at 0 0 0)
        (effects (font (size 1.27 1.27)) hide)
      )
      (property "ki_description" "Resistor, small symbol" (at 0 0 0)
        (effects (font (size 1.27 1.27)) hide)
      )
      (property "ki_fp_filters" "R_*" (at 0 0 0)
        (effects (font (size 1.27 1.27)) hide)
      )
      (symbol "R_Small_0_1"
        (rectangle (start -0.762 1.778) (end 0.762 -1.778)
          (stroke (width 0.2032) (type default))
          (fill (type none))
        )
      )
      (symbol "R_Small_1_1"
        (pin passive line (at 0 2.54 270) (length 0.762)
          (name "~" (effects (font (size 1.27 1.27))))
          (number "1" (effects (font (size 1.27 1.27))))
        )
        (pin passive line (at 0 -2.54 90) (length 0.762)
          (name "~" (effects (font (size 1.27 1.27))))
          (number "2" (effects (font (size 1.27 1.27))))
        )
      )
    )
    (symbol "Infineon_EZ-PD_CCG3:CYPD31__-40LQX_T" (in_bom yes) (on_board yes)
      (property "Reference" "U" (at 0 27.94 0)
        (effects (font (size 1.27 1.27)))
      )
      (property "Value" "" (at 0 10.16 0)
        (effects (font (size 1.27 1.27)))
      )
      (property "Footprint" "Package_DFN_QFN:QFN-40-1EP_6x6mm_P0.5mm_EP4.6x4.6mm_ThermalVias" (at 0 -40.64 0)
        (effects (font (size 1.27 1.27)) hide)
      )
      (property "Datasheet" "https://www.infineon.com/dgdl/Infineon-EZ-PD_CCG3_USB_Type-C_Controller_with_Power_Delivery-DataSheet-v11_00-EN.pdf?fileId=8ac78c8c7d0d8da4017d0ed8b45c5a56" (at 0 -43.18 0)
        (effects (font (size 1.27 1.27)) hide)
      )
      (symbol "CYPD31__-40LQX_T_0_1"
        (rectangle (start -17.78 26.67) (end 17.78 -26.67)
          (stroke (width 0) (type default))
          (fill (type none))
        )
      )
      (symbol "CYPD31__-40LQX_T_1_1"
        (pin unspecified line (at -20.32 24.13 0) (length 2.54)
          (name "VBUS_P_CTRL1" (effects (font (size 1.27 1.27))))
          (number "1" (effects (font (size 1.27 1.27))))
        )
        (pin bidirectional line (at -20.32 1.27 0) (length 2.54)
          (name "P1.3" (effects (font (size 1.27 1.27))))
          (number "10" (effects (font (size 1.27 1.27))))
        )
        (pin bidirectional line (at -20.32 -1.27 0) (length 2.54)
          (name "AUX_P/P1.6" (effects (font (size 1.27 1.27))))
          (number "11" (effects (font (size 1.27 1.27))))
        )
        (pin bidirectional line (at -20.32 -3.81 0) (length 2.54)
          (name "SBU1/P1.4" (effects (font (size 1.27 1.27))))
          (number "12" (effects (font (size 1.27 1.27))))
        )
        (pin bidirectional line (at -20.32 -6.35 0) (length 2.54)
          (name "SBU2/P1.5" (effects (font (size 1.27 1.27))))
          (number "13" (effects (font (size 1.27 1.27))))
        )
        (pin bidirectional line (at -20.32 -8.89 0) (length 2.54)
          (name "AUX_N/P1.7" (effects (font (size 1.27 1.27))))
          (number "14" (effects (font (size 1.27 1.27))))
        )
        (pin bidirectional line (at -20.32 -11.43 0) (length 2.54)
          (name "P2.0" (effects (font (size 1.27 1.27))))
          (number "15" (effects (font (size 1.27 1.27))))
        )
        (pin bidirectional line (at -20.32 -13.97 0) (length 2.54)
          (name "P2.1" (effects (font (size 1.27 1.27))))
          (number "16" (effects (font (size 1.27 1.27))))
        )
        (pin power_out line (at -20.32 -16.51 0) (length 2.54)
          (name "VDDD" (effects (font (size 1.27 1.27))))
          (number "17" (effects (font (size 1.27 1.27))))
        )
        (pin power_out line (at -20.32 -19.05 0) (length 2.54)
          (name "VDDIO" (effects (font (size 1.27 1.27))))
          (number "18" (effects (font (size 1.27 1.27))))
        )
        (pin power_out line (at -20.32 -21.59 0) (length 2.54)
          (name "VCCD" (effects (font (size 1.27 1.27))))
          (number "19" (effects (font (size 1.27 1.27))))
        )
        (pin unspecified line (at -20.32 21.59 0) (length 2.54)
          (name "VBUS_P_CTRL0" (effects (font (size 1.27 1.27))))
          (number "2" (effects (font (size 1.27 1.27))))
        )
        (pin power_in line (at -20.32 -24.13 0) (length 2.54)
          (name "VSYS" (effects (font (size 1.27 1.27))))
          (number "20" (effects (font (size 1.27 1.27))))
        )
        (pin bidirectional line (at 20.32 24.13 180) (length 2.54)
          (name "DPLUS" (effects (font (size 1.27 1.27))))
          (number "21" (effects (font (size 1.27 1.27))))
        )
        (pin bidirectional line (at 20.32 21.59 180) (length 2.54)
          (name "DMINUS" (effects (font (size 1.27 1.27))))
          (number "22" (effects (font (size 1.27 1.27))))
        )
        (pin bidirectional line (at 20.32 19.05 180) (length 2.54)
          (name "P2.4" (effects (font (size 1.27 1.27))))
          (number "23" (effects (font (size 1.27 1.27))))
        )
        (pin bidirectional line (at 20.32 16.51 180) (length 2.54)
          (name "P2.5" (effects (font (size 1.27 1.27))))
          (number "24" (effects (font (size 1.27 1.27))))
        )
        (pin bidirectional line (at 20.32 13.97 180) (length 2.54)
          (name "P2.6" (effects (font (size 1.27 1.27))))
          (number "25" (effects (font (size 1.27 1.27))))
        )
        (pin input line (at 20.32 11.43 180) (length 2.54)
          (name "XRES" (effects (font (size 1.27 1.27))))
          (number "26" (effects (font (size 1.27 1.27))))
        )
        (pin bidirectional line (at 20.32 8.89 180) (length 2.54)
          (name "P0.0" (effects (font (size 1.27 1.27))))
          (number "27" (effects (font (size 1.27 1.27))))
        )
        (pin bidirectional line (at 20.32 6.35 180) (length 2.54)
          (name "P0.1" (effects (font (size 1.27 1.27))))
          (number "28" (effects (font (size 1.27 1.27))))
        )
        (pin unspecified line (at 20.32 3.81 180) (length 2.54)
          (name "VBUS_C_CTRL1" (effects (font (size 1.27 1.27))))
          (number "29" (effects (font (size 1.27 1.27))))
        )
        (pin unspecified line (at -20.32 19.05 0) (length 2.54)
          (name "CC2" (effects (font (size 1.27 1.27))))
          (number "3" (effects (font (size 1.27 1.27))))
        )
        (pin unspecified line (at 20.32 1.27 180) (length 2.54)
          (name "VBUS_C_CTRL0" (effects (font (size 1.27 1.27))))
          (number "30" (effects (font (size 1.27 1.27))))
        )
        (pin power_in line (at 20.32 -1.27 180) (length 2.54)
          (name "VBUS" (effects (font (size 1.27 1.27))))
          (number "31" (effects (font (size 1.27 1.27))))
        )
        (pin output line (at 20.32 -3.81 180) (length 2.54)
          (name "VBUS_DISCHARGE" (effects (font (size 1.27 1.27))))
          (number "32" (effects (font (size 1.27 1.27))))
        )
        (pin power_in line (at 20.32 -6.35 180) (length 2.54)
          (name "VSS" (effects (font (size 1.27 1.27))))
          (number "33" (effects (font (size 1.27 1.27))))
        )
        (pin bidirectional line (at 20.32 -8.89 180) (length 2.54)
          (name "P3.2" (effects (font (size 1.27 1.27))))
          (number "34" (effects (font (size 1.27 1.27))))
        )
        (pin bidirectional line (at 20.32 -11.43 180) (length 2.54)
          (name "P3.3" (effects (font (size 1.27 1.27))))
          (number "35" (effects (font (size 1.27 1.27))))
        )
        (pin bidirectional line (at 20.32 -13.97 180) (length 2.54)
          (name "P3.4" (effects (font (size 1.27 1.27))))
          (number "36" (effects (font (size 1.27 1.27))))
        )
        (pin bidirectional line (at 20.32 -16.51 180) (length 2.54)
          (name "P3.5" (effects (font (size 1.27 1.27))))
          (number "37" (effects (font (size 1.27 1.27))))
        )
        (pin bidirectional line (at 20.32 -19.05 180) (length 2.54)
          (name "P3.6" (effects (font (size 1.27 1.27))))
          (number "38" (effects (font (size 1.27 1.27))))
        )
        (pin input line (at 20.32 -21.59 180) (length 2.54)
          (name "OC" (effects (font (size 1.27 1.27))))
          (number "39" (effects (font (size 1.27 1.27))))
        )
        (pin power_in line (at -20.32 16.51 0) (length 2.54)
          (name "V5V" (effects (font (size 1.27 1.27))))
          (number "4" (effects (font (size 1.27 1.27))))
        )
        (pin input line (at 20.32 -24.13 180) (length 2.54)
          (name "VBUS_P" (effects (font (size 1.27 1.27))))
          (number "40" (effects (font (size 1.27 1.27))))
        )
        (pin unspecified line (at -20.32 13.97 0) (length 2.54)
          (name "CC1" (effects (font (size 1.27 1.27))))
          (number "5" (effects (font (size 1.27 1.27))))
        )
        (pin input line (at -20.32 11.43 0) (length 2.54)
          (name "VCONN" (effects (font (size 1.27 1.27))))
          (number "6" (effects (font (size 1.27 1.27))))
        )
        (pin bidirectional line (at -20.32 8.89 0) (length 2.54)
          (name "P1.0" (effects (font (size 1.27 1.27))))
          (number "7" (effects (font (size 1.27 1.27))))
        )
        (pin bidirectional line (at -20.32 6.35 0) (length 2.54)
          (name "P1.1" (effects (font (size 1.27 1.27))))
          (number "8" (effects (font (size 1.27 1.27))))
        )
        (pin bidirectional line (at -20.32 3.81 0) (length 2.54)
          (name "P1.2" (effects (font (size 1.27 1.27))))
          (number "9" (effects (font (size 1.27 1.27))))
        )
        (pin power_in line (at 0 -29.21 90) (length 2.54)
          (name "VSS" (effects (font (size 1.27 1.27))))
          (number "EPAD" (effects (font (size 1.27 1.27))))
        )
      )
    )
    (symbol "Regulator_Linear:AP2127N-3.0" (pin_names (offset 0.254)) (in_bom yes) (on_board yes)
      (property "Reference" "U" (at -3.81 3.175 0)
        (effects (font (size 1.27 1.27)))
      )
      (property "Value" "AP2127N-3.0" (at 0 3.175 0)
        (effects (font (size 1.27 1.27)) (justify left))
      )
      (property "Footprint" "Package_TO_SOT_SMD:SOT-23" (at 0 5.715 0)
        (effects (font (size 1.27 1.27) italic) hide)
      )
      (property "Datasheet" "https://www.diodes.com/assets/Datasheets/AP2127.pdf" (at 0 0 0)
        (effects (font (size 1.27 1.27)) hide)
      )
      (property "ki_keywords" "linear regulator ldo fixed positive" (at 0 0 0)
        (effects (font (size 1.27 1.27)) hide)
      )
      (property "ki_description" "300mA low dropout linear regulator, shutdown pin, 2.5V-6V input voltage, 3.0V fixed positive output, SOT-23 package" (at 0 0 0)
        (effects (font (size 1.27 1.27)) hide)
      )
      (property "ki_fp_filters" "SOT?23*" (at 0 0 0)
        (effects (font (size 1.27 1.27)) hide)
      )
      (symbol "AP2127N-3.0_0_1"
        (rectangle (start -5.08 1.905) (end 5.08 -5.08)
          (stroke (width 0.254) (type default))
          (fill (type background))
        )
      )
      (symbol "AP2127N-3.0_1_1"
        (pin power_in line (at 0 -7.62 90) (length 2.54)
          (name "GND" (effects (font (size 1.27 1.27))))
          (number "1" (effects (font (size 1.27 1.27))))
        )
        (pin power_out line (at 7.62 0 180) (length 2.54)
          (name "VO" (effects (font (size 1.27 1.27))))
          (number "2" (effects (font (size 1.27 1.27))))
        )
        (pin power_in line (at -7.62 0 0) (length 2.54)
          (name "VI" (effects (font (size 1.27 1.27))))
          (number "3" (effects (font (size 1.27 1.27))))
        )
      )
    )
    (symbol "power:+3V0" (power) (pin_names (offset 0)) (in_bom yes) (on_board yes)
      (property "Reference" "#PWR" (at 0 -3.81 0)
        (effects (font (size 1.27 1.27)) hide)
      )
      (property "Value" "+3V0" (at 0 3.556 0)
        (effects (font (size 1.27 1.27)))
      )
      (property "Footprint" "" (at 0 0 0)
        (effects (font (size 1.27 1.27)) hide)
      )
      (property "Datasheet" "" (at 0 0 0)
        (effects (font (size 1.27 1.27)) hide)
      )
      (property "ki_keywords" "global power" (at 0 0 0)
        (effects (font (size 1.27 1.27)) hide)
      )
      (property "ki_description" "Power symbol creates a global label with name \"+3V0\"" (at 0 0 0)
        (effects (font (size 1.27 1.27)) hide)
      )
      (symbol "+3V0_0_1"
        (polyline
          (pts
            (xy -0.762 1.27)
            (xy 0 2.54)
          )
          (stroke (width 0) (type default))
          (fill (type none))
        )
        (polyline
          (pts
            (xy 0 0)
            (xy 0 2.54)
          )
          (stroke (width 0) (type default))
          (fill (type none))
        )
        (polyline
          (pts
            (xy 0 2.54)
            (xy 0.762 1.27)
          )
          (stroke (width 0) (type default))
          (fill (type none))
        )
      )
      (symbol "+3V0_1_1"
        (pin power_in line (at 0 0 90) (length 0) hide
          (name "+3V0" (effects (font (size 1.27 1.27))))
          (number "1" (effects (font (size 1.27 1.27))))
        )
      )
    )
    (symbol "power:GND" (power) (pin_names (offset 0)) (in_bom yes) (on_board yes)
      (property "Reference" "#PWR" (at 0 -6.35 0)
        (effects (font (size 1.27 1.27)) hide)
      )
      (property "Value" "GND" (at 0 -3.81 0)
        (effects (font (size 1.27 1.27)))
      )
      (property "Footprint" "" (at 0 0 0)
        (effects (font (size 1.27 1.27)) hide)
      )
      (property "Datasheet" "" (at 0 0 0)
        (effects (font (size 1.27 1.27)) hide)
      )
      (property "ki_keywords" "global power" (at 0 0 0)
        (effects (font (size 1.27 1.27)) hide)
      )
      (property "ki_description" "Power symbol creates a global label with name \"GND\" , ground" (at 0 0 0)
        (effects (font (size 1.27 1.27)) hide)
      )
      (symbol "GND_0_1"
        (polyline
          (pts
            (xy 0 0)
            (xy 0 -1.27)
            (xy 1.27 -1.27)
            (xy 0 -2.54)
            (xy -1.27 -1.27)
            (xy 0 -1.27)
          )
          (stroke (width 0) (type default))
          (fill (type none))
        )
      )
      (symbol "GND_1_1"
        (pin power_in line (at 0 0 270) (length 0) hide
          (name "GND" (effects (font (size 1.27 1.27))))
          (number "1" (effects (font (size 1.27 1.27))))
        )
      )
    )
  )

  (junction (at 165.1 67.31) (diameter 0) (color 0 0 0 0)
    (uuid 1ebd3536-a61f-4217-a141-e432851bb765)
  )
  (junction (at 85.09 115.57) (diameter 0) (color 0 0 0 0)
    (uuid 1fba5e8e-79fa-440d-bf62-b0a000acabb8)
  )
  (junction (at 232.41 45.72) (diameter 0) (color 0 0 0 0)
    (uuid a5c64f90-bda3-42ae-92d6-153cd09d2a6d)
  )
  (junction (at 59.69 74.93) (diameter 0) (color 0 0 0 0)
    (uuid b35ca055-0410-4c2a-9b51-a418906d2999)
  )
  (junction (at 232.41 54.61) (diameter 0) (color 0 0 0 0)
    (uuid bfc22a9a-2082-4ca3-8799-07f6d9954d7f)
  )
  (junction (at 209.55 45.72) (diameter 0) (color 0 0 0 0)
    (uuid cc829167-a176-4c54-a978-a3c0f0af53ad)
  )
  (junction (at 77.47 115.57) (diameter 0) (color 0 0 0 0)
    (uuid de58274f-3a91-40b3-9579-9b834521843f)
  )
  (junction (at 222.25 54.61) (diameter 0) (color 0 0 0 0)
    (uuid f75ce81c-d4b8-44c1-a213-95665ac35240)
  )

  (no_connect (at 134.62 59.69) (uuid a6b3db33-6fe5-416e-915f-43ba42dd09b2))
  (no_connect (at 134.62 62.23) (uuid d45d0d72-8e5e-4774-b079-ccde0e0864c0))

  (polyline (pts (xy 45.72 36.83) (xy 194.31 36.83))
    (stroke (width 0) (type dash))
    (uuid 02ff362f-3f7b-4e13-b9e3-b4c1c7886045)
  )

  (wire (pts (xy 78.74 63.5) (xy 81.28 63.5))
    (stroke (width 0) (type default))
    (uuid 032ab928-0da8-4173-bacb-bb3b18fbc177)
  )
  (wire (pts (xy 59.69 74.93) (xy 63.5 74.93))
    (stroke (width 0) (type default))
    (uuid 0854a1d0-3b24-4248-a1f7-4c4492af99aa)
  )
  (wire (pts (xy 77.47 115.57) (xy 85.09 115.57))
    (stroke (width 0) (type default))
    (uuid 0d0ac26b-afdf-4976-ae89-a64b9592eff8)
  )
  (polyline (pts (xy 250.19 62.23) (xy 250.19 36.83))
    (stroke (width 0) (type dash))
    (uuid 15d016f2-629b-44e6-94f8-509ea406cfba)
  )

  (wire (pts (xy 81.28 60.96) (xy 81.28 50.8))
    (stroke (width 0) (type default))
    (uuid 1823e766-2812-4af2-8682-647c1e507fd4)
  )
  (wire (pts (xy 93.98 107.95) (xy 85.09 107.95))
    (stroke (width 0) (type default))
    (uuid 1f55155c-37d2-404b-8839-59346a176dcc)
  )
  (wire (pts (xy 134.62 85.09) (xy 149.86 85.09))
    (stroke (width 0) (type default))
    (uuid 246b21c6-8e67-4065-9335-a803f5175189)
  )
  (wire (pts (xy 209.55 54.61) (xy 209.55 52.07))
    (stroke (width 0) (type default))
    (uuid 26a3ed14-5d06-49b5-aa31-17e448cbdf73)
  )
  (wire (pts (xy 85.09 107.95) (xy 85.09 109.22))
    (stroke (width 0) (type default))
    (uuid 2fd2203f-9dd2-4c60-9ff3-af49b95ef921)
  )
  (wire (pts (xy 207.01 45.72) (xy 209.55 45.72))
    (stroke (width 0) (type default))
    (uuid 3790ae38-ac3e-4b90-bb37-169e93622192)
  )
  (wire (pts (xy 209.55 45.72) (xy 209.55 46.99))
    (stroke (width 0) (type default))
    (uuid 3c409741-3eb2-4d04-a424-c50cf7486678)
  )
  (wire (pts (xy 242.57 45.72) (xy 243.84 45.72))
    (stroke (width 0) (type default))
    (uuid 3cadd850-b4df-4ec9-8886-bf3d0d762b41)
  )
  (wire (pts (xy 78.74 48.26) (xy 160.02 48.26))
    (stroke (width 0) (type default))
    (uuid 3fd32867-a3c9-47e7-bb82-06feed47337e)
  )
  (wire (pts (xy 69.85 100.33) (xy 69.85 109.22))
    (stroke (width 0) (type default))
    (uuid 406fb90f-f837-4a34-82ca-c189d092dccc)
  )
  (wire (pts (xy 167.64 83.82) (xy 168.91 83.82))
    (stroke (width 0) (type default))
    (uuid 40739006-825e-4735-8221-2b242fe491ec)
  )
  (wire (pts (xy 59.69 74.93) (xy 59.69 76.2))
    (stroke (width 0) (type default))
    (uuid 41a81705-a4bb-4fd2-91e1-f1fc0cff31f5)
  )
  (wire (pts (xy 232.41 45.72) (xy 232.41 46.99))
    (stroke (width 0) (type default))
    (uuid 4215d541-bc39-48f3-a16a-aa1b3bb2ba6f)
  )
  (wire (pts (xy 156.21 86.36) (xy 168.91 86.36))
    (stroke (width 0) (type default))
    (uuid 465b7f40-56f3-4731-84cd-d34c4df9670e)
  )
  (polyline (pts (xy 194.31 118.11) (xy 194.31 36.83))
    (stroke (width 0) (type dash))
    (uuid 46d5efe2-ef47-463c-b0f7-a849d4c40d3c)
  )

  (wire (pts (xy 55.88 73.66) (xy 55.88 74.93))
    (stroke (width 0) (type default))
    (uuid 473f6619-cc07-4250-9920-5114920e4b17)
  )
  (wire (pts (xy 232.41 44.45) (xy 232.41 45.72))
    (stroke (width 0) (type default))
    (uuid 4bf712cc-bca6-43be-b21c-172a200ad48b)
  )
  (wire (pts (xy 165.1 66.04) (xy 165.1 67.31))
    (stroke (width 0) (type default))
    (uuid 536d5bd9-f004-4218-96b1-00ec78c9c334)
  )
  (wire (pts (xy 77.47 114.3) (xy 77.47 115.57))
    (stroke (width 0) (type default))
    (uuid 56f916b3-a986-4aec-b00d-1055f0ca7d5b)
  )
  (wire (pts (xy 158.75 55.88) (xy 160.02 55.88))
    (stroke (width 0) (type default))
    (uuid 5add8be0-8b16-482d-9c43-468630d80297)
  )
  (wire (pts (xy 209.55 45.72) (xy 214.63 45.72))
    (stroke (width 0) (type default))
    (uuid 5f7e1b41-2870-404f-bd81-1a076e5a3520)
  )
  (wire (pts (xy 63.5 73.66) (xy 63.5 74.93))
    (stroke (width 0) (type default))
    (uuid 5fde505b-7ccc-4ca6-839b-6d8e94c13064)
  )
  (wire (pts (xy 222.25 54.61) (xy 222.25 55.88))
    (stroke (width 0) (type default))
    (uuid 6246c022-2e30-4477-a0a0-358bae2e4b34)
  )
  (wire (pts (xy 165.1 67.31) (xy 165.1 68.58))
    (stroke (width 0) (type default))
    (uuid 668c4b77-c5f9-47bb-9c00-0b8e9451b828)
  )
  (wire (pts (xy 93.98 105.41) (xy 77.47 105.41))
    (stroke (width 0) (type default))
    (uuid 6c9a7bec-f953-47dc-a0ae-b2c70e713dd3)
  )
  (wire (pts (xy 85.09 115.57) (xy 85.09 116.84))
    (stroke (width 0) (type default))
    (uuid 6e870a6e-1bda-46d5-9436-9e70ac6e4a09)
  )
  (wire (pts (xy 229.87 45.72) (xy 232.41 45.72))
    (stroke (width 0) (type default))
    (uuid 6f6d77d0-6eac-41bc-b105-4cb1115880e0)
  )
  (polyline (pts (xy 196.85 36.83) (xy 196.85 62.23))
    (stroke (width 0) (type dash))
    (uuid 72473756-d1f5-474a-b60d-1628fd79b401)
  )

  (wire (pts (xy 69.85 100.33) (xy 93.98 100.33))
    (stroke (width 0) (type default))
    (uuid 850d8ab8-3609-4194-8af0-a0ef1918bf43)
  )
  (wire (pts (xy 81.28 50.8) (xy 160.02 50.8))
    (stroke (width 0) (type default))
    (uuid 871118da-b66e-4209-920e-89a7bfc5ec91)
  )
  (wire (pts (xy 167.64 93.98) (xy 168.91 93.98))
    (stroke (width 0) (type default))
    (uuid 95307da5-e8b4-4dc1-b69c-76df5f7510d6)
  )
  (wire (pts (xy 232.41 52.07) (xy 232.41 54.61))
    (stroke (width 0) (type default))
    (uuid 9735afb0-bdd0-4994-b2ba-8075e2c89ec3)
  )
  (wire (pts (xy 149.86 91.44) (xy 149.86 85.09))
    (stroke (width 0) (type default))
    (uuid 97aaa414-1235-4185-a4fc-ee7aba06b823)
  )
  (wire (pts (xy 222.25 54.61) (xy 232.41 54.61))
    (stroke (width 0) (type default))
    (uuid 993b32a5-0dd5-417a-9694-09a6361ca5fa)
  )
  (wire (pts (xy 55.88 74.93) (xy 59.69 74.93))
    (stroke (width 0) (type default))
    (uuid 99c2c139-d1f7-4e84-bfc2-291c51e39428)
  )
  (wire (pts (xy 158.75 88.9) (xy 168.91 88.9))
    (stroke (width 0) (type default))
    (uuid 9c819c39-a250-4854-b0ff-90741587a79c)
  )
  (wire (pts (xy 243.84 45.72) (xy 243.84 46.99))
    (stroke (width 0) (type default))
    (uuid 9cf2c0b0-3892-4f29-a500-4b884f297c9a)
  )
  (wire (pts (xy 158.75 60.96) (xy 158.75 67.31))
    (stroke (width 0) (type default))
    (uuid a16659d3-206a-4242-8599-b275c1b856df)
  )
  (wire (pts (xy 99.06 53.34) (xy 160.02 53.34))
    (stroke (width 0) (type default))
    (uuid a231afb3-8127-4ff6-9c56-77a43aa34875)
  )
  (wire (pts (xy 158.75 58.42) (xy 160.02 58.42))
    (stroke (width 0) (type default))
    (uuid bada84f9-5829-44a7-9162-e45abcba0ff9)
  )
  (wire (pts (xy 69.85 115.57) (xy 77.47 115.57))
    (stroke (width 0) (type default))
    (uuid bf175a61-4351-4fa6-a6b7-1190a69e862a)
  )
  (wire (pts (xy 160.02 60.96) (xy 158.75 60.96))
    (stroke (width 0) (type default))
    (uuid c32288af-1179-498d-897b-4a799ac0dd33)
  )
  (polyline (pts (xy 250.19 36.83) (xy 196.85 36.83))
    (stroke (width 0) (type dash))
    (uuid c323a088-a8c4-4ce2-8bb2-311cf8b7ce5d)
  )

  (wire (pts (xy 158.75 67.31) (xy 165.1 67.31))
    (stroke (width 0) (type default))
    (uuid d112a33e-f1df-493f-b070-bf0a09fa8677)
  )
  (polyline (pts (xy 196.85 62.23) (xy 250.19 62.23))
    (stroke (width 0) (type dash))
    (uuid d4ea524f-a33e-4cf3-beda-425da2fa1430)
  )

  (wire (pts (xy 69.85 114.3) (xy 69.85 115.57))
    (stroke (width 0) (type default))
    (uuid d6201d9f-3538-4fa6-ae82-ec2eeb2c4ef7)
  )
  (wire (pts (xy 222.25 53.34) (xy 222.25 54.61))
    (stroke (width 0) (type default))
    (uuid d77b21cc-4469-4276-8e02-cfc584c638c9)
  )
  (wire (pts (xy 161.29 91.44) (xy 168.91 91.44))
    (stroke (width 0) (type default))
    (uuid dbe2f47f-938f-4337-bb04-f8e3592b9c8e)
  )
  (polyline (pts (xy 45.72 36.83) (xy 45.72 118.11))
    (stroke (width 0) (type dash))
    (uuid dc06cb35-c3b8-479c-90a4-dbcd15eca4c4)
  )

  (wire (pts (xy 77.47 105.41) (xy 77.47 109.22))
    (stroke (width 0) (type default))
    (uuid e13974ee-9d59-4e44-a0b1-6fb7197cb271)
  )
  (wire (pts (xy 149.86 96.52) (xy 149.86 97.79))
    (stroke (width 0) (type default))
    (uuid e2adbbb9-a48f-4769-8872-2e1db14079e6)
  )
  (polyline (pts (xy 45.72 118.11) (xy 194.31 118.11))
    (stroke (width 0) (type dash))
    (uuid e89340fc-cb18-4a58-a4f4-8972ad4c92d9)
  )

  (wire (pts (xy 232.41 45.72) (xy 234.95 45.72))
    (stroke (width 0) (type default))
    (uuid ea1c3b66-8f58-4395-8e7e-6c312323195a)
  )
  (wire (pts (xy 78.74 60.96) (xy 81.28 60.96))
    (stroke (width 0) (type default))
    (uuid ee6a6f86-4787-490c-8fcb-9b91812f4d2b)
  )
  (wire (pts (xy 209.55 54.61) (xy 222.25 54.61))
    (stroke (width 0) (type default))
    (uuid ef17cdba-e7ff-45a1-a27b-64cdd704594b)
  )
  (wire (pts (xy 85.09 114.3) (xy 85.09 115.57))
    (stroke (width 0) (type default))
    (uuid f3b73f3d-2dac-4580-8ce6-b551928861ba)
  )
  (wire (pts (xy 232.41 54.61) (xy 243.84 54.61))
    (stroke (width 0) (type default))
    (uuid f56f8e26-87f2-4b30-bb98-f62c335d9234)
  )
  (wire (pts (xy 167.64 95.25) (xy 167.64 93.98))
    (stroke (width 0) (type default))
    (uuid f79811c8-e1ad-4cd4-b2a9-40f77b0a588e)
  )
  (wire (pts (xy 243.84 52.07) (xy 243.84 54.61))
    (stroke (width 0) (type default))
    (uuid fc42c75f-9fa1-431f-a80e-18ac5cbdce17)
  )

  (text "USB-C cable to charger\nplugs into J1" (at 81.28 43.18 0)
    (effects (font (size 1.27 1.27)) (justify left bottom))
    (uuid 4176f30e-d9fe-47ba-91f4-31af80146a81)
  )
  (text "VCONN from USB connector of phone (nom. 3.0-5.5V)\nMin. 1uF input/output caps for LDO\nPower LED and it's resistor R4 are optional"
    (at 198.12 71.12 0)
    (effects (font (size 1.27 1.27) bold) (justify left bottom))
    (uuid 91736a14-88b5-4edd-8b75-367bcd380945)
  )
  (text "USB-C Power Delivery" (at 46.99 35.56 0)
    (effects (font (size 2.54 2.54) (thickness 0.508) bold) (justify left bottom))
    (uuid bb8c24cf-839b-4d83-917b-075c240bae5b)
  )
  (text "Power Supply" (at 198.12 35.56 0)
    (effects (font (size 2.54 2.54) (thickness 0.508) bold) (justify left bottom))
    (uuid ccd6e2c5-94c1-4bcd-8ff6-95bc0aed4c33)
  )
  (text "Programming header\nfor PD controller" (at 171.45 81.28 0)
    (effects (font (size 1.27 1.27)) (justify left bottom))
    (uuid d5256736-ec0a-421a-a86a-517941cb012a)
  )
  (text "USB-C cable to phone" (at 165.1 43.18 0)
    (effects (font (size 1.27 1.27)) (justify left bottom))
    (uuid f3d0e1ab-d215-40f5-90b2-844dd67f5a52)
  )

  (label "PHONE_VCONN" (at 160.02 53.34 180) (fields_autoplaced)
    (effects (font (size 1.27 1.27)) (justify right bottom))
    (uuid 689c2219-bb2d-4f0c-b711-2f82ab872a87)
  )
  (label "VBUS" (at 160.02 48.26 180) (fields_autoplaced)
    (effects (font (size 1.27 1.27)) (justify right bottom))
    (uuid c9c7238a-601b-4497-886a-6995c2a87f31)
  )
  (label "PHONE_CC" (at 160.02 50.8 180) (fields_autoplaced)
    (effects (font (size 1.27 1.27)) (justify right bottom))
    (uuid ec26d23f-967d-4f5f-9730-64e30b241b0a)
  )

  (global_label "VDDD" (shape input) (at 167.64 83.82 180) (fields_autoplaced)
    (effects (font (size 1.27 1.27)) (justify right))
    (uuid 496c8c2b-6d01-4627-81f0-cb29ee8a683f)
    (property "Intersheetrefs" "${INTERSHEET_REFS}" (at 160.4898 83.82 0)
      (effects (font (size 1.27 1.27)) (justify right) hide)
    )
  )

  (hierarchical_label "USB_DP" (shape input) (at 158.75 58.42 180) (fields_autoplaced)
    (effects (font (size 1.27 1.27)) (justify right))
    (uuid 322d53cc-ffad-4d89-a887-14fae2498aea)
  )
  (hierarchical_label "USB_DM" (shape input) (at 158.75 55.88 180) (fields_autoplaced)
    (effects (font (size 1.27 1.27)) (justify right))
    (uuid 84fbeeae-4c5b-43a1-886b-a783cf99d147)
  )

  (symbol (lib_id "power:GND") (at 85.09 116.84 0) (unit 1)
    (in_bom yes) (on_board yes) (dnp no)
    (uuid 056075da-a4e8-426a-a236-bf726dc2ed88)
    (property "Reference" "#PWR05" (at 85.09 123.19 0)
      (effects (font (size 1.27 1.27)) hide)
    )
    (property "Value" "GND" (at 85.09 120.65 0)
      (effects (font (size 1.27 1.27)))
    )
    (property "Footprint" "" (at 85.09 116.84 0)
      (effects (font (size 1.27 1.27)) hide)
    )
    (property "Datasheet" "" (at 85.09 116.84 0)
      (effects (font (size 1.27 1.27)) hide)
    )
    (pin "1" (uuid 63712c37-2fe4-4364-a26a-df4a3f982e28))
    (instances
      (project "mkbd65"
        (path "/efeac2a2-7682-4dc7-83ee-f6f1b23da506/ad2da778-2009-4410-8e22-9de9d91368e5"
          (reference "#PWR05") (unit 1)
        )
      )
    )
  )

  (symbol (lib_id "Regulator_Linear:AP2127N-3.0") (at 222.25 45.72 0) (unit 1)
    (in_bom yes) (on_board yes) (dnp no) (fields_autoplaced)
    (uuid 06b8084d-68cc-4d0c-a1cc-6f6c3e9e5bda)
    (property "Reference" "U1" (at 222.25 39.37 0)
      (effects (font (size 1.27 1.27)))
    )
    (property "Value" "AP2127N-3.0" (at 222.25 41.91 0)
      (effects (font (size 1.27 1.27)))
    )
    (property "Footprint" "Package_TO_SOT_SMD:SOT-23" (at 222.25 40.005 0)
      (effects (font (size 1.27 1.27) italic) hide)
    )
    (property "Datasheet" "https://www.diodes.com/assets/Datasheets/AP2127.pdf" (at 222.25 45.72 0)
      (effects (font (size 1.27 1.27)) hide)
    )
    (property "lcsc" "C3749014" (at 222.25 45.72 0)
      (effects (font (size 1.27 1.27)) hide)
    )
    (property "mouser" "621-AP2127N-3.0TRG1" (at 222.25 45.72 0)
      (effects (font (size 1.27 1.27)) hide)
    )
    (pin "1" (uuid ed456d35-fee6-4a75-a3b5-6e9ea746766a))
    (pin "2" (uuid 6ef304f2-1f64-4126-952a-e0160c7fef40))
    (pin "3" (uuid 42858259-2928-431e-a766-7d4acc17e52a))
    (instances
      (project "mkbd65"
        (path "/efeac2a2-7682-4dc7-83ee-f6f1b23da506/ad2da778-2009-4410-8e22-9de9d91368e5"
          (reference "U1") (unit 1)
        )
      )
    )
  )

  (symbol (lib_id "power:+3V0") (at 232.41 44.45 0) (unit 1)
    (in_bom yes) (on_board yes) (dnp no) (fields_autoplaced)
    (uuid 1174427b-1cfb-4370-8e71-920f24ff6b4d)
    (property "Reference" "#PWR02" (at 232.41 48.26 0)
      (effects (font (size 1.27 1.27)) hide)
    )
    (property "Value" "+3V0" (at 232.41 40.64 0)
      (effects (font (size 1.27 1.27)))
    )
    (property "Footprint" "" (at 232.41 44.45 0)
      (effects (font (size 1.27 1.27)) hide)
    )
    (property "Datasheet" "" (at 232.41 44.45 0)
      (effects (font (size 1.27 1.27)) hide)
    )
    (pin "1" (uuid f9864af2-effa-44fb-bacc-6919370d405f))
    (instances
      (project "mkbd65"
        (path "/efeac2a2-7682-4dc7-83ee-f6f1b23da506/ad2da778-2009-4410-8e22-9de9d91368e5"
          (reference "#PWR02") (unit 1)
        )
      )
    )
  )

  (symbol (lib_id "Device:C_Small") (at 77.47 111.76 0) (unit 1)
    (in_bom yes) (on_board yes) (dnp no) (fields_autoplaced)
    (uuid 260bd04b-660a-497a-ac12-706fc16afce1)
    (property "Reference" "C3" (at 80.01 110.4963 0)
      (effects (font (size 1.27 1.27)) (justify left))
    )
    (property "Value" "1u" (at 80.01 113.0363 0)
      (effects (font (size 1.27 1.27)) (justify left))
    )
    (property "Footprint" "" (at 77.47 111.76 0)
      (effects (font (size 1.27 1.27)) hide)
    )
    (property "Datasheet" "~" (at 77.47 111.76 0)
      (effects (font (size 1.27 1.27)) hide)
    )
    (pin "1" (uuid 68a12a8f-5a0a-4aee-ad3d-999dd2b02dee))
    (pin "2" (uuid 4aae3b4a-dc98-4033-b52c-46f01c8b83c7))
    (instances
      (project "mkbd65"
        (path "/efeac2a2-7682-4dc7-83ee-f6f1b23da506/ad2da778-2009-4410-8e22-9de9d91368e5"
          (reference "C3") (unit 1)
        )
      )
    )
  )

  (symbol (lib_id "Device:C_Small") (at 232.41 49.53 0) (unit 1)
    (in_bom yes) (on_board yes) (dnp no)
    (uuid 4539c78f-0787-4853-b5c5-f9405a55aa3d)
    (property "Reference" "C11" (at 234.95 48.26 0)
      (effects (font (size 1.27 1.27)) (justify left))
    )
    (property "Value" "1uF" (at 234.95 50.8 0)
      (effects (font (size 1.27 1.27)) (justify left))
    )
    (property "Footprint" "Capacitor_SMD:C_0805_2012Metric_Pad1.18x1.45mm_HandSolder" (at 232.41 49.53 0)
      (effects (font (size 1.27 1.27)) hide)
    )
    (property "Datasheet" "~" (at 232.41 49.53 0)
      (effects (font (size 1.27 1.27)) hide)
    )
    (pin "1" (uuid d257618a-2bc1-4fe2-9aeb-b05ca63f84ae))
    (pin "2" (uuid 7bffce4b-df0c-4ed9-9fe6-4441210610ca))
    (instances
      (project "mkbd65"
        (path "/efeac2a2-7682-4dc7-83ee-f6f1b23da506/ad2da778-2009-4410-8e22-9de9d91368e5"
          (reference "C11") (unit 1)
        )
      )
    )
  )

  (symbol (lib_id "Device:C_Small") (at 209.55 49.53 0) (unit 1)
    (in_bom yes) (on_board yes) (dnp no)
    (uuid 4f2d1c5d-1e38-4e29-92fe-a52e3e34a69f)
    (property "Reference" "C12" (at 212.09 48.26 0)
      (effects (font (size 1.27 1.27)) (justify left))
    )
    (property "Value" "1uF" (at 212.09 50.8 0)
      (effects (font (size 1.27 1.27)) (justify left))
    )
    (property "Footprint" "Capacitor_SMD:C_0805_2012Metric_Pad1.18x1.45mm_HandSolder" (at 209.55 49.53 0)
      (effects (font (size 1.27 1.27)) hide)
    )
    (property "Datasheet" "~" (at 209.55 49.53 0)
      (effects (font (size 1.27 1.27)) hide)
    )
    (pin "1" (uuid 6244e86c-ae45-47ad-964c-4cbc48e97126))
    (pin "2" (uuid b0eafd46-60c8-4d1a-992a-77b26f599fca))
    (instances
      (project "mkbd65"
        (path "/efeac2a2-7682-4dc7-83ee-f6f1b23da506/ad2da778-2009-4410-8e22-9de9d91368e5"
          (reference "C12") (unit 1)
        )
      )
    )
  )

  (symbol (lib_id "power:GND") (at 165.1 68.58 0) (unit 1)
    (in_bom yes) (on_board yes) (dnp no) (fields_autoplaced)
    (uuid 4f89dde2-3a46-400d-b7a7-e5fdfd696ab7)
    (property "Reference" "#PWR07" (at 165.1 74.93 0)
      (effects (font (size 1.27 1.27)) hide)
    )
    (property "Value" "GND" (at 165.1 73.66 0)
      (effects (font (size 1.27 1.27)))
    )
    (property "Footprint" "" (at 165.1 68.58 0)
      (effects (font (size 1.27 1.27)) hide)
    )
    (property "Datasheet" "" (at 165.1 68.58 0)
      (effects (font (size 1.27 1.27)) hide)
    )
    (pin "1" (uuid 65a186e1-23ca-4f2f-8490-6f4ea0e89f5c))
    (instances
      (project "mkbd65"
        (path "/efeac2a2-7682-4dc7-83ee-f6f1b23da506/ad2da778-2009-4410-8e22-9de9d91368e5"
          (reference "#PWR07") (unit 1)
        )
      )
    )
  )

  (symbol (lib_id "Device:C_Small") (at 85.09 111.76 0) (unit 1)
    (in_bom yes) (on_board yes) (dnp no) (fields_autoplaced)
    (uuid 575c89f0-0b4f-42cd-879f-293fb2e0c4d3)
    (property "Reference" "C2" (at 87.63 110.4963 0)
      (effects (font (size 1.27 1.27)) (justify left))
    )
    (property "Value" "1u" (at 87.63 113.0363 0)
      (effects (font (size 1.27 1.27)) (justify left))
    )
    (property "Footprint" "" (at 85.09 111.76 0)
      (effects (font (size 1.27 1.27)) hide)
    )
    (property "Datasheet" "~" (at 85.09 111.76 0)
      (effects (font (size 1.27 1.27)) hide)
    )
    (pin "1" (uuid bf86ba8c-3ce3-4b89-8b9d-4cb2911d1e46))
    (pin "2" (uuid b86ae307-5297-49a8-9196-0ad67daf9110))
    (instances
      (project "mkbd65"
        (path "/efeac2a2-7682-4dc7-83ee-f6f1b23da506/ad2da778-2009-4410-8e22-9de9d91368e5"
          (reference "C2") (unit 1)
        )
      )
    )
  )

  (symbol (lib_id "power:GND") (at 59.69 76.2 0) (unit 1)
    (in_bom yes) (on_board yes) (dnp no)
    (uuid 5ebbc1eb-3587-4022-b37e-aa9b798b6432)
    (property "Reference" "#PWR03" (at 59.69 82.55 0)
      (effects (font (size 1.27 1.27)) hide)
    )
    (property "Value" "GND" (at 59.69 80.01 0)
      (effects (font (size 1.27 1.27)))
    )
    (property "Footprint" "" (at 59.69 76.2 0)
      (effects (font (size 1.27 1.27)) hide)
    )
    (property "Datasheet" "" (at 59.69 76.2 0)
      (effects (font (size 1.27 1.27)) hide)
    )
    (pin "1" (uuid dadec015-434d-4c11-841d-865968c5d702))
    (instances
      (project "mkbd65"
        (path "/efeac2a2-7682-4dc7-83ee-f6f1b23da506/ad2da778-2009-4410-8e22-9de9d91368e5"
          (reference "#PWR03") (unit 1)
        )
      )
    )
  )

  (symbol (lib_id "Device:R_Small") (at 243.84 49.53 0) (unit 1)
    (in_bom yes) (on_board yes) (dnp no)
    (uuid 7cd49db9-0cff-4997-abe1-c1441bda2af7)
    (property "Reference" "R4" (at 245.11 48.26 0)
      (effects (font (size 1.27 1.27)) (justify left))
    )
    (property "Value" "1k" (at 245.11 50.8 0)
      (effects (font (size 1.27 1.27)) (justify left))
    )
    (property "Footprint" "Resistor_SMD:R_0805_2012Metric_Pad1.20x1.40mm_HandSolder" (at 243.84 49.53 0)
      (effects (font (size 1.27 1.27)) hide)
    )
    (property "Datasheet" "~" (at 243.84 49.53 0)
      (effects (font (size 1.27 1.27)) hide)
    )
    (property "Note" "Optional" (at 243.84 49.53 0)
      (effects (font (size 1.27 1.27)) hide)
    )
    (pin "1" (uuid 14caca9a-39f7-431a-a871-cdd22ac23e88))
    (pin "2" (uuid 82777c8b-743e-4042-b709-9e8a6ef9b53a))
    (instances
      (project "mkbd65"
        (path "/efeac2a2-7682-4dc7-83ee-f6f1b23da506/ad2da778-2009-4410-8e22-9de9d91368e5"
          (reference "R4") (unit 1)
        )
      )
    )
  )

  (symbol (lib_id "power:GND") (at 222.25 55.88 0) (unit 1)
    (in_bom yes) (on_board yes) (dnp no)
    (uuid 8c2b1d32-c2e3-4222-9de1-c8db1cf4c451)
    (property "Reference" "#PWR01" (at 222.25 62.23 0)
      (effects (font (size 1.27 1.27)) hide)
    )
    (property "Value" "GND" (at 222.25 59.69 0)
      (effects (font (size 1.27 1.27)))
    )
    (property "Footprint" "" (at 222.25 55.88 0)
      (effects (font (size 1.27 1.27)) hide)
    )
    (property "Datasheet" "" (at 222.25 55.88 0)
      (effects (font (size 1.27 1.27)) hide)
    )
    (pin "1" (uuid 0d95eede-bb55-490e-aafe-c46d06ddcbf5))
    (instances
      (project "mkbd65"
        (path "/efeac2a2-7682-4dc7-83ee-f6f1b23da506/ad2da778-2009-4410-8e22-9de9d91368e5"
          (reference "#PWR01") (unit 1)
        )
      )
    )
  )

  (symbol (lib_id "power:GND") (at 149.86 97.79 0) (unit 1)
    (in_bom yes) (on_board yes) (dnp no)
    (uuid 9db14b48-d1ba-4ede-b7ad-a266a81c89aa)
    (property "Reference" "#PWR04" (at 149.86 104.14 0)
      (effects (font (size 1.27 1.27)) hide)
    )
    (property "Value" "GND" (at 149.86 101.6 0)
      (effects (font (size 1.27 1.27)))
    )
    (property "Footprint" "" (at 149.86 97.79 0)
      (effects (font (size 1.27 1.27)) hide)
    )
    (property "Datasheet" "" (at 149.86 97.79 0)
      (effects (font (size 1.27 1.27)) hide)
    )
    (pin "1" (uuid 3d0d081a-6c22-4188-81bc-b07af4cb8efd))
    (instances
      (project "mkbd65"
        (path "/efeac2a2-7682-4dc7-83ee-f6f1b23da506/ad2da778-2009-4410-8e22-9de9d91368e5"
          (reference "#PWR04") (unit 1)
        )
      )
    )
  )

  (symbol (lib_id "Infineon_EZ-PD_CCG3:CYPD31__-40LQX_T") (at 114.3 83.82 0) (unit 1)
    (in_bom yes) (on_board yes) (dnp no) (fields_autoplaced)
    (uuid b262424b-8343-4e75-b486-a2c5f1e7b700)
    (property "Reference" "U2" (at 114.3 54.61 0)
      (effects (font (size 1.27 1.27)))
    )
    (property "Value" "~" (at 114.3 73.66 0)
      (effects (font (size 1.27 1.27)))
    )
    (property "Footprint" "Package_DFN_QFN:QFN-40-1EP_6x6mm_P0.5mm_EP4.6x4.6mm_ThermalVias" (at 114.3 124.46 0)
      (effects (font (size 1.27 1.27)) hide)
    )
    (property "Datasheet" "https://www.infineon.com/dgdl/Infineon-EZ-PD_CCG3_USB_Type-C_Controller_with_Power_Delivery-DataSheet-v11_00-EN.pdf?fileId=8ac78c8c7d0d8da4017d0ed8b45c5a56" (at 114.3 127 0)
      (effects (font (size 1.27 1.27)) hide)
    )
    (pin "1" (uuid 8e8f2d62-17b0-40c5-b6b2-34f2e1a5f3d0))
    (pin "10" (uuid 77fea6b8-1ac0-4608-bfcb-447460374e96))
    (pin "11" (uuid 8a6bdb3c-3023-4f68-ae7c-3d90a1c27f63))
    (pin "12" (uuid 9315dd4b-ae5c-428b-a485-bbc4760a6375))
    (pin "13" (uuid ffefd23c-72be-460d-aff3-c490b27744ea))
    (pin "14" (uuid 6ca0eca8-4801-4594-ac9f-a7a56b595bef))
    (pin "15" (uuid 14160f5f-e16c-4a2d-8bc5-e6ae2dde536d))
    (pin "16" (uuid eb68355a-26a5-493a-8090-4bb6e2f2dbd6))
    (pin "17" (uuid 08cf334d-3f3d-4eb2-a358-8e56533811dd))
    (pin "18" (uuid 809480de-b43c-4a7c-a970-03f0244d3fe8))
    (pin "19" (uuid 11e424a8-34da-4250-bc91-6c2d7a33016f))
    (pin "2" (uuid 2fe972c8-bf82-4d6c-b16a-817d937be250))
    (pin "20" (uuid 2de2d166-19eb-443e-927a-3971b4f2e698))
    (pin "21" (uuid 815f265d-e519-4fee-bdbf-e083ce3f2236))
    (pin "22" (uuid 39faaf6c-2e7b-42ca-ba8b-ff3201fa0258))
    (pin "23" (uuid 6af96500-6229-47fd-be78-494aee48aa8a))
    (pin "24" (uuid 6dbe94a6-f1c2-4c96-be48-c86762a39903))
    (pin "25" (uuid 9e185192-bbef-4504-80b0-d67c0b4080a9))
    (pin "26" (uuid efacbf99-f681-439b-b7c8-da93835210ff))
    (pin "27" (uuid a0e3eb88-f831-49e0-9940-007c1d1e2c82))
    (pin "28" (uuid ed11b589-e48e-4695-8096-420fe82272bc))
    (pin "29" (uuid 6e511295-3c8a-41ee-8467-938253bc5f6d))
    (pin "3" (uuid a42be46a-16d8-423d-ba8e-5b7b1c92a184))
    (pin "30" (uuid f550e3e7-f2e6-4ba8-992e-6283f60922f9))
    (pin "31" (uuid 9743328a-1bf9-4179-872c-5dbe558b4957))
    (pin "32" (uuid 0a8c28d4-e55c-4c75-b1e7-20199d3c14ea))
    (pin "33" (uuid 893f709a-2dc9-47a4-a569-9d315349c361))
    (pin "34" (uuid ffdf246f-e744-4190-99f3-fa69c207a32a))
    (pin "35" (uuid bdbf0244-201c-424d-ab76-06e80835de29))
    (pin "36" (uuid dbfb6a20-2076-4e52-8d04-3733da63e814))
    (pin "37" (uuid 5b2abf4a-ffa0-4517-8b2f-3242fcf7e9c8))
    (pin "38" (uuid fd073bbc-e2d7-4bc1-9733-b723ee73870a))
    (pin "39" (uuid 7e6b3c91-ddd0-4f33-8a30-61e2e90da1e3))
    (pin "4" (uuid 0e8f315f-cf79-4176-8b54-6d81d5e3b8c3))
    (pin "40" (uuid f1dfc1ba-0f96-4014-9937-5160698ece7e))
    (pin "5" (uuid d472a480-ba90-45b6-bcb3-3c85186113ca))
    (pin "6" (uuid f0fae6a8-6cae-43cb-ae50-052d4e63c03c))
    (pin "7" (uuid 892fbe75-fb23-46c1-840b-a2ddf8f16a94))
    (pin "8" (uuid f8baa662-fee9-4103-a62b-2c0e6ea434bc))
    (pin "9" (uuid 6a61dd54-3067-4c96-bd90-61386891c18e))
    (pin "EPAD" (uuid 532e735c-b282-4d8c-9dc2-305d2953c664))
    (instances
      (project "mkbd65"
        (path "/efeac2a2-7682-4dc7-83ee-f6f1b23da506/ad2da778-2009-4410-8e22-9de9d91368e5"
          (reference "U2") (unit 1)
        )
      )
    )
  )

  (symbol (lib_id "Device:C_Small") (at 69.85 111.76 0) (unit 1)
    (in_bom yes) (on_board yes) (dnp no) (fields_autoplaced)
    (uuid bbbf23bd-c310-4511-9793-6a3005a287cd)
    (property "Reference" "C4" (at 72.39 110.4963 0)
      (effects (font (size 1.27 1.27)) (justify left))
    )
    (property "Value" "1u" (at 72.39 113.0363 0)
      (effects (font (size 1.27 1.27)) (justify left))
    )
    (property "Footprint" "" (at 69.85 111.76 0)
      (effects (font (size 1.27 1.27)) hide)
    )
    (property "Datasheet" "~" (at 69.85 111.76 0)
      (effects (font (size 1.27 1.27)) hide)
    )
    (pin "1" (uuid b14a86cd-0fc4-4836-9d42-c626cf7013d6))
    (pin "2" (uuid 77e926ab-8c2c-450a-afcb-399a427a76c5))
    (instances
      (project "mkbd65"
        (path "/efeac2a2-7682-4dc7-83ee-f6f1b23da506/ad2da778-2009-4410-8e22-9de9d91368e5"
          (reference "C4") (unit 1)
        )
      )
    )
  )

  (symbol (lib_id "power:GND") (at 167.64 95.25 0) (unit 1)
    (in_bom yes) (on_board yes) (dnp no)
    (uuid bbc43de0-79af-4ad2-8165-42bc3bd277e5)
    (property "Reference" "#PWR06" (at 167.64 101.6 0)
      (effects (font (size 1.27 1.27)) hide)
    )
    (property "Value" "GND" (at 167.64 99.06 0)
      (effects (font (size 1.27 1.27)))
    )
    (property "Footprint" "" (at 167.64 95.25 0)
      (effects (font (size 1.27 1.27)) hide)
    )
    (property "Datasheet" "" (at 167.64 95.25 0)
      (effects (font (size 1.27 1.27)) hide)
    )
    (pin "1" (uuid e07130cf-ede5-4c3f-a97c-f87eab0b6a58))
    (instances
      (project "mkbd65"
        (path "/efeac2a2-7682-4dc7-83ee-f6f1b23da506/ad2da778-2009-4410-8e22-9de9d91368e5"
          (reference "#PWR06") (unit 1)
        )
      )
    )
  )

  (symbol (lib_id "Connector_Generic_MountingPin:Conn_01x06_MountingPin") (at 165.1 53.34 0) (unit 1)
    (in_bom yes) (on_board yes) (dnp no) (fields_autoplaced)
    (uuid c4e79ac8-6bce-40bc-a5f8-9072789db845)
    (property "Reference" "J3" (at 167.64 54.3306 0)
      (effects (font (size 1.27 1.27)) (justify left))
    )
    (property "Value" "Conn_01x06_MountingPin" (at 167.64 56.8706 0)
      (effects (font (size 1.27 1.27)) (justify left))
    )
    (property "Footprint" "" (at 165.1 53.34 0)
      (effects (font (size 1.27 1.27)) hide)
    )
    (property "Datasheet" "~" (at 165.1 53.34 0)
      (effects (font (size 1.27 1.27)) hide)
    )
    (pin "1" (uuid 8e41250f-ece4-49d5-8f09-086816d16d6d))
    (pin "2" (uuid 7766260a-52d3-4541-9a4b-2fd2cdb1216b))
    (pin "3" (uuid 046b5b20-5af6-46f9-8aec-501df2b543b9))
    (pin "4" (uuid dfebe20d-a77a-4243-8e61-f03cada1aa0a))
    (pin "5" (uuid 3ebc6812-bcf5-46d8-a3cc-ec25c1fe54b2))
    (pin "6" (uuid 76569a13-7289-40ed-86f6-c2a966ee262c))
    (pin "MP" (uuid 11ea39b5-6b83-4a43-b1c0-ba462d53d50b))
    (instances
      (project "mkbd65"
        (path "/efeac2a2-7682-4dc7-83ee-f6f1b23da506/ad2da778-2009-4410-8e22-9de9d91368e5"
          (reference "J3") (unit 1)
        )
      )
    )
  )

  (symbol (lib_id "Connector:USB_C_Receptacle_PowerOnly_6P") (at 63.5 55.88 0) (unit 1)
    (in_bom yes) (on_board yes) (dnp no) (fields_autoplaced)
    (uuid ce5b4a55-004e-4b9a-b706-b4de06be242a)
    (property "Reference" "J1" (at 63.5 39.37 0)
      (effects (font (size 1.27 1.27)))
    )
    (property "Value" "USB_C_Receptacle_PowerOnly_6P" (at 63.5 41.91 0)
      (effects (font (size 1.27 1.27)))
    )
    (property "Footprint" "Connector_USB:USB_C_Receptacle_GCT_USB4135-GF-A_6P_TopMnt_Horizontal" (at 67.31 53.34 0)
      (effects (font (size 1.27 1.27)) hide)
    )
    (property "Datasheet" "https://www.usb.org/sites/default/files/documents/usb_type-c.zip" (at 63.5 55.88 0)
      (effects (font (size 1.27 1.27)) hide)
    )
    (pin "A12" (uuid add5b141-1b7e-4df5-8e27-0ef6d031777c))
    (pin "A5" (uuid b3b4cdc2-222a-4d9a-a533-7cb13c6d52bd))
    (pin "A9" (uuid 6ae971c8-3f24-4c70-a4e4-db1f8b478252))
    (pin "B12" (uuid b4249157-cb04-4592-8a24-a8252e7ef580))
    (pin "B5" (uuid ec618aa7-2bff-4c4c-b21d-eb2de9d6a995))
    (pin "B9" (uuid fc275661-ca76-487f-b319-fd54fbe5bfca))
    (pin "S1" (uuid 3c12ca85-a5cb-45f4-b9a1-795120370e7b))
    (instances
      (project "mkbd65"
        (path "/efeac2a2-7682-4dc7-83ee-f6f1b23da506/ad2da778-2009-4410-8e22-9de9d91368e5"
          (reference "J1") (unit 1)
        )
      )
    )
  )

  (symbol (lib_id "Device:LED") (at 238.76 45.72 180) (unit 1)
    (in_bom yes) (on_board yes) (dnp no) (fields_autoplaced)
    (uuid dd602555-e807-4f68-950f-8d085a40ed82)
    (property "Reference" "D66" (at 240.3475 39.37 0)
      (effects (font (size 1.27 1.27)))
    )
    (property "Value" "PWR_LED" (at 240.3475 41.91 0)
      (effects (font (size 1.27 1.27)))
    )
    (property "Footprint" "LED_SMD:LED_0805_2012Metric_Pad1.15x1.40mm_HandSolder" (at 238.76 45.72 0)
      (effects (font (size 1.27 1.27)) hide)
    )
    (property "Datasheet" "~" (at 238.76 45.72 0)
      (effects (font (size 1.27 1.27)) hide)
    )
    (property "Note" "Optional" (at 238.76 45.72 0)
      (effects (font (size 1.27 1.27)) hide)
    )
    (pin "1" (uuid bc3a1fd9-fa81-448c-9f0a-de01ae3f5c3c))
    (pin "2" (uuid 1e20f8c4-7c95-4e33-9319-ecd74bc59d31))
    (instances
      (project "mkbd65"
        (path "/efeac2a2-7682-4dc7-83ee-f6f1b23da506/ad2da778-2009-4410-8e22-9de9d91368e5"
          (reference "D66") (unit 1)
        )
      )
    )
  )

  (symbol (lib_id "Connector:Conn_01x05_Pin") (at 173.99 88.9 180) (unit 1)
    (in_bom yes) (on_board yes) (dnp no) (fields_autoplaced)
    (uuid e4d77e96-dca1-48cd-a72e-afa5c76319e8)
    (property "Reference" "J2" (at 175.26 88.265 0)
      (effects (font (size 1.27 1.27)) (justify right))
    )
    (property "Value" "Conn_01x05_Pin" (at 175.26 90.805 0)
      (effects (font (size 1.27 1.27)) (justify right))
    )
    (property "Footprint" "Connector_PinSocket_1.00mm:PinSocket_1x05_P1.00mm_Vertical_SMD_Pin1Left" (at 173.99 88.9 0)
      (effects (font (size 1.27 1.27)) hide)
    )
    (property "Datasheet" "~" (at 173.99 88.9 0)
      (effects (font (size 1.27 1.27)) hide)
    )
    (pin "1" (uuid c83c107b-ff48-4c68-9ca9-e1f88e06f920))
    (pin "2" (uuid fcbe3ac1-3777-4680-8ce1-3503d1dc1767))
    (pin "3" (uuid aa84fdad-97c1-480d-91f5-31515523a69d))
    (pin "4" (uuid d1a9f206-6f7c-4b3a-a7d8-291a50de3882))
    (pin "5" (uuid 396eb84c-a399-4b3c-b63e-5724bb0fe15d))
    (instances
      (project "mkbd65"
        (path "/efeac2a2-7682-4dc7-83ee-f6f1b23da506/ad2da778-2009-4410-8e22-9de9d91368e5"
          (reference "J2") (unit 1)
        )
      )
    )
  )

  (symbol (lib_id "Device:C_Small") (at 149.86 93.98 0) (unit 1)
    (in_bom yes) (on_board yes) (dnp no) (fields_autoplaced)
    (uuid f3c01edb-57eb-4727-aa61-29912938b365)
    (property "Reference" "C1" (at 152.4 92.7163 0)
      (effects (font (size 1.27 1.27)) (justify left))
    )
    (property "Value" "1u" (at 152.4 95.2563 0)
      (effects (font (size 1.27 1.27)) (justify left))
    )
    (property "Footprint" "" (at 149.86 93.98 0)
      (effects (font (size 1.27 1.27)) hide)
    )
    (property "Datasheet" "~" (at 149.86 93.98 0)
      (effects (font (size 1.27 1.27)) hide)
    )
    (pin "1" (uuid 447c7af7-9714-42f9-8012-19f2a1df045f))
    (pin "2" (uuid 1521a21a-0fbf-47f4-9a09-e0d53da506e7))
    (instances
      (project "mkbd65"
        (path "/efeac2a2-7682-4dc7-83ee-f6f1b23da506/ad2da778-2009-4410-8e22-9de9d91368e5"
          (reference "C1") (unit 1)
        )
      )
    )
  )
)
