(kicad_symbol_lib (version 20211014) (generator kicad_symbol_editor)
  (symbol "ATMEGA32U4RC-MUR" (pin_names (offset 0.254)) (in_bom yes) (on_board yes)
    (property "Reference" "U" (id 0) (at 33.02 10.16 0)
      (effects (font (size 1.524 1.524)))
    )
    (property "Value" "ATMEGA32U4RC-MUR" (id 1) (at 33.02 7.62 0)
      (effects (font (size 1.524 1.524)))
    )
    (property "Footprint" "44PW_ATM" (id 2) (at 33.02 6.096 0)
      (effects (font (size 1.524 1.524)) hide)
    )
    (property "Datasheet" "" (id 3) (at 0 0 0)
      (effects (font (size 1.524 1.524)))
    )
    (property "ki_locked" "" (id 4) (at 0 0 0)
      (effects (font (size 1.27 1.27)))
    )
    (property "ki_fp_filters" "44PW_ATM 44PW_ATM-M 44PW_ATM-L" (id 5) (at 0 0 0)
      (effects (font (size 1.27 1.27)) hide)
    )
    (symbol "ATMEGA32U4RC-MUR_1_1"
      (polyline
        (pts
          (xy 7.62 -60.96)
          (xy 58.42 -60.96)
        )
        (stroke (width 0.127) (type default) (color 0 0 0 0))
        (fill (type none))
      )
      (polyline
        (pts
          (xy 7.62 5.08)
          (xy 7.62 -60.96)
        )
        (stroke (width 0.127) (type default) (color 0 0 0 0))
        (fill (type none))
      )
      (polyline
        (pts
          (xy 58.42 -60.96)
          (xy 58.42 5.08)
        )
        (stroke (width 0.127) (type default) (color 0 0 0 0))
        (fill (type none))
      )
      (polyline
        (pts
          (xy 58.42 5.08)
          (xy 7.62 5.08)
        )
        (stroke (width 0.127) (type default) (color 0 0 0 0))
        (fill (type none))
      )
      (pin bidirectional line (at 0 0 0) (length 7.62)
        (name "PE6" (effects (font (size 1.4986 1.4986))))
        (number "1" (effects (font (size 1.4986 1.4986))))
      )
      (pin bidirectional line (at 0 -22.86 0) (length 7.62)
        (name "PB2" (effects (font (size 1.4986 1.4986))))
        (number "10" (effects (font (size 1.4986 1.4986))))
      )
      (pin bidirectional line (at 0 -25.4 0) (length 7.62)
        (name "PB3" (effects (font (size 1.4986 1.4986))))
        (number "11" (effects (font (size 1.4986 1.4986))))
      )
      (pin bidirectional line (at 0 -27.94 0) (length 7.62)
        (name "PB7" (effects (font (size 1.4986 1.4986))))
        (number "12" (effects (font (size 1.4986 1.4986))))
      )
      (pin input line (at 0 -30.48 0) (length 7.62)
        (name "*RESET" (effects (font (size 1.4986 1.4986))))
        (number "13" (effects (font (size 1.4986 1.4986))))
      )
      (pin power_in line (at 0 -33.02 0) (length 7.62)
        (name "VCC" (effects (font (size 1.4986 1.4986))))
        (number "14" (effects (font (size 1.4986 1.4986))))
      )
      (pin power_in line (at 0 -35.56 0) (length 7.62)
        (name "GND" (effects (font (size 1.4986 1.4986))))
        (number "15" (effects (font (size 1.4986 1.4986))))
      )
      (pin output line (at 0 -38.1 0) (length 7.62)
        (name "XTAL2" (effects (font (size 1.4986 1.4986))))
        (number "16" (effects (font (size 1.4986 1.4986))))
      )
      (pin input line (at 0 -40.64 0) (length 7.62)
        (name "XTAL1" (effects (font (size 1.4986 1.4986))))
        (number "17" (effects (font (size 1.4986 1.4986))))
      )
      (pin bidirectional line (at 0 -43.18 0) (length 7.62)
        (name "PD0" (effects (font (size 1.4986 1.4986))))
        (number "18" (effects (font (size 1.4986 1.4986))))
      )
      (pin bidirectional line (at 0 -45.72 0) (length 7.62)
        (name "PD1" (effects (font (size 1.4986 1.4986))))
        (number "19" (effects (font (size 1.4986 1.4986))))
      )
      (pin power_in line (at 0 -2.54 0) (length 7.62)
        (name "UVCC" (effects (font (size 1.4986 1.4986))))
        (number "2" (effects (font (size 1.4986 1.4986))))
      )
      (pin bidirectional line (at 0 -48.26 0) (length 7.62)
        (name "PD2" (effects (font (size 1.4986 1.4986))))
        (number "20" (effects (font (size 1.4986 1.4986))))
      )
      (pin bidirectional line (at 0 -50.8 0) (length 7.62)
        (name "PD3" (effects (font (size 1.4986 1.4986))))
        (number "21" (effects (font (size 1.4986 1.4986))))
      )
      (pin bidirectional line (at 0 -53.34 0) (length 7.62)
        (name "PD5" (effects (font (size 1.4986 1.4986))))
        (number "22" (effects (font (size 1.4986 1.4986))))
      )
      (pin power_in line (at 66.04 -55.88 180) (length 7.62)
        (name "GND" (effects (font (size 1.4986 1.4986))))
        (number "23" (effects (font (size 1.4986 1.4986))))
      )
      (pin power_in line (at 66.04 -53.34 180) (length 7.62)
        (name "AVCC" (effects (font (size 1.4986 1.4986))))
        (number "24" (effects (font (size 1.4986 1.4986))))
      )
      (pin bidirectional line (at 66.04 -50.8 180) (length 7.62)
        (name "PD4" (effects (font (size 1.4986 1.4986))))
        (number "25" (effects (font (size 1.4986 1.4986))))
      )
      (pin bidirectional line (at 66.04 -48.26 180) (length 7.62)
        (name "PD6" (effects (font (size 1.4986 1.4986))))
        (number "26" (effects (font (size 1.4986 1.4986))))
      )
      (pin bidirectional line (at 66.04 -45.72 180) (length 7.62)
        (name "PD7" (effects (font (size 1.4986 1.4986))))
        (number "27" (effects (font (size 1.4986 1.4986))))
      )
      (pin bidirectional line (at 66.04 -43.18 180) (length 7.62)
        (name "PB4" (effects (font (size 1.4986 1.4986))))
        (number "28" (effects (font (size 1.4986 1.4986))))
      )
      (pin bidirectional line (at 66.04 -40.64 180) (length 7.62)
        (name "PB5" (effects (font (size 1.4986 1.4986))))
        (number "29" (effects (font (size 1.4986 1.4986))))
      )
      (pin unspecified line (at 0 -5.08 0) (length 7.62)
        (name "D-" (effects (font (size 1.4986 1.4986))))
        (number "3" (effects (font (size 1.4986 1.4986))))
      )
      (pin bidirectional line (at 66.04 -38.1 180) (length 7.62)
        (name "PB6" (effects (font (size 1.4986 1.4986))))
        (number "30" (effects (font (size 1.4986 1.4986))))
      )
      (pin bidirectional line (at 66.04 -35.56 180) (length 7.62)
        (name "PC6" (effects (font (size 1.4986 1.4986))))
        (number "31" (effects (font (size 1.4986 1.4986))))
      )
      (pin bidirectional line (at 66.04 -33.02 180) (length 7.62)
        (name "PC7" (effects (font (size 1.4986 1.4986))))
        (number "32" (effects (font (size 1.4986 1.4986))))
      )
      (pin bidirectional line (at 66.04 -30.48 180) (length 7.62)
        (name "PE2" (effects (font (size 1.4986 1.4986))))
        (number "33" (effects (font (size 1.4986 1.4986))))
      )
      (pin power_in line (at 66.04 -27.94 180) (length 7.62)
        (name "VCC" (effects (font (size 1.4986 1.4986))))
        (number "34" (effects (font (size 1.4986 1.4986))))
      )
      (pin power_in line (at 66.04 -25.4 180) (length 7.62)
        (name "GND" (effects (font (size 1.4986 1.4986))))
        (number "35" (effects (font (size 1.4986 1.4986))))
      )
      (pin bidirectional line (at 66.04 -22.86 180) (length 7.62)
        (name "PF7" (effects (font (size 1.4986 1.4986))))
        (number "36" (effects (font (size 1.4986 1.4986))))
      )
      (pin bidirectional line (at 66.04 -20.32 180) (length 7.62)
        (name "PF6" (effects (font (size 1.4986 1.4986))))
        (number "37" (effects (font (size 1.4986 1.4986))))
      )
      (pin bidirectional line (at 66.04 -17.78 180) (length 7.62)
        (name "PF5" (effects (font (size 1.4986 1.4986))))
        (number "38" (effects (font (size 1.4986 1.4986))))
      )
      (pin bidirectional line (at 66.04 -15.24 180) (length 7.62)
        (name "PF4" (effects (font (size 1.4986 1.4986))))
        (number "39" (effects (font (size 1.4986 1.4986))))
      )
      (pin unspecified line (at 0 -7.62 0) (length 7.62)
        (name "D+" (effects (font (size 1.4986 1.4986))))
        (number "4" (effects (font (size 1.4986 1.4986))))
      )
      (pin bidirectional line (at 66.04 -12.7 180) (length 7.62)
        (name "PF1" (effects (font (size 1.4986 1.4986))))
        (number "40" (effects (font (size 1.4986 1.4986))))
      )
      (pin bidirectional line (at 66.04 -10.16 180) (length 7.62)
        (name "PF0" (effects (font (size 1.4986 1.4986))))
        (number "41" (effects (font (size 1.4986 1.4986))))
      )
      (pin input line (at 66.04 -7.62 180) (length 7.62)
        (name "AREF" (effects (font (size 1.4986 1.4986))))
        (number "42" (effects (font (size 1.4986 1.4986))))
      )
      (pin power_in line (at 66.04 -5.08 180) (length 7.62)
        (name "GND" (effects (font (size 1.4986 1.4986))))
        (number "43" (effects (font (size 1.4986 1.4986))))
      )
      (pin power_in line (at 66.04 -2.54 180) (length 7.62)
        (name "AVCC" (effects (font (size 1.4986 1.4986))))
        (number "44" (effects (font (size 1.4986 1.4986))))
      )
      (pin unspecified line (at 66.04 0 180) (length 7.62)
        (name "EPAD" (effects (font (size 1.4986 1.4986))))
        (number "45" (effects (font (size 1.4986 1.4986))))
      )
      (pin power_in line (at 0 -10.16 0) (length 7.62)
        (name "UGND" (effects (font (size 1.4986 1.4986))))
        (number "5" (effects (font (size 1.4986 1.4986))))
      )
      (pin output line (at 0 -12.7 0) (length 7.62)
        (name "UCAP" (effects (font (size 1.4986 1.4986))))
        (number "6" (effects (font (size 1.4986 1.4986))))
      )
      (pin input line (at 0 -15.24 0) (length 7.62)
        (name "VBUS" (effects (font (size 1.4986 1.4986))))
        (number "7" (effects (font (size 1.4986 1.4986))))
      )
      (pin bidirectional line (at 0 -17.78 0) (length 7.62)
        (name "PB0" (effects (font (size 1.4986 1.4986))))
        (number "8" (effects (font (size 1.4986 1.4986))))
      )
      (pin bidirectional line (at 0 -20.32 0) (length 7.62)
        (name "PB1" (effects (font (size 1.4986 1.4986))))
        (number "9" (effects (font (size 1.4986 1.4986))))
      )
    )
  )
)
