(kicad_symbol_lib (version 20211014) (generator kicad_symbol_editor)
  (symbol "TL3315NF100Q" (pin_names (offset 1.016)) (in_bom yes) (on_board yes)
    (property "Reference" "SW" (id 0) (at 0 2.54 0)
      (effects (font (size 1.27 1.27)) (justify left))
    )
    (property "Value" "TL3315NF100Q" (id 1) (at 0 5.08 0)
      (effects (font (size 1.27 1.27)) (justify left))
    )
    (property "Footprint" "E-Switch-TL3315NF100Q-*" (id 2) (at 0 7.62 0)
      (effects (font (size 1.27 1.27)) (justify left) hide)
    )
    (property "Datasheet" "http://spec_sheets.e-switch.com/specs/P010336.pdf" (id 3) (at 0 10.16 0)
      (effects (font (size 1.27 1.27)) (justify left) hide)
    )
    (property "Circuit" "SPST-NO" (id 4) (at 0 12.7 0)
      (effects (font (size 1.27 1.27)) (justify left) hide)
    )
    (property "Contact Rating @ Voltage" "0.05A @ 15VDC" (id 5) (at 0 15.24 0)
      (effects (font (size 1.27 1.27)) (justify left) hide)
    )
    (property "category" "Switch" (id 6) (at 0 17.78 0)
      (effects (font (size 1.27 1.27)) (justify left) hide)
    )
    (property "digikey description" "Tactile Switch SPST-NO Top Actuated Surface Mount" (id 7) (at 0 20.32 0)
      (effects (font (size 1.27 1.27)) (justify left) hide)
    )
    (property "digikey part number" "EG4620CT-ND" (id 8) (at 0 22.86 0)
      (effects (font (size 1.27 1.27)) (justify left) hide)
    )
    (property "lead free" "yes" (id 9) (at 0 25.4 0)
      (effects (font (size 1.27 1.27)) (justify left) hide)
    )
    (property "library id" "065be6aca0e2683d" (id 10) (at 0 27.94 0)
      (effects (font (size 1.27 1.27)) (justify left) hide)
    )
    (property "manufacturer" "E-Switch" (id 11) (at 0 30.48 0)
      (effects (font (size 1.27 1.27)) (justify left) hide)
    )
    (property "mouser part number" "612-TL3315NF100Q" (id 12) (at 0 33.02 0)
      (effects (font (size 1.27 1.27)) (justify left) hide)
    )
    (property "package" "SMT_4POS" (id 13) (at 0 35.56 0)
      (effects (font (size 1.27 1.27)) (justify left) hide)
    )
    (property "rohs" "yes" (id 14) (at 0 38.1 0)
      (effects (font (size 1.27 1.27)) (justify left) hide)
    )
    (property "temperature range high" "+70°C" (id 15) (at 0 40.64 0)
      (effects (font (size 1.27 1.27)) (justify left) hide)
    )
    (property "temperature range low" "-20°C" (id 16) (at 0 43.18 0)
      (effects (font (size 1.27 1.27)) (justify left) hide)
    )
    (property "ki_locked" "" (id 17) (at 0 0 0)
      (effects (font (size 1.27 1.27)))
    )
    (property "ki_description" "TL3315NF100Q" (id 18) (at 0 0 0)
      (effects (font (size 1.27 1.27)) hide)
    )
    (symbol "TL3315NF100Q_1_1"
      (polyline
        (pts
          (xy 2.54 0)
          (xy 2.54 -5.08)
        )
        (stroke (width 0) (type default) (color 0 0 0 0))
        (fill (type none))
      )
      (polyline
        (pts
          (xy 5.334 -2.54)
          (xy 2.794 -2.54)
        )
        (stroke (width 0) (type default) (color 0 0 0 0))
        (fill (type none))
      )
      (polyline
        (pts
          (xy 5.334 -1.27)
          (xy 9.906 -1.27)
        )
        (stroke (width 0) (type default) (color 0 0 0 0))
        (fill (type none))
      )
      (polyline
        (pts
          (xy 6.858 -1.27)
          (xy 6.858 -0.254)
        )
        (stroke (width 0) (type default) (color 0 0 0 0))
        (fill (type none))
      )
      (polyline
        (pts
          (xy 6.858 -0.254)
          (xy 8.382 -0.254)
        )
        (stroke (width 0) (type default) (color 0 0 0 0))
        (fill (type none))
      )
      (polyline
        (pts
          (xy 8.382 -0.254)
          (xy 8.382 -1.016)
        )
        (stroke (width 0) (type default) (color 0 0 0 0))
        (fill (type none))
      )
      (polyline
        (pts
          (xy 9.906 -2.54)
          (xy 12.446 -2.54)
        )
        (stroke (width 0) (type default) (color 0 0 0 0))
        (fill (type none))
      )
      (polyline
        (pts
          (xy 12.7 0)
          (xy 12.7 -5.08)
        )
        (stroke (width 0) (type default) (color 0 0 0 0))
        (fill (type none))
      )
      (circle (center 5.842 -2.54) (radius 0.508)
        (stroke (width 0) (type default) (color 0 0 0 0))
        (fill (type none))
      )
      (circle (center 9.398 -2.54) (radius 0.508)
        (stroke (width 0) (type default) (color 0 0 0 0))
        (fill (type none))
      )
      (pin unspecified line (at 0 0 0) (length 2.54)
        (name "1" (effects (font (size 0 0))))
        (number "1" (effects (font (size 1.016 1.016))))
      )
      (pin unspecified line (at 0 -5.08 0) (length 2.54)
        (name "2" (effects (font (size 0 0))))
        (number "2" (effects (font (size 1.016 1.016))))
      )
      (pin unspecified line (at 15.24 0 180) (length 2.54)
        (name "3" (effects (font (size 0 0))))
        (number "3" (effects (font (size 1.016 1.016))))
      )
      (pin unspecified line (at 15.24 -5.08 180) (length 2.54)
        (name "4" (effects (font (size 0 0))))
        (number "4" (effects (font (size 1.016 1.016))))
      )
    )
  )
)
