(kicad_symbol_lib (version 20211014) (generator kicad_symbol_editor)
  (symbol "UPD350A{brace}slash}Q8X" (pin_names (offset 0.254)) (in_bom yes) (on_board yes)
    (property "Reference" "U" (id 0) (at 38.1 10.16 0)
      (effects (font (size 1.524 1.524)))
    )
    (property "Value" "UPD350A{brace}slash}Q8X" (id 1) (at 38.1 7.62 0)
      (effects (font (size 1.524 1.524)))
    )
    (property "Footprint" "QFN28_MK_MCH" (id 2) (at 38.1 6.096 0)
      (effects (font (size 1.524 1.524)) hide)
    )
    (property "Datasheet" "" (id 3) (at 0 0 0)
      (effects (font (size 1.524 1.524)))
    )
    (property "ki_locked" "" (id 4) (at 0 0 0)
      (effects (font (size 1.27 1.27)))
    )
    (property "ki_fp_filters" "QFN28_MK_MCH QFN28_MK_MCH-M QFN28_MK_MCH-L" (id 5) (at 0 0 0)
      (effects (font (size 1.27 1.27)) hide)
    )
    (symbol "UPD350A{brace}slash}Q8X_1_1"
      (polyline
        (pts
          (xy 7.62 -40.64)
          (xy 68.58 -40.64)
        )
        (stroke (width 0.127) (type default) (color 0 0 0 0))
        (fill (type none))
      )
      (polyline
        (pts
          (xy 7.62 5.08)
          (xy 7.62 -40.64)
        )
        (stroke (width 0.127) (type default) (color 0 0 0 0))
        (fill (type none))
      )
      (polyline
        (pts
          (xy 68.58 -40.64)
          (xy 68.58 5.08)
        )
        (stroke (width 0.127) (type default) (color 0 0 0 0))
        (fill (type none))
      )
      (polyline
        (pts
          (xy 68.58 5.08)
          (xy 7.62 5.08)
        )
        (stroke (width 0.127) (type default) (color 0 0 0 0))
        (fill (type none))
      )
      (pin unspecified line (at 0 0 0) (length 7.62)
        (name "CC2" (effects (font (size 1.4986 1.4986))))
        (number "1" (effects (font (size 1.4986 1.4986))))
      )
      (pin power_in line (at 0 -22.86 0) (length 7.62)
        (name "3V3_VBUS" (effects (font (size 1.4986 1.4986))))
        (number "10" (effects (font (size 1.4986 1.4986))))
      )
      (pin power_in line (at 0 -25.4 0) (length 7.62)
        (name "VDD18_CAP" (effects (font (size 1.4986 1.4986))))
        (number "11" (effects (font (size 1.4986 1.4986))))
      )
      (pin power_in line (at 0 -27.94 0) (length 7.62)
        (name "VDD33IO" (effects (font (size 1.4986 1.4986))))
        (number "12" (effects (font (size 1.4986 1.4986))))
      )
      (pin bidirectional line (at 0 -30.48 0) (length 7.62)
        (name "I2C_DAT" (effects (font (size 1.4986 1.4986))))
        (number "13" (effects (font (size 1.4986 1.4986))))
      )
      (pin power_in line (at 0 -33.02 0) (length 7.62)
        (name "VDD_I2C" (effects (font (size 1.4986 1.4986))))
        (number "14" (effects (font (size 1.4986 1.4986))))
      )
      (pin bidirectional line (at 76.2 -35.56 180) (length 7.62)
        (name "I2C_CLK" (effects (font (size 1.4986 1.4986))))
        (number "15" (effects (font (size 1.4986 1.4986))))
      )
      (pin bidirectional line (at 76.2 -33.02 180) (length 7.62)
        (name "GPIO0" (effects (font (size 1.4986 1.4986))))
        (number "16" (effects (font (size 1.4986 1.4986))))
      )
      (pin bidirectional line (at 76.2 -30.48 180) (length 7.62)
        (name "GPIO1" (effects (font (size 1.4986 1.4986))))
        (number "17" (effects (font (size 1.4986 1.4986))))
      )
      (pin bidirectional line (at 76.2 -27.94 180) (length 7.62)
        (name "OCS_COMP2/GPIO2" (effects (font (size 1.4986 1.4986))))
        (number "18" (effects (font (size 1.4986 1.4986))))
      )
      (pin bidirectional line (at 76.2 -25.4 180) (length 7.62)
        (name "GPIO3" (effects (font (size 1.4986 1.4986))))
        (number "19" (effects (font (size 1.4986 1.4986))))
      )
      (pin power_in line (at 0 -2.54 0) (length 7.62)
        (name "VS" (effects (font (size 1.4986 1.4986))))
        (number "2" (effects (font (size 1.4986 1.4986))))
      )
      (pin power_in line (at 76.2 -22.86 180) (length 7.62)
        (name "VDD18" (effects (font (size 1.4986 1.4986))))
        (number "20" (effects (font (size 1.4986 1.4986))))
      )
      (pin unspecified line (at 76.2 -20.32 180) (length 7.62)
        (name "IRQ_N" (effects (font (size 1.4986 1.4986))))
        (number "21" (effects (font (size 1.4986 1.4986))))
      )
      (pin input line (at 76.2 -17.78 180) (length 7.62)
        (name "RESET_N" (effects (font (size 1.4986 1.4986))))
        (number "22" (effects (font (size 1.4986 1.4986))))
      )
      (pin bidirectional line (at 76.2 -15.24 180) (length 7.62)
        (name "GPO4" (effects (font (size 1.4986 1.4986))))
        (number "23" (effects (font (size 1.4986 1.4986))))
      )
      (pin bidirectional line (at 76.2 -12.7 180) (length 7.62)
        (name "GPIO5" (effects (font (size 1.4986 1.4986))))
        (number "24" (effects (font (size 1.4986 1.4986))))
      )
      (pin bidirectional line (at 76.2 -10.16 180) (length 7.62)
        (name "GPIO6" (effects (font (size 1.4986 1.4986))))
        (number "25" (effects (font (size 1.4986 1.4986))))
      )
      (pin bidirectional line (at 76.2 -7.62 180) (length 7.62)
        (name "GPIO7" (effects (font (size 1.4986 1.4986))))
        (number "26" (effects (font (size 1.4986 1.4986))))
      )
      (pin bidirectional line (at 76.2 -5.08 180) (length 7.62)
        (name "GPIO8" (effects (font (size 1.4986 1.4986))))
        (number "27" (effects (font (size 1.4986 1.4986))))
      )
      (pin bidirectional line (at 76.2 -2.54 180) (length 7.62)
        (name "HPD/GPIO9" (effects (font (size 1.4986 1.4986))))
        (number "28" (effects (font (size 1.4986 1.4986))))
      )
      (pin power_in line (at 76.2 0 180) (length 7.62)
        (name "VSS" (effects (font (size 1.4986 1.4986))))
        (number "29" (effects (font (size 1.4986 1.4986))))
      )
      (pin unspecified line (at 0 -5.08 0) (length 7.62)
        (name "CC1" (effects (font (size 1.4986 1.4986))))
        (number "3" (effects (font (size 1.4986 1.4986))))
      )
      (pin unspecified line (at 0 -7.62 0) (length 7.62)
        (name "VBUS_DET" (effects (font (size 1.4986 1.4986))))
        (number "4" (effects (font (size 1.4986 1.4986))))
      )
      (pin unspecified line (at 0 -10.16 0) (length 7.62)
        (name "CFG_SEL" (effects (font (size 1.4986 1.4986))))
        (number "5" (effects (font (size 1.4986 1.4986))))
      )
      (pin unspecified line (at 0 -12.7 0) (length 7.62)
        (name "OCS_COMP1" (effects (font (size 1.4986 1.4986))))
        (number "6" (effects (font (size 1.4986 1.4986))))
      )
      (pin unspecified line (at 0 -15.24 0) (length 7.62)
        (name "PWR_DN" (effects (font (size 1.4986 1.4986))))
        (number "7" (effects (font (size 1.4986 1.4986))))
      )
      (pin power_in line (at 0 -17.78 0) (length 7.62)
        (name "3V3_ALW" (effects (font (size 1.4986 1.4986))))
        (number "8" (effects (font (size 1.4986 1.4986))))
      )
      (pin power_in line (at 0 -20.32 0) (length 7.62)
        (name "VSW" (effects (font (size 1.4986 1.4986))))
        (number "9" (effects (font (size 1.4986 1.4986))))
      )
    )
  )
)
