(kicad_symbol_lib (version 20211014) (generator kicad_symbol_editor)
  (symbol "USB7050_KDX" (pin_names (offset 0.762)) (in_bom yes) (on_board yes)
    (property "Reference" "IC" (id 0) (at 74.93 38.1 0)
      (effects (font (size 1.27 1.27)) (justify left))
    )
    (property "Value" "USB7050_KDX" (id 1) (at 74.93 35.56 0)
      (effects (font (size 1.27 1.27)) (justify left))
    )
    (property "Footprint" "QFN40P1200X1200X90-101N-D" (id 2) (at 74.93 33.02 0)
      (effects (font (size 1.27 1.27)) (justify left) hide)
    )
    (property "Datasheet" "" (id 3) (at 74.93 30.48 0)
      (effects (font (size 1.27 1.27)) (justify left) hide)
    )
    (property "Description" "USB Interface IC 4 Port USB3.1 Gen1 - PD upstream, PD Type-Cs and TypeAs downstream ports" (id 4) (at 74.93 27.94 0)
      (effects (font (size 1.27 1.27)) (justify left) hide)
    )
    (property "Height" "0.9" (id 5) (at 74.93 25.4 0)
      (effects (font (size 1.27 1.27)) (justify left) hide)
    )
    (property "Mouser Part Number" "579-USB7050/KDX" (id 6) (at 74.93 22.86 0)
      (effects (font (size 1.27 1.27)) (justify left) hide)
    )
    (property "Mouser Price/Stock" "https://www.mouser.co.uk/ProductDetail/Microchip-Technology/USB7050-KDX?qs=T3oQrply3y9BWkWijOylnw%3D%3D" (id 7) (at 74.93 20.32 0)
      (effects (font (size 1.27 1.27)) (justify left) hide)
    )
    (property "Manufacturer_Name" "Microchip" (id 8) (at 74.93 17.78 0)
      (effects (font (size 1.27 1.27)) (justify left) hide)
    )
    (property "Manufacturer_Part_Number" "USB7050/KDX" (id 9) (at 74.93 15.24 0)
      (effects (font (size 1.27 1.27)) (justify left) hide)
    )
    (property "ki_description" "USB Interface IC 4 Port USB3.1 Gen1 - PD upstream, PD Type-Cs and TypeAs downstream ports" (id 10) (at 0 0 0)
      (effects (font (size 1.27 1.27)) hide)
    )
    (symbol "USB7050_KDX_0_0"
      (pin passive line (at 0 0 0) (length 5.08)
        (name "RESET_N" (effects (font (size 1.27 1.27))))
        (number "1" (effects (font (size 1.27 1.27))))
      )
      (pin passive line (at 0 -22.86 0) (length 5.08)
        (name "USB3DN_RXDP1A" (effects (font (size 1.27 1.27))))
        (number "10" (effects (font (size 1.27 1.27))))
      )
      (pin passive line (at 10.16 38.1 270) (length 5.08)
        (name "RBIAS" (effects (font (size 1.27 1.27))))
        (number "100" (effects (font (size 1.27 1.27))))
      )
      (pin passive line (at 7.62 38.1 270) (length 5.08)
        (name "EP" (effects (font (size 1.27 1.27))))
        (number "101" (effects (font (size 1.27 1.27))))
      )
      (pin passive line (at 0 -25.4 0) (length 5.08)
        (name "USB3DN_RXDM1A" (effects (font (size 1.27 1.27))))
        (number "11" (effects (font (size 1.27 1.27))))
      )
      (pin passive line (at 0 -27.94 0) (length 5.08)
        (name "NC_2" (effects (font (size 1.27 1.27))))
        (number "12" (effects (font (size 1.27 1.27))))
      )
      (pin passive line (at 0 -30.48 0) (length 5.08)
        (name "NC_3" (effects (font (size 1.27 1.27))))
        (number "13" (effects (font (size 1.27 1.27))))
      )
      (pin passive line (at 0 -33.02 0) (length 5.08)
        (name "USB2DN_DP4/PRT_DIS_P4" (effects (font (size 1.27 1.27))))
        (number "14" (effects (font (size 1.27 1.27))))
      )
      (pin passive line (at 0 -35.56 0) (length 5.08)
        (name "USB2DN_DM4/PRT_DIS_M4" (effects (font (size 1.27 1.27))))
        (number "15" (effects (font (size 1.27 1.27))))
      )
      (pin passive line (at 0 -38.1 0) (length 5.08)
        (name "USB3DN_TXDP1B" (effects (font (size 1.27 1.27))))
        (number "16" (effects (font (size 1.27 1.27))))
      )
      (pin passive line (at 0 -40.64 0) (length 5.08)
        (name "USB3DN_TXDM1B" (effects (font (size 1.27 1.27))))
        (number "17" (effects (font (size 1.27 1.27))))
      )
      (pin passive line (at 0 -43.18 0) (length 5.08)
        (name "VDD12_2" (effects (font (size 1.27 1.27))))
        (number "18" (effects (font (size 1.27 1.27))))
      )
      (pin passive line (at 0 -45.72 0) (length 5.08)
        (name "USB3DN_RXDP1B" (effects (font (size 1.27 1.27))))
        (number "19" (effects (font (size 1.27 1.27))))
      )
      (pin passive line (at 0 -2.54 0) (length 5.08)
        (name "PF30/VBUS_DET" (effects (font (size 1.27 1.27))))
        (number "2" (effects (font (size 1.27 1.27))))
      )
      (pin passive line (at 0 -48.26 0) (length 5.08)
        (name "USB3DN_RXDM1B" (effects (font (size 1.27 1.27))))
        (number "20" (effects (font (size 1.27 1.27))))
      )
      (pin passive line (at 0 -50.8 0) (length 5.08)
        (name "CFG_STRAP1" (effects (font (size 1.27 1.27))))
        (number "21" (effects (font (size 1.27 1.27))))
      )
      (pin passive line (at 0 -53.34 0) (length 5.08)
        (name "CFG_STRAP2" (effects (font (size 1.27 1.27))))
        (number "22" (effects (font (size 1.27 1.27))))
      )
      (pin passive line (at 0 -55.88 0) (length 5.08)
        (name "CFG_STRAP3" (effects (font (size 1.27 1.27))))
        (number "23" (effects (font (size 1.27 1.27))))
      )
      (pin passive line (at 0 -58.42 0) (length 5.08)
        (name "TESTEN" (effects (font (size 1.27 1.27))))
        (number "24" (effects (font (size 1.27 1.27))))
      )
      (pin passive line (at 0 -60.96 0) (length 5.08)
        (name "VDD12_3" (effects (font (size 1.27 1.27))))
        (number "25" (effects (font (size 1.27 1.27))))
      )
      (pin passive line (at 7.62 -99.06 90) (length 5.08)
        (name "VDD33_1" (effects (font (size 1.27 1.27))))
        (number "26" (effects (font (size 1.27 1.27))))
      )
      (pin passive line (at 10.16 -99.06 90) (length 5.08)
        (name "NC_4" (effects (font (size 1.27 1.27))))
        (number "27" (effects (font (size 1.27 1.27))))
      )
      (pin passive line (at 12.7 -99.06 90) (length 5.08)
        (name "NC_5" (effects (font (size 1.27 1.27))))
        (number "28" (effects (font (size 1.27 1.27))))
      )
      (pin passive line (at 15.24 -99.06 90) (length 5.08)
        (name "USB2DN_DP2/PRT_DIS_P2" (effects (font (size 1.27 1.27))))
        (number "29" (effects (font (size 1.27 1.27))))
      )
      (pin passive line (at 0 -5.08 0) (length 5.08)
        (name "PF31" (effects (font (size 1.27 1.27))))
        (number "3" (effects (font (size 1.27 1.27))))
      )
      (pin passive line (at 17.78 -99.06 90) (length 5.08)
        (name "USB2DN_DM2/PRT_DIS_M2" (effects (font (size 1.27 1.27))))
        (number "30" (effects (font (size 1.27 1.27))))
      )
      (pin passive line (at 20.32 -99.06 90) (length 5.08)
        (name "USB3DN_TXDP2A" (effects (font (size 1.27 1.27))))
        (number "31" (effects (font (size 1.27 1.27))))
      )
      (pin passive line (at 22.86 -99.06 90) (length 5.08)
        (name "USB3DN_TXDM2A" (effects (font (size 1.27 1.27))))
        (number "32" (effects (font (size 1.27 1.27))))
      )
      (pin passive line (at 25.4 -99.06 90) (length 5.08)
        (name "VDD12_4" (effects (font (size 1.27 1.27))))
        (number "33" (effects (font (size 1.27 1.27))))
      )
      (pin passive line (at 27.94 -99.06 90) (length 5.08)
        (name "USB3DN_RXDP2A" (effects (font (size 1.27 1.27))))
        (number "34" (effects (font (size 1.27 1.27))))
      )
      (pin passive line (at 30.48 -99.06 90) (length 5.08)
        (name "USB3DN_RXDM2A" (effects (font (size 1.27 1.27))))
        (number "35" (effects (font (size 1.27 1.27))))
      )
      (pin passive line (at 33.02 -99.06 90) (length 5.08)
        (name "NC_6" (effects (font (size 1.27 1.27))))
        (number "36" (effects (font (size 1.27 1.27))))
      )
      (pin passive line (at 35.56 -99.06 90) (length 5.08)
        (name "USB3DN_TXDP2B" (effects (font (size 1.27 1.27))))
        (number "37" (effects (font (size 1.27 1.27))))
      )
      (pin passive line (at 38.1 -99.06 90) (length 5.08)
        (name "USB3DN_TXDM2B" (effects (font (size 1.27 1.27))))
        (number "38" (effects (font (size 1.27 1.27))))
      )
      (pin passive line (at 40.64 -99.06 90) (length 5.08)
        (name "VDD12_5" (effects (font (size 1.27 1.27))))
        (number "39" (effects (font (size 1.27 1.27))))
      )
      (pin passive line (at 0 -7.62 0) (length 5.08)
        (name "NC_1" (effects (font (size 1.27 1.27))))
        (number "4" (effects (font (size 1.27 1.27))))
      )
      (pin passive line (at 43.18 -99.06 90) (length 5.08)
        (name "USB3DN_RXDP2B" (effects (font (size 1.27 1.27))))
        (number "40" (effects (font (size 1.27 1.27))))
      )
      (pin passive line (at 45.72 -99.06 90) (length 5.08)
        (name "USB3DN_RXDM2B" (effects (font (size 1.27 1.27))))
        (number "41" (effects (font (size 1.27 1.27))))
      )
      (pin passive line (at 48.26 -99.06 90) (length 5.08)
        (name "VDD33_2" (effects (font (size 1.27 1.27))))
        (number "42" (effects (font (size 1.27 1.27))))
      )
      (pin passive line (at 50.8 -99.06 90) (length 5.08)
        (name "PF2" (effects (font (size 1.27 1.27))))
        (number "43" (effects (font (size 1.27 1.27))))
      )
      (pin passive line (at 53.34 -99.06 90) (length 5.08)
        (name "PF3" (effects (font (size 1.27 1.27))))
        (number "44" (effects (font (size 1.27 1.27))))
      )
      (pin passive line (at 55.88 -99.06 90) (length 5.08)
        (name "PF4" (effects (font (size 1.27 1.27))))
        (number "45" (effects (font (size 1.27 1.27))))
      )
      (pin passive line (at 58.42 -99.06 90) (length 5.08)
        (name "PF5" (effects (font (size 1.27 1.27))))
        (number "46" (effects (font (size 1.27 1.27))))
      )
      (pin passive line (at 60.96 -99.06 90) (length 5.08)
        (name "PF6" (effects (font (size 1.27 1.27))))
        (number "47" (effects (font (size 1.27 1.27))))
      )
      (pin passive line (at 63.5 -99.06 90) (length 5.08)
        (name "PF7" (effects (font (size 1.27 1.27))))
        (number "48" (effects (font (size 1.27 1.27))))
      )
      (pin passive line (at 66.04 -99.06 90) (length 5.08)
        (name "PF8" (effects (font (size 1.27 1.27))))
        (number "49" (effects (font (size 1.27 1.27))))
      )
      (pin passive line (at 0 -10.16 0) (length 5.08)
        (name "USB2DN_DP1/PRT_DIS_P1" (effects (font (size 1.27 1.27))))
        (number "5" (effects (font (size 1.27 1.27))))
      )
      (pin passive line (at 68.58 -99.06 90) (length 5.08)
        (name "PF9" (effects (font (size 1.27 1.27))))
        (number "50" (effects (font (size 1.27 1.27))))
      )
      (pin passive line (at 78.74 -60.96 180) (length 5.08)
        (name "PF10" (effects (font (size 1.27 1.27))))
        (number "51" (effects (font (size 1.27 1.27))))
      )
      (pin passive line (at 78.74 -58.42 180) (length 5.08)
        (name "PF11" (effects (font (size 1.27 1.27))))
        (number "52" (effects (font (size 1.27 1.27))))
      )
      (pin passive line (at 78.74 -55.88 180) (length 5.08)
        (name "VDD33_3" (effects (font (size 1.27 1.27))))
        (number "53" (effects (font (size 1.27 1.27))))
      )
      (pin passive line (at 78.74 -53.34 180) (length 5.08)
        (name "PF12" (effects (font (size 1.27 1.27))))
        (number "54" (effects (font (size 1.27 1.27))))
      )
      (pin passive line (at 78.74 -50.8 180) (length 5.08)
        (name "VDD12_6" (effects (font (size 1.27 1.27))))
        (number "55" (effects (font (size 1.27 1.27))))
      )
      (pin passive line (at 78.74 -48.26 180) (length 5.08)
        (name "PF13" (effects (font (size 1.27 1.27))))
        (number "56" (effects (font (size 1.27 1.27))))
      )
      (pin passive line (at 78.74 -45.72 180) (length 5.08)
        (name "PF14" (effects (font (size 1.27 1.27))))
        (number "57" (effects (font (size 1.27 1.27))))
      )
      (pin passive line (at 78.74 -43.18 180) (length 5.08)
        (name "PF15" (effects (font (size 1.27 1.27))))
        (number "58" (effects (font (size 1.27 1.27))))
      )
      (pin passive line (at 78.74 -40.64 180) (length 5.08)
        (name "PF16" (effects (font (size 1.27 1.27))))
        (number "59" (effects (font (size 1.27 1.27))))
      )
      (pin passive line (at 0 -12.7 0) (length 5.08)
        (name "USB2DN_DM1/PRT_DIS_M1" (effects (font (size 1.27 1.27))))
        (number "6" (effects (font (size 1.27 1.27))))
      )
      (pin passive line (at 78.74 -38.1 180) (length 5.08)
        (name "PF17" (effects (font (size 1.27 1.27))))
        (number "60" (effects (font (size 1.27 1.27))))
      )
      (pin passive line (at 78.74 -35.56 180) (length 5.08)
        (name "PF18" (effects (font (size 1.27 1.27))))
        (number "61" (effects (font (size 1.27 1.27))))
      )
      (pin passive line (at 78.74 -33.02 180) (length 5.08)
        (name "VDD33_4" (effects (font (size 1.27 1.27))))
        (number "62" (effects (font (size 1.27 1.27))))
      )
      (pin passive line (at 78.74 -30.48 180) (length 5.08)
        (name "TEST1" (effects (font (size 1.27 1.27))))
        (number "63" (effects (font (size 1.27 1.27))))
      )
      (pin passive line (at 78.74 -27.94 180) (length 5.08)
        (name "TEST2" (effects (font (size 1.27 1.27))))
        (number "64" (effects (font (size 1.27 1.27))))
      )
      (pin passive line (at 78.74 -25.4 180) (length 5.08)
        (name "TEST3" (effects (font (size 1.27 1.27))))
        (number "65" (effects (font (size 1.27 1.27))))
      )
      (pin passive line (at 78.74 -22.86 180) (length 5.08)
        (name "PF19" (effects (font (size 1.27 1.27))))
        (number "66" (effects (font (size 1.27 1.27))))
      )
      (pin passive line (at 78.74 -20.32 180) (length 5.08)
        (name "VDD33_5" (effects (font (size 1.27 1.27))))
        (number "67" (effects (font (size 1.27 1.27))))
      )
      (pin passive line (at 78.74 -17.78 180) (length 5.08)
        (name "PF21" (effects (font (size 1.27 1.27))))
        (number "68" (effects (font (size 1.27 1.27))))
      )
      (pin passive line (at 78.74 -15.24 180) (length 5.08)
        (name "PF20/CFG_NON_REM" (effects (font (size 1.27 1.27))))
        (number "69" (effects (font (size 1.27 1.27))))
      )
      (pin passive line (at 0 -15.24 0) (length 5.08)
        (name "USB3DN_TXDP1A" (effects (font (size 1.27 1.27))))
        (number "7" (effects (font (size 1.27 1.27))))
      )
      (pin passive line (at 78.74 -12.7 180) (length 5.08)
        (name "PF22/CFG_BC_EN" (effects (font (size 1.27 1.27))))
        (number "70" (effects (font (size 1.27 1.27))))
      )
      (pin passive line (at 78.74 -10.16 180) (length 5.08)
        (name "PF23" (effects (font (size 1.27 1.27))))
        (number "71" (effects (font (size 1.27 1.27))))
      )
      (pin passive line (at 78.74 -7.62 180) (length 5.08)
        (name "PF24" (effects (font (size 1.27 1.27))))
        (number "72" (effects (font (size 1.27 1.27))))
      )
      (pin passive line (at 78.74 -5.08 180) (length 5.08)
        (name "PF25" (effects (font (size 1.27 1.27))))
        (number "73" (effects (font (size 1.27 1.27))))
      )
      (pin passive line (at 78.74 -2.54 180) (length 5.08)
        (name "PF29" (effects (font (size 1.27 1.27))))
        (number "74" (effects (font (size 1.27 1.27))))
      )
      (pin passive line (at 78.74 0 180) (length 5.08)
        (name "PF26" (effects (font (size 1.27 1.27))))
        (number "75" (effects (font (size 1.27 1.27))))
      )
      (pin passive line (at 71.12 38.1 270) (length 5.08)
        (name "PF27" (effects (font (size 1.27 1.27))))
        (number "76" (effects (font (size 1.27 1.27))))
      )
      (pin passive line (at 68.58 38.1 270) (length 5.08)
        (name "PF28" (effects (font (size 1.27 1.27))))
        (number "77" (effects (font (size 1.27 1.27))))
      )
      (pin passive line (at 66.04 38.1 270) (length 5.08)
        (name "VDD12_7" (effects (font (size 1.27 1.27))))
        (number "78" (effects (font (size 1.27 1.27))))
      )
      (pin passive line (at 63.5 38.1 270) (length 5.08)
        (name "VDD33_6" (effects (font (size 1.27 1.27))))
        (number "79" (effects (font (size 1.27 1.27))))
      )
      (pin passive line (at 0 -17.78 0) (length 5.08)
        (name "USB3DN_TXDM1A" (effects (font (size 1.27 1.27))))
        (number "8" (effects (font (size 1.27 1.27))))
      )
      (pin passive line (at 60.96 38.1 270) (length 5.08)
        (name "VBUS_MON_UP" (effects (font (size 1.27 1.27))))
        (number "80" (effects (font (size 1.27 1.27))))
      )
      (pin passive line (at 58.42 38.1 270) (length 5.08)
        (name "USB2DN_DP3/PRT_DIS_P3" (effects (font (size 1.27 1.27))))
        (number "81" (effects (font (size 1.27 1.27))))
      )
      (pin passive line (at 55.88 38.1 270) (length 5.08)
        (name "USB2DN_DM3/PRT_DIS_M3" (effects (font (size 1.27 1.27))))
        (number "82" (effects (font (size 1.27 1.27))))
      )
      (pin passive line (at 53.34 38.1 270) (length 5.08)
        (name "USB3DN_TXDP3" (effects (font (size 1.27 1.27))))
        (number "83" (effects (font (size 1.27 1.27))))
      )
      (pin passive line (at 50.8 38.1 270) (length 5.08)
        (name "USB3DN_TXDM3" (effects (font (size 1.27 1.27))))
        (number "84" (effects (font (size 1.27 1.27))))
      )
      (pin passive line (at 48.26 38.1 270) (length 5.08)
        (name "VDD12_8" (effects (font (size 1.27 1.27))))
        (number "85" (effects (font (size 1.27 1.27))))
      )
      (pin passive line (at 45.72 38.1 270) (length 5.08)
        (name "USB3DN_RXDP3" (effects (font (size 1.27 1.27))))
        (number "86" (effects (font (size 1.27 1.27))))
      )
      (pin passive line (at 43.18 38.1 270) (length 5.08)
        (name "USB3DN_RXDM3" (effects (font (size 1.27 1.27))))
        (number "87" (effects (font (size 1.27 1.27))))
      )
      (pin passive line (at 40.64 38.1 270) (length 5.08)
        (name "VDD33_7" (effects (font (size 1.27 1.27))))
        (number "88" (effects (font (size 1.27 1.27))))
      )
      (pin passive line (at 38.1 38.1 270) (length 5.08)
        (name "USB2UP_DP" (effects (font (size 1.27 1.27))))
        (number "89" (effects (font (size 1.27 1.27))))
      )
      (pin passive line (at 0 -20.32 0) (length 5.08)
        (name "VDD12_1" (effects (font (size 1.27 1.27))))
        (number "9" (effects (font (size 1.27 1.27))))
      )
      (pin passive line (at 35.56 38.1 270) (length 5.08)
        (name "USB2UP_DM" (effects (font (size 1.27 1.27))))
        (number "90" (effects (font (size 1.27 1.27))))
      )
      (pin passive line (at 33.02 38.1 270) (length 5.08)
        (name "USB3UP_TXDP" (effects (font (size 1.27 1.27))))
        (number "91" (effects (font (size 1.27 1.27))))
      )
      (pin passive line (at 30.48 38.1 270) (length 5.08)
        (name "USB3UP_TXDM" (effects (font (size 1.27 1.27))))
        (number "92" (effects (font (size 1.27 1.27))))
      )
      (pin passive line (at 27.94 38.1 270) (length 5.08)
        (name "VDD12_9" (effects (font (size 1.27 1.27))))
        (number "93" (effects (font (size 1.27 1.27))))
      )
      (pin passive line (at 25.4 38.1 270) (length 5.08)
        (name "USB3UP_RXDP" (effects (font (size 1.27 1.27))))
        (number "94" (effects (font (size 1.27 1.27))))
      )
      (pin passive line (at 22.86 38.1 270) (length 5.08)
        (name "USB3UP_RXDM" (effects (font (size 1.27 1.27))))
        (number "95" (effects (font (size 1.27 1.27))))
      )
      (pin passive line (at 20.32 38.1 270) (length 5.08)
        (name "ATEST" (effects (font (size 1.27 1.27))))
        (number "96" (effects (font (size 1.27 1.27))))
      )
      (pin passive line (at 17.78 38.1 270) (length 5.08)
        (name "XTALO" (effects (font (size 1.27 1.27))))
        (number "97" (effects (font (size 1.27 1.27))))
      )
      (pin passive line (at 15.24 38.1 270) (length 5.08)
        (name "XTALI/CLK_IN" (effects (font (size 1.27 1.27))))
        (number "98" (effects (font (size 1.27 1.27))))
      )
      (pin passive line (at 12.7 38.1 270) (length 5.08)
        (name "VDD33_8" (effects (font (size 1.27 1.27))))
        (number "99" (effects (font (size 1.27 1.27))))
      )
    )
    (symbol "USB7050_KDX_0_1"
      (polyline
        (pts
          (xy 5.08 33.02)
          (xy 73.66 33.02)
          (xy 73.66 -93.98)
          (xy 5.08 -93.98)
          (xy 5.08 33.02)
        )
        (stroke (width 0.1524) (type default) (color 0 0 0 0))
        (fill (type none))
      )
    )
  )
)
