(footprint "UPD350B-I&slash_Q8X" (version 20211014) (generator pcbnew)
  (layer "F.Cu")
  (tedit 0)
  (attr through_hole)
  (fp_text reference "REF**" (at 0 -3.5) (layer "F.SilkS")
    (effects (font (size 1 1) (thickness 0.15)))
    (tstamp 5dc571aa-5261-4927-b7de-d30899da0a37)
  )
  (fp_text value "QFN28_MK_MCH" (at 0 3.5) (layer "F.SilkS")
    (effects (font (size 1 1) (thickness 0.15)))
    (tstamp 9ca26ad3-0c98-4277-90dd-817aea63d8da)
  )
  (fp_text user "*" (at -2.5 -2.5) (layer "F.SilkS")
    (effects (font (size 1 1) (thickness 0.15)))
    (tstamp c5c129e7-96fd-4b59-b683-ec1235d03bbe)
  )
  (fp_text user "*" (at -2.5 -2.5) (layer "F.SilkS")
    (effects (font (size 1 1) (thickness 0.15)))
    (tstamp ef570239-5c28-4722-a3c1-1a485abb55af)
  )
  (fp_text user "Copyright 2021 Accelerated Designs. All rights reserved." (at 0 0) (layer "Cmts.User")
    (effects (font (size 0.127 0.127) (thickness 0.002)))
    (tstamp 45db8c9e-a0e3-476a-b5cd-09db8417749a)
  )
  (fp_text user "*" (at -1.4859 -1.4) (layer "F.Fab")
    (effects (font (size 1 1) (thickness 0.15)))
    (tstamp 89e8e38b-1814-4a94-b2b1-186a4ac6463d)
  )
  (fp_text user "*" (at -1.4859 -1.4) (layer "F.Fab")
    (effects (font (size 1 1) (thickness 0.15)))
    (tstamp e75b3298-ad79-4703-a714-162b72c7a4ab)
  )
  (fp_poly (pts
      (xy 0.1 0.1)
      (xy 0.1 1.2462)
      (xy 1.2462 1.2462)
      (xy 1.2462 0.1)
    ) (layer "F.Paste") (width 0.1) (fill solid) (tstamp 4549c738-38bf-4275-b6f6-e63d9d4e04c2))
  (fp_poly (pts
      (xy 0.1 -1.2462)
      (xy 0.1 -0.1)
      (xy 1.2462 -0.1)
      (xy 1.2462 -1.2462)
    ) (layer "F.Paste") (width 0.1) (fill solid) (tstamp 95d9c35b-3a25-4624-b5e0-ce79c1472629))
  (fp_poly (pts
      (xy -1.2462 -1.2462)
      (xy -1.2462 -0.1)
      (xy -0.1 -0.1)
      (xy -0.1 -1.2462)
    ) (layer "F.Paste") (width 0.1) (fill solid) (tstamp 9c9e2329-1dcb-4ed1-9ac2-9e261af2fbc2))
  (fp_poly (pts
      (xy -1.2462 0.1)
      (xy -1.2462 1.2462)
      (xy -0.1 1.2462)
      (xy -0.1 0.1)
    ) (layer "F.Paste") (width 0.1) (fill solid) (tstamp a30c23e2-ca2d-4027-afab-bf2418c89490))
  (fp_line (start 2.1209 -2.1209) (end 1.63474 -2.1209) (layer "F.SilkS") (width 0.12) (tstamp 1aa83821-0da3-4c21-ab97-04bf51fea902))
  (fp_line (start -2.1209 -2.1209) (end -2.1209 -1.63474) (layer "F.SilkS") (width 0.12) (tstamp 3362cd7b-1d22-4b76-8ce1-b29708e0fff5))
  (fp_line (start 2.1209 -1.63474) (end 2.1209 -2.1209) (layer "F.SilkS") (width 0.12) (tstamp a60f5057-42b1-406a-a079-948b9f600098))
  (fp_line (start -1.63474 -2.1209) (end -2.1209 -2.1209) (layer "F.SilkS") (width 0.12) (tstamp b7599503-bde9-446d-83d0-4df37364b27d))
  (fp_line (start 1.63474 2.1209) (end 2.1209 2.1209) (layer "F.SilkS") (width 0.12) (tstamp e30ebc9b-e6bf-41d1-8ed3-1389a03dcaf3))
  (fp_line (start -2.1209 2.1209) (end -1.63474 2.1209) (layer "F.SilkS") (width 0.12) (tstamp efd6a92a-e994-4094-aec1-bfdb9c9f1ef6))
  (fp_line (start -2.1209 1.63474) (end -2.1209 2.1209) (layer "F.SilkS") (width 0.12) (tstamp f7b4e844-2596-4e59-9ccb-78ce15a15666))
  (fp_line (start 2.1209 2.1209) (end 2.1209 1.63474) (layer "F.SilkS") (width 0.12) (tstamp fce432a7-ace2-4997-b803-548744414ea7))
  (fp_line (start -1.556 2.2479) (end -2.2479 2.2479) (layer "F.CrtYd") (width 0.05) (tstamp 03b83c15-9e2b-46a2-8349-2d22f2d9079e))
  (fp_line (start 1.556 2.2479) (end 1.556 2.547899) (layer "F.CrtYd") (width 0.05) (tstamp 07fce301-b493-4932-b87d-448a68145d84))
  (fp_line (start -2.2479 -2.2479) (end -1.556 -2.2479) (layer "F.CrtYd") (width 0.05) (tstamp 15e92bb0-243f-4d01-8882-52dbdb3f98e0))
  (fp_line (start -2.547899 1.556) (end -2.547899 -1.556) (layer "F.CrtYd") (width 0.05) (tstamp 1c0175c8-d0f1-4b97-beff-48aaebf0e427))
  (fp_line (start 2.2479 -2.2479) (end 2.2479 -1.556) (layer "F.CrtYd") (width 0.05) (tstamp 1d12a12a-4b9d-4e0c-9df0-4402ed79d8ee))
  (fp_line (start -2.2479 -1.556) (end -2.2479 -2.2479) (layer "F.CrtYd") (width 0.05) (tstamp 1d1f51f0-501d-4ca2-bb1a-2f69963cbb37))
  (fp_line (start -1.556 -2.2479) (end -1.556 -2.547899) (layer "F.CrtYd") (width 0.05) (tstamp 282c2d51-b8c9-4204-9c0b-84e7226c343a))
  (fp_line (start 1.556 2.547899) (end -1.556 2.547899) (layer "F.CrtYd") (width 0.05) (tstamp 2a30aef6-c830-4ef3-a052-584132ab1a93))
  (fp_line (start 1.556 -2.547899) (end 1.556 -2.2479) (layer "F.CrtYd") (width 0.05) (tstamp 3c5ec6ea-3cb8-426a-9d48-3398947f61d1))
  (fp_line (start 2.547899 -1.556) (end 2.547899 1.556) (layer "F.CrtYd") (width 0.05) (tstamp 3cbf68de-71d3-4258-8e6b-dd39258e1a5f))
  (fp_line (start 2.2479 1.556) (end 2.2479 2.2479) (layer "F.CrtYd") (width 0.05) (tstamp 4e870898-60cc-4fb6-b311-e552cdb5b6fe))
  (fp_line (start 2.547899 1.556) (end 2.2479 1.556) (layer "F.CrtYd") (width 0.05) (tstamp 54ceeb13-98be-494a-a476-9092bc502b42))
  (fp_line (start 1.556 2.2479) (end 1.556 2.547899) (layer "F.CrtYd") (width 0.05) (tstamp 57c81925-529f-4a45-874d-ad5a5759fe0e))
  (fp_line (start 1.556 2.547899) (end -1.556 2.547899) (layer "F.CrtYd") (width 0.05) (tstamp 5a802b0c-bb44-4ad2-b719-0d9538833003))
  (fp_line (start -2.2479 1.556) (end -2.547899 1.556) (layer "F.CrtYd") (width 0.05) (tstamp 5ab95821-6aac-492d-bb05-e0a1530ede13))
  (fp_line (start -2.2479 1.556) (end -2.547899 1.556) (layer "F.CrtYd") (width 0.05) (tstamp 5c3f35b1-8df5-46f1-88d0-f1142f24dfb6))
  (fp_line (start 2.2479 -2.2479) (end 2.2479 -1.556) (layer "F.CrtYd") (width 0.05) (tstamp 67aa296a-5843-4b08-8660-4ebd28500961))
  (fp_line (start 1.556 -2.2479) (end 2.2479 -2.2479) (layer "F.CrtYd") (width 0.05) (tstamp 6c19686b-1c22-43c0-899d-0381ca115b17))
  (fp_line (start -2.2479 2.2479) (end -2.2479 1.556) (layer "F.CrtYd") (width 0.05) (tstamp 7f0d3ae3-818a-4821-82e9-3122787f09a3))
  (fp_line (start -2.547899 -1.556) (end -2.2479 -1.556) (layer "F.CrtYd") (width 0.05) (tstamp 7ff32e59-0305-4729-9290-64445c2bba45))
  (fp_line (start -2.547899 1.556) (end -2.547899 -1.556) (layer "F.CrtYd") (width 0.05) (tstamp 890c64aa-fbbb-4085-82aa-2800da8713e3))
  (fp_line (start -1.556 -2.547899) (end 1.556 -2.547899) (layer "F.CrtYd") (width 0.05) (tstamp 9039657f-5ef7-4ef2-aa79-fe7fc14c5429))
  (fp_line (start -1.556 2.547899) (end -1.556 2.2479) (layer "F.CrtYd") (width 0.05) (tstamp 9e54d2b5-e07f-4d52-983e-75c89a313e56))
  (fp_line (start 2.547899 -1.556) (end 2.547899 1.556) (layer "F.CrtYd") (width 0.05) (tstamp 9f8b9b9a-3343-4230-a97c-e1d876f39cfb))
  (fp_line (start -2.2479 -2.2479) (end -1.556 -2.2479) (layer "F.CrtYd") (width 0.05) (tstamp a600e7a4-7581-492e-a3bc-69e5dce953f1))
  (fp_line (start -2.2479 2.2479) (end -2.2479 1.556) (layer "F.CrtYd") (width 0.05) (tstamp b237df8d-1c05-4248-9fcf-4de019b7a9d7))
  (fp_line (start 2.2479 2.2479) (end 1.556 2.2479) (layer "F.CrtYd") (width 0.05) (tstamp b457359f-b44f-47b9-badc-6a82b811d568))
  (fp_line (start -1.556 -2.547899) (end 1.556 -2.547899) (layer "F.CrtYd") (width 0.05) (tstamp b6547db8-f814-4909-9c03-8dfcafb5a386))
  (fp_line (start -1.556 2.547899) (end -1.556 2.2479) (layer "F.CrtYd") (width 0.05) (tstamp b95842ee-5d1f-4b9b-804f-0b9f9d45d2cb))
  (fp_line (start -2.547899 -1.556) (end -2.2479 -1.556) (layer "F.CrtYd") (width 0.05) (tstamp c160c7a0-bdda-4863-85b0-186649216437))
  (fp_line (start -2.2479 -1.556) (end -2.2479 -2.2479) (layer "F.CrtYd") (width 0.05) (tstamp c41a2b0e-238f-42bf-b629-992adb130542))
  (fp_line (start 1.556 -2.2479) (end 2.2479 -2.2479) (layer "F.CrtYd") (width 0.05) (tstamp cd46b61c-bcc6-46fb-8649-b5c4cf4a736e))
  (fp_line (start 2.2479 -1.556) (end 2.547899 -1.556) (layer "F.CrtYd") (width 0.05) (tstamp cd783825-1a14-4821-ba66-87de472697ab))
  (fp_line (start 2.2479 1.556) (end 2.2479 2.2479) (layer "F.CrtYd") (width 0.05) (tstamp d4aa2624-c15a-4517-be0a-890f78260382))
  (fp_line (start 2.2479 -1.556) (end 2.547899 -1.556) (layer "F.CrtYd") (width 0.05) (tstamp d844ca7f-cb40-4aa3-8833-80f9916d802b))
  (fp_line (start 2.547899 1.556) (end 2.2479 1.556) (layer "F.CrtYd") (width 0.05) (tstamp d8d65e73-b731-498c-aada-869a8f24a46d))
  (fp_line (start 1.556 -2.547899) (end 1.556 -2.2479) (layer "F.CrtYd") (width 0.05) (tstamp dd780366-301b-42f9-b450-ea9d80364a3a))
  (fp_line (start -1.556 -2.2479) (end -1.556 -2.547899) (layer "F.CrtYd") (width 0.05) (tstamp e369b4c0-ebc5-4f20-b737-baa24232d752))
  (fp_line (start 2.2479 2.2479) (end 1.556 2.2479) (layer "F.CrtYd") (width 0.05) (tstamp e6775583-3259-4cc6-9b77-877ec9be8d35))
  (fp_line (start -1.556 2.2479) (end -2.2479 2.2479) (layer "F.CrtYd") (width 0.05) (tstamp e6cb9d6e-24c9-4931-a1ad-d863b4cdfa10))
  (fp_line (start -0.527 1.9939) (end -0.273 1.9939) (layer "F.Fab") (width 0.1) (tstamp 00d13735-a619-48a5-9683-b4ed508b9f78))
  (fp_line (start 1.9939 0.927) (end 1.9939 0.927) (layer "F.Fab") (width 0.1) (tstamp 039b0b51-e41a-45d8-88e7-9c2fe126287d))
  (fp_line (start -1.9939 -0.527) (end -1.9939 -0.273) (layer "F.Fab") (width 0.1) (tstamp 0415d6b3-0bd2-4bb1-a374-7ec21c4a6c59))
  (fp_line (start -0.273 1.9939) (end -0.273 1.9939) (layer "F.Fab") (width 0.1) (tstamp 0629d7cc-ac7f-44ba-ba82-dcc9e3c4b2d3))
  (fp_line (start 1.9939 1.9939) (end 1.9939 -1.9939) (layer "F.Fab") (width 0.1) (tstamp 0c49c59a-f595-4cab-a3e5-00d67d418fba))
  (fp_line (start 1.9939 1.9939) (end 1.9939 1.9939) (layer "F.Fab") (width 0.1) (tstamp 10d01131-2386-4bce-909f-0f3ab7d882df))
  (fp_line (start 0.927 1.9939) (end 0.673 1.9939) (layer "F.Fab") (width 0.1) (tstamp 10f329f5-559e-4e32-b220-ca14941b0574))
  (fp_line (start -1.9939 0.273) (end -1.9939 0.527) (layer "F.Fab") (width 0.1) (tstamp 1361a29f-82c3-4462-9253-f65ba3def467))
  (fp_line (start 1.9939 1.073) (end 1.9939 1.073) (layer "F.Fab") (width 0.1) (tstamp 1550b8f9-4677-4262-8a8d-12fffc57863b))
  (fp_line (start -0.127 1.9939) (end -0.127 1.9939) (layer "F.Fab") (width 0.1) (tstamp 188fd62e-2c6d-4164-b6bf-60b1c9a374d6))
  (fp_line (start 0.673 1.9939) (end 0.673 1.9939) (layer "F.Fab") (width 0.1) (tstamp 1f9abde9-8380-49c6-8561-cca1b26a0ed0))
  (fp_line (start 1.327 1.9939) (end 1.327 1.9939) (layer "F.Fab") (width 0.1) (tstamp 1fd4891d-01d9-4ef4-85fb-61fe0beccc26))
  (fp_line (start 1.9939 -1.9939) (end -1.9939 -1.9939) (layer "F.Fab") (width 0.1) (tstamp 227c41e0-801c-4047-9481-cd369eadf537))
  (fp_line (start -0.673 1.9939) (end -0.673 1.9939) (layer "F.Fab") (width 0.1) (tstamp 29eb04d3-5962-463a-b57e-fedf49d41050))
  (fp_line (start -1.9939 -0.927) (end -1.9939 -0.673) (layer "F.Fab") (width 0.1) (tstamp 2bdda5ca-ffaa-4aa9-9e85-d93655882b00))
  (fp_line (start -1.9939 1.9939) (end -1.9939 1.9939) (layer "F.Fab") (width 0.1) (tstamp 2c83fab2-cb41-47e2-9f8d-fef2e9126027))
  (fp_line (start 0.127 1.9939) (end 0.127 1.9939) (layer "F.Fab") (width 0.1) (tstamp 2d2f8098-141e-4761-9d43-2f70437296dc))
  (fp_line (start 0.127 1.9939) (end -0.127 1.9939) (layer "F.Fab") (width 0.1) (tstamp 2da58c1b-9fba-4fa4-badc-50537d6dd887))
  (fp_line (start 1.9939 1.073) (end 1.9939 1.327) (layer "F.Fab") (width 0.1) (tstamp 2ea185e9-ef0d-4efe-966c-016e3d0e9933))
  (fp_line (start 1.327 -1.9939) (end 1.073 -1.9939) (layer "F.Fab") (width 0.1) (tstamp 32940fbf-3c2a-4232-85e3-8931b6bf5fc1))
  (fp_line (start -1.327 1.9939) (end -1.073 1.9939) (layer "F.Fab") (width 0.1) (tstamp 32c53f51-6805-4553-ac19-13b83b376744))
  (fp_line (start -1.9939 -0.127) (end -1.9939 -0.127) (layer "F.Fab") (width 0.1) (tstamp 353a5122-204b-4c5f-8ed9-daf76b25d2b1))
  (fp_line (start 1.327 1.9939) (end 1.073 1.9939) (layer "F.Fab") (width 0.1) (tstamp 358f7f89-60a1-4cf2-bfbc-3a9bf560d538))
  (fp_line (start 1.9939 -0.273) (end 1.9939 -0.527) (layer "F.Fab") (width 0.1) (tstamp 380805cd-dd82-438a-a4b0-519a59713b35))
  (fp_line (start 1.327 -1.9939) (end 1.327 -1.9939) (layer "F.Fab") (width 0.1) (tstamp 39f1da35-5032-4b39-9a25-abe263b38483))
  (fp_line (start -1.9939 -0.7239) (end -0.7239 -1.9939) (layer "F.Fab") (width 0.1) (tstamp 42eda175-06cb-426b-88ae-2aeb69f2fe9b))
  (fp_line (start -1.9939 -0.127) (end -1.9939 0.127) (layer "F.Fab") (width 0.1) (tstamp 43ea4844-6c91-4729-93b0-58b96b33a58e))
  (fp_line (start 0.673 -1.9939) (end 0.927 -1.9939) (layer "F.Fab") (width 0.1) (tstamp 476eeaf5-b82d-4e34-b451-9622749a4100))
  (fp_line (start 1.9939 -0.527) (end 1.9939 -0.527) (layer "F.Fab") (width 0.1) (tstamp 486dd337-2ad3-4ce7-9717-f0e2bda6a545))
  (fp_line (start 1.9939 0.273) (end 1.9939 0.273) (layer "F.Fab") (width 0.1) (tstamp 494795d8-33c3-4914-bdb1-172be1f70ef3))
  (fp_line (start 1.9939 0.673) (end 1.9939 0.927) (layer "F.Fab") (width 0.1) (tstamp 497e8bf7-1e70-429c-913a-aaeef4a7e7a3))
  (fp_line (start -1.9939 0.673) (end -1.9939 0.927) (layer "F.Fab") (width 0.1) (tstamp 49f9cf99-5a1b-40b5-9a29-9faaef2436f3))
  (fp_line (start 0.273 -1.9939) (end 0.527 -1.9939) (layer "F.Fab") (width 0.1) (tstamp 4c17d906-759f-4180-a608-0697127f36fa))
  (fp_line (start 1.9939 -0.673) (end 1.9939 -0.927) (layer "F.Fab") (width 0.1) (tstamp 5066c9b5-55b7-46a2-84e6-64961c77cb6e))
  (fp_line (start -1.073 1.9939) (end -1.073 1.9939) (layer "F.Fab") (width 0.1) (tstamp 50e810bc-a166-43d0-bb59-b32d83aa49d2))
  (fp_line (start 0.273 1.9939) (end 0.527 1.9939) (layer "F.Fab") (width 0.1) (tstamp 52b3b413-fea5-4e5d-b1e8-df684ef2f2b0))
  (fp_line (start -1.9939 0.127) (end -1.9939 0.127) (layer "F.Fab") (width 0.1) (tstamp 534056d8-400f-4acb-81f8-d090b8b01486))
  (fp_line (start -0.673 -1.9939) (end -0.673 -1.9939) (layer "F.Fab") (width 0.1) (tstamp 53ec7a06-5b05-45a4-a38c-88de84161197))
  (fp_line (start 1.9939 1.327) (end 1.9939 1.073) (layer "F.Fab") (width 0.1) (tstamp 5591b1a4-2323-486e-9fbd-88a154808c7a))
  (fp_line (start 1.073 1.9939) (end 1.327 1.9939) (layer "F.Fab") (width 0.1) (tstamp 564b1fa8-d285-4e8b-913e-29c2bfc46ec5))
  (fp_line (start -1.9939 -1.073) (end -1.9939 -1.073) (layer "F.Fab") (width 0.1) (tstamp 572f4768-e4d3-4e55-b4c6-89feb9491548))
  (fp_line (start -1.9939 -0.673) (end -1.9939 -0.673) (layer "F.Fab") (width 0.1) (tstamp 59932273-814c-4343-9c0f-9ccaff584e5b))
  (fp_line (start -1.9939 -0.527) (end -1.9939 -0.527) (layer "F.Fab") (width 0.1) (tstamp 59c8bc5a-6011-4022-a96b-a289ba39ac5d))
  (fp_line (start 0.927 -1.9939) (end 0.927 -1.9939) (layer "F.Fab") (width 0.1) (tstamp 5a71cbc0-c52d-45d3-be8c-261d186b28b1))
  (fp_line (start -1.9939 -0.927) (end -1.9939 -0.927) (layer "F.Fab") (width 0.1) (tstamp 5b51c443-755c-4673-800c-2455a7733bd5))
  (fp_line (start 0.927 -1.9939) (end 0.673 -1.9939) (layer "F.Fab") (width 0.1) (tstamp 5d7952c6-8038-40b4-bc48-7921ec4bc3be))
  (fp_line (start -0.927 1.9939) (end -0.927 1.9939) (layer "F.Fab") (width 0.1) (tstamp 601b5a16-c890-4a29-a191-148902de22ec))
  (fp_line (start 0.527 1.9939) (end 0.527 1.9939) (layer "F.Fab") (width 0.1) (tstamp 65dd549b-e69f-42bb-8900-c50c7a6d77af))
  (fp_line (start 1.9939 -1.327) (end 1.9939 -1.073) (layer "F.Fab") (width 0.1) (tstamp 6725b881-3f51-488a-9251-b3497414f9c6))
  (fp_line (start -0.673 -1.9939) (end -0.927 -1.9939) (layer "F.Fab") (width 0.1) (tstamp 6bdfe295-e84c-47e9-93df-df7d6c2afb3e))
  (fp_line (start 1.9939 0.673) (end 1.9939 0.673) (layer "F.Fab") (width 0.1) (tstamp 6f98022c-1a75-4bcc-9b72-f3eee113f937))
  (fp_line (start -0.673 1.9939) (end -0.927 1.9939) (layer "F.Fab") (width 0.1) (tstamp 70aa9f2b-6122-4320-b13a-a9ffd6ddca7a))
  (fp_line (start -0.127 -1.9939) (end -0.127 -1.9939) (layer "F.Fab") (width 0.1) (tstamp 7103b472-1a20-4d48-8fe5-0e8abff26aab))
  (fp_line (start -0.927 -1.9939) (end -0.673 -1.9939) (layer "F.Fab") (width 0.1) (tstamp 738ae0f2-9a3f-436b-96a2-958cd646b84e))
  (fp_line (start 1.9939 0.127) (end 1.9939 -0.127) (layer "F.Fab") (width 0.1) (tstamp 74c9fc96-0b11-4c54-abc1-372c377eb226))
  (fp_line (start -1.9939 0.527) (end -1.9939 0.273) (layer "F.Fab") (width 0.1) (tstamp 75bf6637-631d-49da-9a1f-c62a2a3b31dd))
  (fp_line (start -1.9939 -1.327) (end -1.9939 -1.327) (layer "F.Fab") (width 0.1) (tstamp 7696d1e1-f73b-44a5-b851-aeffdabdb75a))
  (fp_line (start 1.9939 0.273) (end 1.9939 0.527) (layer "F.Fab") (width 0.1) (tstamp 7e16617d-53ba-42b2-a43f-ef5dd0c48e6d))
  (fp_line (start -1.9939 -1.9939) (end -1.9939 1.9939) (layer "F.Fab") (width 0.1) (tstamp 7eca8333-a550-486e-8c68-a977ba6f4e05))
  (fp_line (start 1.9939 -0.927) (end 1.9939 -0.673) (layer "F.Fab") (width 0.1) (tstamp 7fac3f82-13e9-4997-88ae-cc3cfd5c4804))
  (fp_line (start -0.527 -1.9939) (end -0.273 -1.9939) (layer "F.Fab") (width 0.1) (tstamp 8027a5ba-d0b0-4525-a002-fe689e31c90f))
  (fp_line (start -1.073 -1.9939) (end -1.327 -1.9939) (layer "F.Fab") (width 0.1) (tstamp 81d82f94-3c87-4053-9bfe-c1abb91c2735))
  (fp_line (start -0.273 -1.9939) (end -0.273 -1.9939) (layer "F.Fab") (width 0.1) (tstamp 83fa0f09-4624-4196-9f2e-6a568770638f))
  (fp_line (start 0.927 1.9939) (end 0.927 1.9939) (layer "F.Fab") (width 0.1) (tstamp 873a432a-7c54-4879-b1ca-6bcbd91758d5))
  (fp_line (start 0.673 1.9939) (end 0.927 1.9939) (layer "F.Fab") (width 0.1) (tstamp 873eaaa8-6e56-4ebd-84d0-0213749c33a0))
  (fp_line (start 1.9939 -0.273) (end 1.9939 -0.273) (layer "F.Fab") (width 0.1) (tstamp 873f2dd5-56a5-481f-9421-8b247ab863a0))
  (fp_line (start 1.073 -1.9939) (end 1.327 -1.9939) (layer "F.Fab") (width 0.1) (tstamp 8918e6e8-e3a0-4ec9-9989-9be3a146cad9))
  (fp_line (start -0.273 -1.9939) (end -0.527 -1.9939) (layer "F.Fab") (width 0.1) (tstamp 8d4f353c-07e4-486a-b76b-1058efeb6576))
  (fp_line (start -1.9939 0.527) (end -1.9939 0.527) (layer "F.Fab") (width 0.1) (tstamp 8d87d2cd-513e-439d-acf5-cb1b8d7daf5f))
  (fp_line (start -1.9939 1.9939) (end 1.9939 1.9939) (layer "F.Fab") (width 0.1) (tstamp 8fc191ec-d8a7-452d-81a0-5976870db577))
  (fp_line (start 1.9939 -1.073) (end 1.9939 -1.327) (layer "F.Fab") (width 0.1) (tstamp 900cdf0a-7aed-4eb4-90a2-d08c15eadccd))
  (fp_line (start 0.527 -1.9939) (end 0.527 -1.9939) (layer "F.Fab") (width 0.1) (tstamp 91802dd3-cc38-410c-a35a-eb8a4a375a95))
  (fp_line (start 1.9939 1.327) (end 1.9939 1.327) (layer "F.Fab") (width 0.1) (tstamp 96250965-5d3e-4701-8889-23cda132dda6))
  (fp_line (start -1.9939 -1.073) (end -1.9939 -1.327) (layer "F.Fab") (width 0.1) (tstamp 9660a8fc-4184-4d9d-837b-8cfabce73a1b))
  (fp_line (start 0.127 -1.9939) (end -0.127 -1.9939) (layer "F.Fab") (width 0.1) (tstamp 99268f8f-e3c5-4529-8d67-ec0a686a746d))
  (fp_line (start -1.9939 -1.9939) (end -1.9939 -1.9939) (layer "F.Fab") (width 0.1) (tstamp 9a6d8ffc-6097-436c-b343-15659e116522))
  (fp_line (start 0.673 -1.9939) (end 0.673 -1.9939) (layer "F.Fab") (width 0.1) (tstamp 9baca01f-00b3-4938-b8db-5ef80bb77c03))
  (fp_line (start -0.927 -1.9939) (end -0.927 -1.9939) (layer "F.Fab") (width 0.1) (tstamp 9e0e4152-fc54-4df0-a7f4-ce2c2ba97c1b))
  (fp_line (start -1.9939 -0.673) (end -1.9939 -0.927) (layer "F.Fab") (width 0.1) (tstamp 9fdc071f-cfce-4a4a-8a56-76cf2dccbcd5))
  (fp_line (start 1.9939 -1.073) (end 1.9939 -1.073) (layer "F.Fab") (width 0.1) (tstamp b0171ee1-ca80-43af-bedc-91e5e2d267d3))
  (fp_line (start -0.927 1.9939) (end -0.673 1.9939) (layer "F.Fab") (width 0.1) (tstamp b0874e66-6623-4d71-ac2d-5a53c7d1d0ed))
  (fp_line (start 1.9939 0.527) (end 1.9939 0.273) (layer "F.Fab") (width 0.1) (tstamp b5032499-fd30-4051-a67a-adc3921c57cf))
  (fp_line (start -1.9939 0.273) (end -1.9939 0.273) (layer "F.Fab") (width 0.1) (tstamp b5cfe86b-8d89-43f6-9f0b-2523da03fdc7))
  (fp_line (start 1.9939 -1.327) (end 1.9939 -1.327) (layer "F.Fab") (width 0.1) (tstamp b6e66f36-eb94-45c5-b859-bce74560a35d))
  (fp_line (start -1.073 -1.9939) (end -1.073 -1.9939) (layer "F.Fab") (width 0.1) (tstamp b74a7d45-26bb-4301-856c-a33b22efa597))
  (fp_line (start -0.527 -1.9939) (end -0.527 -1.9939) (layer "F.Fab") (width 0.1) (tstamp b803c77a-794a-481e-850f-d44fd4d7eaa6))
  (fp_line (start -1.9939 0.927) (end -1.9939 0.673) (layer "F.Fab") (width 0.1) (tstamp b909447c-765f-4cec-bfb6-952c63df132e))
  (fp_line (start 1.9939 0.927) (end 1.9939 0.673) (layer "F.Fab") (width 0.1) (tstamp ba59e138-a2f2-4b1e-bafc-0a528d50551e))
  (fp_line (start 1.9939 0.527) (end 1.9939 0.527) (layer "F.Fab") (width 0.1) (tstamp bf096761-330e-4bdc-972b-d175b9075a78))
  (fp_line (start -0.273 1.9939) (end -0.527 1.9939) (layer "F.Fab") (width 0.1) (tstamp bffdc415-b46e-4c72-adf3-0226e4b9fb22))
  (fp_line (start -1.9939 -0.273) (end -1.9939 -0.527) (layer "F.Fab") (width 0.1) (tstamp bfffab86-5655-43f7-96fc-69ddb580bffa))
  (fp_line (start -0.127 1.9939) (end 0.127 1.9939) (layer "F.Fab") (width 0.1) (tstamp c11a53a7-18e9-4328-a9c7-7022a740fc7e))
  (fp_line (start 1.9939 -0.673) (end 1.9939 -0.673) (layer "F.Fab") (width 0.1) (tstamp c566e5bc-d32b-40dd-9c30-c4c7dbb12566))
  (fp_line (start -1.9939 -1.327) (end -1.9939 -1.073) (layer "F.Fab") (width 0.1) (tstamp ca53c9ad-82dc-426b-abf1-9535a6861ed5))
  (fp_line (start -1.9939 0.673) (end -1.9939 0.673) (layer "F.Fab") (width 0.1) (tstamp cb3bee45-dba2-4bfd-a4e1-bf607fe94ead))
  (fp_line (start 1.9939 -1.9939) (end 1.9939 -1.9939) (layer "F.Fab") (width 0.1) (tstamp cb506395-66ee-44d4-a6ce-c481054ef032))
  (fp_line (start -1.9939 0.927) (end -1.9939 0.927) (layer "F.Fab") (width 0.1) (tstamp cf7c20ed-aa76-4e80-b77e-b17d7f6da412))
  (fp_line (start -1.327 1.9939) (end -1.327 1.9939) (layer "F.Fab") (width 0.1) (tstamp cf832354-e996-4aad-aef9-916ee8c36ef8))
  (fp_line (start -1.9939 0.127) (end -1.9939 -0.127) (layer "F.Fab") (width 0.1) (tstamp d036edc7-be14-478e-b87f-d68c21075d26))
  (fp_line (start -1.9939 1.073) (end -1.9939 1.327) (layer "F.Fab") (width 0.1) (tstamp d0b43b89-ed9d-4fa4-9491-5c77aa3e5b97))
  (fp_line (start -1.327 -1.9939) (end -1.327 -1.9939) (layer "F.Fab") (width 0.1) (tstamp d4bbab31-87b4-4b63-ac7b-7adaf0306065))
  (fp_line (start 1.9939 -0.127) (end 1.9939 0.127) (layer "F.Fab") (width 0.1) (tstamp d61ac2f5-a412-48dc-bd17-a57ec9a379d7))
  (fp_line (start 0.273 -1.9939) (end 0.273 -1.9939) (layer "F.Fab") (width 0.1) (tstamp d91245fc-073e-4e54-8aa7-e05b3bb9045e))
  (fp_line (start 0.527 1.9939) (end 0.273 1.9939) (layer "F.Fab") (width 0.1) (tstamp d94d36ff-711e-40af-9b60-25c6de378eb7))
  (fp_line (start -1.9939 1.327) (end -1.9939 1.327) (layer "F.Fab") (width 0.1) (tstamp db4d7f24-0524-4164-88ab-426f1e58b53c))
  (fp_line (start 1.073 -1.9939) (end 1.073 -1.9939) (layer "F.Fab") (width 0.1) (tstamp e0690113-2ea6-4c76-9d55-bbf1cba24a2a))
  (fp_line (start 0.527 -1.9939) (end 0.273 -1.9939) (layer "F.Fab") (width 0.1) (tstamp e0ee92f1-fe8f-4f00-8d37-584c3fc3fa3c))
  (fp_line (start -1.9939 1.073) (end -1.9939 1.073) (layer "F.Fab") (width 0.1) (tstamp e27d01de-0faa-45ed-87d2-ca131edfa93e))
  (fp_line (start 0.273 1.9939) (end 0.273 1.9939) (layer "F.Fab") (width 0.1) (tstamp e5ac57bb-157a-491c-b4a0-6aa96d2b9717))
  (fp_line (start 0.127 -1.9939) (end 0.127 -1.9939) (layer "F.Fab") (width 0.1) (tstamp e7936853-ae12-44d2-b6f4-20da55ee96cb))
  (fp_line (start 1.9939 -0.527) (end 1.9939 -0.273) (layer "F.Fab") (width 0.1) (tstamp e7d4de19-ca7e-40ed-b1a0-33db1accda12))
  (fp_line (start -1.9939 1.327) (end -1.9939 1.073) (layer "F.Fab") (width 0.1) (tstamp ed79eb51-985c-4973-ac27-b91cf7222fd8))
  (fp_line (start 1.073 1.9939) (end 1.073 1.9939) (layer "F.Fab") (width 0.1) (tstamp f0bd00c0-31b3-46b0-93e1-28bee7415796))
  (fp_line (start -1.9939 -0.273) (end -1.9939 -0.273) (layer "F.Fab") (width 0.1) (tstamp f26864c0-041a-4f4d-8dff-36cc0130bf08))
  (fp_line (start 1.9939 0.127) (end 1.9939 0.127) (layer "F.Fab") (width 0.1) (tstamp f315c0fb-be3c-400a-a5c3-40be92d573f7))
  (fp_line (start 1.9939 -0.927) (end 1.9939 -0.927) (layer "F.Fab") (width 0.1) (tstamp f61162de-eee7-4086-bb69-44a126a1b038))
  (fp_line (start 1.9939 -0.127) (end 1.9939 -0.127) (layer "F.Fab") (width 0.1) (tstamp f837e18c-a5a5-43e8-9985-3c2b725d5a84))
  (fp_line (start -0.527 1.9939) (end -0.527 1.9939) (layer "F.Fab") (width 0.1) (tstamp f8c2d0f2-e93d-4a2e-89a3-c8a08b2cee5c))
  (fp_line (start -1.327 -1.9939) (end -1.073 -1.9939) (layer "F.Fab") (width 0.1) (tstamp fd9ef727-a77d-495b-8e56-c4fcbbf6ac01))
  (fp_line (start -0.127 -1.9939) (end 0.127 -1.9939) (layer "F.Fab") (width 0.1) (tstamp fe4d1035-67ca-464f-b09a-4dccc67ab2f2))
  (fp_line (start -1.073 1.9939) (end -1.327 1.9939) (layer "F.Fab") (width 0.1) (tstamp fe75fa58-2acc-49f4-8800-f140398d2da1))
  (pad "1" smd rect (at -1.8899 -1.2 90) (size 0.204 0.807999) (layers "F.Cu" "F.Paste" "F.Mask") (tstamp 2115d113-cdb9-44f1-979e-fedb09315cb5))
  (pad "2" smd rect (at -1.8899 -0.800001 90) (size 0.204 0.807999) (layers "F.Cu" "F.Paste" "F.Mask") (tstamp 54e402b5-15b5-4a95-b027-807cd1252631))
  (pad "3" smd rect (at -1.8899 -0.399999 90) (size 0.204 0.807999) (layers "F.Cu" "F.Paste" "F.Mask") (tstamp 33f0580b-4422-44e3-b1a4-d4846d474f3d))
  (pad "4" smd rect (at -1.8899 0 90) (size 0.204 0.807999) (layers "F.Cu" "F.Paste" "F.Mask") (tstamp d2c84e6b-1372-481b-9333-df1e115eb300))
  (pad "5" smd rect (at -1.8899 0.399999 90) (size 0.204 0.807999) (layers "F.Cu" "F.Paste" "F.Mask") (tstamp 4949c227-eca6-4441-8335-46e8e0100001))
  (pad "6" smd rect (at -1.8899 0.800001 90) (size 0.204 0.807999) (layers "F.Cu" "F.Paste" "F.Mask") (tstamp cbb7cb18-db86-4df7-bdfb-3fca4a3ea368))
  (pad "7" smd rect (at -1.8899 1.2 90) (size 0.204 0.807999) (layers "F.Cu" "F.Paste" "F.Mask") (tstamp 0fd7d6a1-4e44-45cf-8f55-a6d85a9d5df1))
  (pad "8" smd rect (at -1.2 1.8899) (size 0.204 0.807999) (layers "F.Cu" "F.Paste" "F.Mask") (tstamp 9fcd0766-2a42-4ff8-a602-80a0054d76c3))
  (pad "9" smd rect (at -0.800001 1.8899) (size 0.204 0.807999) (layers "F.Cu" "F.Paste" "F.Mask") (tstamp 1e43bde1-5a67-4f6d-a6eb-4ec48265671f))
  (pad "10" smd rect (at -0.399999 1.8899) (size 0.204 0.807999) (layers "F.Cu" "F.Paste" "F.Mask") (tstamp 4c1c9446-c207-45a8-9e61-688c8fa472d4))
  (pad "11" smd rect (at 0 1.8899) (size 0.204 0.807999) (layers "F.Cu" "F.Paste" "F.Mask") (tstamp 36bf6c0b-bec3-4b62-90e2-56a334e142aa))
  (pad "12" smd rect (at 0.399999 1.8899) (size 0.204 0.807999) (layers "F.Cu" "F.Paste" "F.Mask") (tstamp 17997339-ac32-4fb0-9ce4-46618cabc165))
  (pad "13" smd rect (at 0.800001 1.8899) (size 0.204 0.807999) (layers "F.Cu" "F.Paste" "F.Mask") (tstamp 57341f07-cfd7-4152-bb78-27345c26586f))
  (pad "14" smd rect (at 1.2 1.8899) (size 0.204 0.807999) (layers "F.Cu" "F.Paste" "F.Mask") (tstamp d8b12ea4-627a-4ba9-9f8d-80bf7c171497))
  (pad "15" smd rect (at 1.8899 1.2 90) (size 0.204 0.807999) (layers "F.Cu" "F.Paste" "F.Mask") (tstamp 6a81e482-12c5-40a5-9073-22ff91cf28f4))
  (pad "16" smd rect (at 1.8899 0.800001 90) (size 0.204 0.807999) (layers "F.Cu" "F.Paste" "F.Mask") (tstamp abbe9ee2-aa7e-4501-97e5-53158311390a))
  (pad "17" smd rect (at 1.8899 0.399999 90) (size 0.204 0.807999) (layers "F.Cu" "F.Paste" "F.Mask") (tstamp cf594167-85ac-4893-b123-f17aeff255a1))
  (pad "18" smd rect (at 1.8899 0 90) (size 0.204 0.807999) (layers "F.Cu" "F.Paste" "F.Mask") (tstamp 69cf9034-02a9-4acc-8a67-286677b08d81))
  (pad "19" smd rect (at 1.8899 -0.399999 90) (size 0.204 0.807999) (layers "F.Cu" "F.Paste" "F.Mask") (tstamp 5863a160-e728-4502-a99e-855b9648ed84))
  (pad "20" smd rect (at 1.8899 -0.800001 90) (size 0.204 0.807999) (layers "F.Cu" "F.Paste" "F.Mask") (tstamp b4a8f917-9ba4-4e40-a557-2accefbd3449))
  (pad "21" smd rect (at 1.8899 -1.2 90) (size 0.204 0.807999) (layers "F.Cu" "F.Paste" "F.Mask") (tstamp b124a4a9-2bd5-47a9-813f-657186f67f45))
  (pad "22" smd rect (at 1.2 -1.8899) (size 0.204 0.807999) (layers "F.Cu" "F.Paste" "F.Mask") (tstamp 6e174e16-115e-4ce1-a1aa-048ecbe66a5e))
  (pad "23" smd rect (at 0.800001 -1.8899) (size 0.204 0.807999) (layers "F.Cu" "F.Paste" "F.Mask") (tstamp 49677979-7b64-46e1-9331-c7a0047bc5a4))
  (pad "24" smd rect (at 0.399999 -1.8899) (size 0.204 0.807999) (layers "F.Cu" "F.Paste" "F.Mask") (tstamp 5958fc16-b90e-4de1-85bd-70dbc0efc99d))
  (pad "25" smd rect (at 0 -1.8899) (size 0.204 0.807999) (layers "F.Cu" "F.Paste" "F.Mask") (tstamp 18b9833d-3f51-4b11-9774-74c8c7fee483))
  (pad "26" smd rect (at -0.399999 -1.8899) (size 0.204 0.807999) (layers "F.Cu" "F.Paste" "F.Mask") (tstamp 00183ec7-cf46-4d99-a0eb-533706824769))
  (pad "27" smd rect (at -0.800001 -1.8899) (size 0.204 0.807999) (layers "F.Cu" "F.Paste" "F.Mask") (tstamp 36aad6b3-7632-4cb8-88ea-037851aaf915))
  (pad "28" smd rect (at -1.2 -1.8899) (size 0.204 0.807999) (layers "F.Cu" "F.Paste" "F.Mask") (tstamp 0e267a38-13cd-4186-822c-7f5f538969fc))
  (pad "29" smd rect (at 0 0) (size 2.6924 2.6924) (layers "F.Cu" "F.Mask") (tstamp d35dd2fb-19ca-4c33-bd0a-7aa8577acf0c))
)
