(footprint "UPD350A&slash_Q8X" (version 20211014) (generator pcbnew)
  (layer "F.Cu")
  (tedit 0)
  (attr through_hole)
  (fp_text reference "REF**" (at 0 -3.5) (layer "F.SilkS")
    (effects (font (size 1 1) (thickness 0.15)))
    (tstamp de992d4c-f122-4651-9303-9946f7aea60e)
  )
  (fp_text value "QFN28_MK_MCH" (at 0 3.5) (layer "F.SilkS")
    (effects (font (size 1 1) (thickness 0.15)))
    (tstamp bd56e613-9276-4dac-8bef-eea7a13a2f1a)
  )
  (fp_text user "*" (at -2.5 -2.5) (layer "F.SilkS")
    (effects (font (size 1 1) (thickness 0.15)))
    (tstamp 3c3142b5-c1db-4ccc-8ba1-e147d7d58185)
  )
  (fp_text user "*" (at -2.5 -2.5) (layer "F.SilkS")
    (effects (font (size 1 1) (thickness 0.15)))
    (tstamp d457f23a-eb3c-4cb3-9134-a942ecf371d2)
  )
  (fp_text user "Copyright 2021 Accelerated Designs. All rights reserved." (at 0 0) (layer "Cmts.User")
    (effects (font (size 0.127 0.127) (thickness 0.002)))
    (tstamp c0d8359e-745f-4ca7-abf5-5b85c929e919)
  )
  (fp_text user "*" (at -1.4859 -1.4) (layer "F.Fab")
    (effects (font (size 1 1) (thickness 0.15)))
    (tstamp c5eca15d-08d5-4e59-8c6c-fca7e9dad435)
  )
  (fp_text user "*" (at -1.4859 -1.4) (layer "F.Fab")
    (effects (font (size 1 1) (thickness 0.15)))
    (tstamp fa303d52-70aa-4a62-87fa-5bfeb8895f88)
  )
  (fp_poly (pts
      (xy -1.2462 0.1)
      (xy -1.2462 1.2462)
      (xy -0.1 1.2462)
      (xy -0.1 0.1)
    ) (layer "F.Paste") (width 0.1) (fill solid) (tstamp 07e760c5-5234-4df8-b12f-369cd794eb18))
  (fp_poly (pts
      (xy 0.1 -1.2462)
      (xy 0.1 -0.1)
      (xy 1.2462 -0.1)
      (xy 1.2462 -1.2462)
    ) (layer "F.Paste") (width 0.1) (fill solid) (tstamp 490a0816-c234-41f3-bf92-cd025ff0e27d))
  (fp_poly (pts
      (xy -1.2462 -1.2462)
      (xy -1.2462 -0.1)
      (xy -0.1 -0.1)
      (xy -0.1 -1.2462)
    ) (layer "F.Paste") (width 0.1) (fill solid) (tstamp 796e5f04-b1b1-4488-b812-50a4488a437a))
  (fp_poly (pts
      (xy 0.1 0.1)
      (xy 0.1 1.2462)
      (xy 1.2462 1.2462)
      (xy 1.2462 0.1)
    ) (layer "F.Paste") (width 0.1) (fill solid) (tstamp 887a5096-32d6-46de-9d30-d506584d1b9a))
  (fp_line (start -2.1209 2.1209) (end -1.63474 2.1209) (layer "F.SilkS") (width 0.12) (tstamp 282788c0-3f03-403a-a946-9ecf00afc669))
  (fp_line (start 2.1209 2.1209) (end 2.1209 1.63474) (layer "F.SilkS") (width 0.12) (tstamp 35645fa9-efc8-4832-9e2e-d505e7726f7a))
  (fp_line (start -2.1209 -2.1209) (end -2.1209 -1.63474) (layer "F.SilkS") (width 0.12) (tstamp 4f8ba7e4-2f74-450d-b015-a5baafb89586))
  (fp_line (start 2.1209 -1.63474) (end 2.1209 -2.1209) (layer "F.SilkS") (width 0.12) (tstamp 7315d59c-601b-4148-9344-2b3643375441))
  (fp_line (start 2.1209 -2.1209) (end 1.63474 -2.1209) (layer "F.SilkS") (width 0.12) (tstamp 8ede16e3-39f4-429b-ba88-848226b5fac6))
  (fp_line (start -2.1209 1.63474) (end -2.1209 2.1209) (layer "F.SilkS") (width 0.12) (tstamp b66af2ec-8ad4-4f34-8c79-76dab224dc3a))
  (fp_line (start -1.63474 -2.1209) (end -2.1209 -2.1209) (layer "F.SilkS") (width 0.12) (tstamp ca3ed7ae-d582-4b2f-ab97-2520adb5a659))
  (fp_line (start 1.63474 2.1209) (end 2.1209 2.1209) (layer "F.SilkS") (width 0.12) (tstamp f2ddf6dd-5960-4bd6-b0a1-d5078686e4d1))
  (fp_line (start 1.556 2.2479) (end 1.556 2.547899) (layer "F.CrtYd") (width 0.05) (tstamp 05f6e117-82c0-49d2-8d7f-0867c8c5745e))
  (fp_line (start 2.547899 -1.556) (end 2.547899 1.556) (layer "F.CrtYd") (width 0.05) (tstamp 085aac09-f75b-4035-812a-cf57d54c64d8))
  (fp_line (start -2.547899 -1.556) (end -2.2479 -1.556) (layer "F.CrtYd") (width 0.05) (tstamp 0d589cc7-e3df-4e19-95bb-216c455db3d9))
  (fp_line (start 1.556 2.547899) (end -1.556 2.547899) (layer "F.CrtYd") (width 0.05) (tstamp 0da10c30-4461-4b09-9f26-d6a7a35796cf))
  (fp_line (start -1.556 2.547899) (end -1.556 2.2479) (layer "F.CrtYd") (width 0.05) (tstamp 160c6ccb-50ac-4389-bd42-84a3639602ad))
  (fp_line (start 2.547899 1.556) (end 2.2479 1.556) (layer "F.CrtYd") (width 0.05) (tstamp 1ade6e24-3015-4727-a342-b1972b9cf778))
  (fp_line (start 2.547899 1.556) (end 2.2479 1.556) (layer "F.CrtYd") (width 0.05) (tstamp 209e3a15-a7b3-4f90-891f-39713daf2284))
  (fp_line (start 1.556 2.547899) (end -1.556 2.547899) (layer "F.CrtYd") (width 0.05) (tstamp 2f96ccb0-8e79-448c-95a1-afe669e82f8e))
  (fp_line (start -1.556 -2.2479) (end -1.556 -2.547899) (layer "F.CrtYd") (width 0.05) (tstamp 3807d798-2ca8-4c79-b576-11d2c4bb61fb))
  (fp_line (start -1.556 2.2479) (end -2.2479 2.2479) (layer "F.CrtYd") (width 0.05) (tstamp 3e1f6a8b-25d2-41fc-9dda-2b13e2dfb910))
  (fp_line (start 1.556 -2.547899) (end 1.556 -2.2479) (layer "F.CrtYd") (width 0.05) (tstamp 4b415b67-a0fe-4507-ada6-495a1e568e1d))
  (fp_line (start -2.2479 2.2479) (end -2.2479 1.556) (layer "F.CrtYd") (width 0.05) (tstamp 4e4bdfc5-bd69-47c3-9310-978d8edcf9aa))
  (fp_line (start -1.556 -2.547899) (end 1.556 -2.547899) (layer "F.CrtYd") (width 0.05) (tstamp 50095769-b1a1-4515-9165-6c10d1e03ff0))
  (fp_line (start 2.2479 -2.2479) (end 2.2479 -1.556) (layer "F.CrtYd") (width 0.05) (tstamp 5368a802-6a1e-416a-afe4-ffd4b990037f))
  (fp_line (start 2.2479 -2.2479) (end 2.2479 -1.556) (layer "F.CrtYd") (width 0.05) (tstamp 58aa1862-d2fd-45d5-9e5f-9982f945ca9c))
  (fp_line (start -2.2479 -1.556) (end -2.2479 -2.2479) (layer "F.CrtYd") (width 0.05) (tstamp 633d325a-1388-45fd-9533-bbf8ec0abd8c))
  (fp_line (start -2.2479 1.556) (end -2.547899 1.556) (layer "F.CrtYd") (width 0.05) (tstamp 6bce6e1e-6069-43ee-a0e2-2aa0e9f49b97))
  (fp_line (start -1.556 -2.547899) (end 1.556 -2.547899) (layer "F.CrtYd") (width 0.05) (tstamp 6d10d073-ea32-4f8c-87e8-beb2003cdf27))
  (fp_line (start 2.2479 1.556) (end 2.2479 2.2479) (layer "F.CrtYd") (width 0.05) (tstamp 7fcaa40f-e4bf-4d63-bd83-fecf4a8334bd))
  (fp_line (start 1.556 -2.2479) (end 2.2479 -2.2479) (layer "F.CrtYd") (width 0.05) (tstamp 865b55df-2f44-4bc4-9bd6-ad29eb238493))
  (fp_line (start 2.2479 -1.556) (end 2.547899 -1.556) (layer "F.CrtYd") (width 0.05) (tstamp 8a0da925-9de1-4069-9a6e-99a0ebadd7fe))
  (fp_line (start -1.556 -2.2479) (end -1.556 -2.547899) (layer "F.CrtYd") (width 0.05) (tstamp 8efb0d53-d1ef-40af-880c-1614a24f86e2))
  (fp_line (start -2.2479 2.2479) (end -2.2479 1.556) (layer "F.CrtYd") (width 0.05) (tstamp 8f9b7d34-dcca-4bfd-a80a-c7b91756dd5e))
  (fp_line (start -2.2479 -2.2479) (end -1.556 -2.2479) (layer "F.CrtYd") (width 0.05) (tstamp 90d5547f-25ec-461e-b235-a033f60de55d))
  (fp_line (start -2.2479 -1.556) (end -2.2479 -2.2479) (layer "F.CrtYd") (width 0.05) (tstamp 9218e0bb-93e5-4be0-be60-46f8e784d9ff))
  (fp_line (start -1.556 2.547899) (end -1.556 2.2479) (layer "F.CrtYd") (width 0.05) (tstamp 92474b90-d6b2-4a3a-b198-a8ba04738250))
  (fp_line (start 2.2479 -1.556) (end 2.547899 -1.556) (layer "F.CrtYd") (width 0.05) (tstamp 93c963af-9a42-4352-9207-6023a3c0743c))
  (fp_line (start 1.556 -2.547899) (end 1.556 -2.2479) (layer "F.CrtYd") (width 0.05) (tstamp a08bdc80-a064-4918-a7c8-07fd0f1ad1ad))
  (fp_line (start 1.556 -2.2479) (end 2.2479 -2.2479) (layer "F.CrtYd") (width 0.05) (tstamp a0bf9a64-3c5e-43fa-9c51-b33162c91d70))
  (fp_line (start -2.547899 -1.556) (end -2.2479 -1.556) (layer "F.CrtYd") (width 0.05) (tstamp ae22c3e4-73d0-47dc-b18d-15aa1a99e9db))
  (fp_line (start 2.2479 1.556) (end 2.2479 2.2479) (layer "F.CrtYd") (width 0.05) (tstamp b3396a54-62fb-4a2c-a090-555aad69d7e6))
  (fp_line (start 1.556 2.2479) (end 1.556 2.547899) (layer "F.CrtYd") (width 0.05) (tstamp b7f4ad1b-a680-4520-89ca-212ca9ca83fa))
  (fp_line (start 2.547899 -1.556) (end 2.547899 1.556) (layer "F.CrtYd") (width 0.05) (tstamp c0b1c111-0e6d-4508-b051-ad7ac968c3be))
  (fp_line (start 2.2479 2.2479) (end 1.556 2.2479) (layer "F.CrtYd") (width 0.05) (tstamp c776e5d2-25df-42a1-9f3a-eb0073520148))
  (fp_line (start 2.2479 2.2479) (end 1.556 2.2479) (layer "F.CrtYd") (width 0.05) (tstamp dd42e896-85fe-4cfc-aa09-2b25a52dfecb))
  (fp_line (start -2.547899 1.556) (end -2.547899 -1.556) (layer "F.CrtYd") (width 0.05) (tstamp e2f0d899-64f0-4007-a5af-329aef6fb045))
  (fp_line (start -2.547899 1.556) (end -2.547899 -1.556) (layer "F.CrtYd") (width 0.05) (tstamp ed8272a8-fdc1-42d4-9212-57428e75f5f0))
  (fp_line (start -2.2479 -2.2479) (end -1.556 -2.2479) (layer "F.CrtYd") (width 0.05) (tstamp f043f548-ac0c-40f0-a896-17ccf5deb44d))
  (fp_line (start -1.556 2.2479) (end -2.2479 2.2479) (layer "F.CrtYd") (width 0.05) (tstamp f8172c8d-32e5-4772-90d5-3a57f4820e0d))
  (fp_line (start -2.2479 1.556) (end -2.547899 1.556) (layer "F.CrtYd") (width 0.05) (tstamp f9202333-56cb-42ac-947f-5a01711272e7))
  (fp_line (start 1.9939 0.927) (end 1.9939 0.673) (layer "F.Fab") (width 0.1) (tstamp 0262b5b7-4e06-4c8d-aff8-3367d69cc0f9))
  (fp_line (start 0.673 -1.9939) (end 0.673 -1.9939) (layer "F.Fab") (width 0.1) (tstamp 036f8960-8f01-4774-b6f4-5ca551152e36))
  (fp_line (start 1.9939 -1.073) (end 1.9939 -1.073) (layer "F.Fab") (width 0.1) (tstamp 046d19c4-ea17-425c-8dae-a27f770621ee))
  (fp_line (start 0.927 1.9939) (end 0.927 1.9939) (layer "F.Fab") (width 0.1) (tstamp 046e0f8b-1557-4a5e-b14c-0b8df373216d))
  (fp_line (start 1.327 1.9939) (end 1.327 1.9939) (layer "F.Fab") (width 0.1) (tstamp 054f3171-1c51-4dbc-8a98-f0accfc658c1))
  (fp_line (start -1.073 -1.9939) (end -1.073 -1.9939) (layer "F.Fab") (width 0.1) (tstamp 07da1a7d-770f-4cc3-a92e-5271f375fa8c))
  (fp_line (start -1.9939 -0.673) (end -1.9939 -0.673) (layer "F.Fab") (width 0.1) (tstamp 08a410a5-2ab5-43c0-95d1-0c0c29655c75))
  (fp_line (start 1.9939 -0.273) (end 1.9939 -0.527) (layer "F.Fab") (width 0.1) (tstamp 0cfa4c1b-28b5-443a-a8ef-7b079b9bb57e))
  (fp_line (start 0.527 1.9939) (end 0.273 1.9939) (layer "F.Fab") (width 0.1) (tstamp 0cfe19a1-b839-4f9c-bdae-7d05e10a997e))
  (fp_line (start 0.527 -1.9939) (end 0.527 -1.9939) (layer "F.Fab") (width 0.1) (tstamp 0d8d602c-ae81-469a-97c6-66c26e83f672))
  (fp_line (start 1.9939 -0.273) (end 1.9939 -0.273) (layer "F.Fab") (width 0.1) (tstamp 15ba3cab-ccde-4f9d-866e-7c4334e58d38))
  (fp_line (start 1.9939 -0.527) (end 1.9939 -0.273) (layer "F.Fab") (width 0.1) (tstamp 1794d65b-27db-4dc1-beeb-66ab2c294d9e))
  (fp_line (start -1.327 -1.9939) (end -1.327 -1.9939) (layer "F.Fab") (width 0.1) (tstamp 17e284e1-9143-4beb-9363-db1298d921d6))
  (fp_line (start -1.9939 -0.673) (end -1.9939 -0.927) (layer "F.Fab") (width 0.1) (tstamp 1986535d-bdc8-4905-9b4e-12d92e4d5e70))
  (fp_line (start -1.327 -1.9939) (end -1.073 -1.9939) (layer "F.Fab") (width 0.1) (tstamp 1ca2ac08-d92e-4778-8ba0-bdf92bbc6096))
  (fp_line (start -1.9939 -0.527) (end -1.9939 -0.273) (layer "F.Fab") (width 0.1) (tstamp 1e1fa95c-aca2-409a-8ae8-05df8d7e34aa))
  (fp_line (start -0.127 -1.9939) (end -0.127 -1.9939) (layer "F.Fab") (width 0.1) (tstamp 1fc6ccb3-6ba6-466e-b074-7dcaa6edb5bd))
  (fp_line (start -0.927 -1.9939) (end -0.673 -1.9939) (layer "F.Fab") (width 0.1) (tstamp 2355998a-3266-40d2-bab8-53569c5596bc))
  (fp_line (start 1.327 -1.9939) (end 1.073 -1.9939) (layer "F.Fab") (width 0.1) (tstamp 299008ec-332c-4d73-8568-cf65a9c3ca57))
  (fp_line (start -1.9939 -0.273) (end -1.9939 -0.527) (layer "F.Fab") (width 0.1) (tstamp 2a662ee6-64cd-4517-935c-7e0f6c58b387))
  (fp_line (start -0.273 1.9939) (end -0.527 1.9939) (layer "F.Fab") (width 0.1) (tstamp 2d60a47c-0b15-48bb-84ac-1304f516353e))
  (fp_line (start 1.9939 -0.927) (end 1.9939 -0.927) (layer "F.Fab") (width 0.1) (tstamp 3167edc8-bcb1-4d23-bb86-a1d8bf3cd50f))
  (fp_line (start 0.273 1.9939) (end 0.273 1.9939) (layer "F.Fab") (width 0.1) (tstamp 37f42e1e-9f51-45a9-88fd-4dea017ca4ad))
  (fp_line (start 1.9939 -0.527) (end 1.9939 -0.527) (layer "F.Fab") (width 0.1) (tstamp 3e1c59a9-3601-40f0-9ada-ab6a97d6f9be))
  (fp_line (start 0.673 1.9939) (end 0.673 1.9939) (layer "F.Fab") (width 0.1) (tstamp 4223f4f4-22ac-4001-a0b1-0bf007511bb2))
  (fp_line (start 1.9939 -1.9939) (end -1.9939 -1.9939) (layer "F.Fab") (width 0.1) (tstamp 42cf5283-0988-4c60-b448-5dfd95e9b323))
  (fp_line (start -0.273 1.9939) (end -0.273 1.9939) (layer "F.Fab") (width 0.1) (tstamp 44ea8a36-3c58-4603-bbdf-c0447523e14d))
  (fp_line (start -0.527 -1.9939) (end -0.527 -1.9939) (layer "F.Fab") (width 0.1) (tstamp 459c156d-2d95-4b5f-bf19-bb9c4f057bec))
  (fp_line (start 1.9939 1.9939) (end 1.9939 1.9939) (layer "F.Fab") (width 0.1) (tstamp 48b736d2-a03e-453a-8d0d-947e7cdb7892))
  (fp_line (start 1.9939 -0.127) (end 1.9939 0.127) (layer "F.Fab") (width 0.1) (tstamp 4a060b2b-eb0e-4365-92d8-633215f475f1))
  (fp_line (start 1.9939 0.127) (end 1.9939 -0.127) (layer "F.Fab") (width 0.1) (tstamp 4a3d488e-dba4-4fdd-8d12-8257e93e842f))
  (fp_line (start -1.9939 -0.127) (end -1.9939 0.127) (layer "F.Fab") (width 0.1) (tstamp 4af3ff12-0ab4-4604-8d41-86d8b01221cd))
  (fp_line (start -1.9939 1.327) (end -1.9939 1.073) (layer "F.Fab") (width 0.1) (tstamp 4f0afcaf-8e53-4357-987c-788163a85cc8))
  (fp_line (start -1.327 1.9939) (end -1.073 1.9939) (layer "F.Fab") (width 0.1) (tstamp 50cfa494-6279-4e72-a1cc-a69e18940542))
  (fp_line (start 1.9939 1.327) (end 1.9939 1.073) (layer "F.Fab") (width 0.1) (tstamp 527ab700-d400-437d-a8eb-3049c5635be2))
  (fp_line (start 1.9939 -0.673) (end 1.9939 -0.673) (layer "F.Fab") (width 0.1) (tstamp 57203723-669d-4715-b051-1fae068f3586))
  (fp_line (start -1.9939 -1.9939) (end -1.9939 -1.9939) (layer "F.Fab") (width 0.1) (tstamp 57c94311-b27b-4954-b03f-c534a72651ac))
  (fp_line (start -1.9939 -0.927) (end -1.9939 -0.927) (layer "F.Fab") (width 0.1) (tstamp 5c11c0b6-5520-4261-975b-5ea40312d9b2))
  (fp_line (start -1.9939 0.527) (end -1.9939 0.273) (layer "F.Fab") (width 0.1) (tstamp 5d301c75-a436-4dd5-94a1-bfd43d5095b2))
  (fp_line (start -0.527 -1.9939) (end -0.273 -1.9939) (layer "F.Fab") (width 0.1) (tstamp 5fb9087f-70cb-4e92-937b-26c06d4bc8b0))
  (fp_line (start -0.527 1.9939) (end -0.527 1.9939) (layer "F.Fab") (width 0.1) (tstamp 5ffcff2d-c65f-4ed6-bee1-36455b7f9550))
  (fp_line (start 1.9939 1.073) (end 1.9939 1.073) (layer "F.Fab") (width 0.1) (tstamp 63e5b038-9302-4b63-8493-28d0b7c3eb58))
  (fp_line (start -0.927 1.9939) (end -0.927 1.9939) (layer "F.Fab") (width 0.1) (tstamp 6755b9e6-2c16-4652-a0ab-3496ebd39b0b))
  (fp_line (start -0.527 1.9939) (end -0.273 1.9939) (layer "F.Fab") (width 0.1) (tstamp 697f83ff-f1ab-4d0a-a0cf-bc4e6d91b02c))
  (fp_line (start -1.9939 0.527) (end -1.9939 0.527) (layer "F.Fab") (width 0.1) (tstamp 6f7f2396-0e8b-4fbc-835a-f729ba32bc9c))
  (fp_line (start 1.9939 0.127) (end 1.9939 0.127) (layer "F.Fab") (width 0.1) (tstamp 73221dcd-ec4c-4021-a83a-5bebac6f74d1))
  (fp_line (start 1.9939 0.673) (end 1.9939 0.673) (layer "F.Fab") (width 0.1) (tstamp 7431310f-a226-4333-9591-c879cc53f97f))
  (fp_line (start -1.9939 0.127) (end -1.9939 0.127) (layer "F.Fab") (width 0.1) (tstamp 759e6726-7104-452f-96b4-38bcc567cbad))
  (fp_line (start -1.9939 0.127) (end -1.9939 -0.127) (layer "F.Fab") (width 0.1) (tstamp 7619f803-b047-4242-8511-006b4e648b79))
  (fp_line (start 0.927 -1.9939) (end 0.673 -1.9939) (layer "F.Fab") (width 0.1) (tstamp 79ef42c7-4630-4fd5-9915-88677269bde5))
  (fp_line (start -1.9939 0.927) (end -1.9939 0.927) (layer "F.Fab") (width 0.1) (tstamp 7a7cea8f-b801-47d6-b0ac-87c2c72f5935))
  (fp_line (start 1.9939 0.927) (end 1.9939 0.927) (layer "F.Fab") (width 0.1) (tstamp 7a834694-ad38-4ea6-9dd3-61e72dc491e4))
  (fp_line (start -0.927 1.9939) (end -0.673 1.9939) (layer "F.Fab") (width 0.1) (tstamp 7ee4b6d7-b48c-4982-9c85-7f603c5cd1ec))
  (fp_line (start -1.073 1.9939) (end -1.327 1.9939) (layer "F.Fab") (width 0.1) (tstamp 801248e4-9f1a-4ed4-afc7-40ac8f234520))
  (fp_line (start -0.127 1.9939) (end 0.127 1.9939) (layer "F.Fab") (width 0.1) (tstamp 8218147a-ebc4-448f-9b21-1cabdc9d42ad))
  (fp_line (start -1.9939 0.927) (end -1.9939 0.673) (layer "F.Fab") (width 0.1) (tstamp 8230d467-70b6-4b50-b643-dbd66415d077))
  (fp_line (start 1.9939 0.673) (end 1.9939 0.927) (layer "F.Fab") (width 0.1) (tstamp 82e5e4fb-e30e-4de5-b180-d8a01365ae24))
  (fp_line (start 1.9939 -1.327) (end 1.9939 -1.073) (layer "F.Fab") (width 0.1) (tstamp 833d04bc-477a-44b3-8ef4-f61442911fdb))
  (fp_line (start 1.9939 -1.073) (end 1.9939 -1.327) (layer "F.Fab") (width 0.1) (tstamp 8368f278-5471-412b-9e71-c51c3a131323))
  (fp_line (start -1.327 1.9939) (end -1.327 1.9939) (layer "F.Fab") (width 0.1) (tstamp 84f4de6e-264a-49e7-90fd-2b121fb00cfb))
  (fp_line (start -1.9939 -0.273) (end -1.9939 -0.273) (layer "F.Fab") (width 0.1) (tstamp 8525ba4c-3fd1-4c95-b4c4-638bd65fb659))
  (fp_line (start 0.527 -1.9939) (end 0.273 -1.9939) (layer "F.Fab") (width 0.1) (tstamp 872081d0-e3d2-402a-a0be-3e84042c5ae7))
  (fp_line (start 1.073 1.9939) (end 1.073 1.9939) (layer "F.Fab") (width 0.1) (tstamp 87f7182b-1785-4e9e-ae43-55c103cd13d5))
  (fp_line (start -0.673 1.9939) (end -0.673 1.9939) (layer "F.Fab") (width 0.1) (tstamp 88d3d966-5222-473c-a5de-2a02d138a67e))
  (fp_line (start 0.127 1.9939) (end 0.127 1.9939) (layer "F.Fab") (width 0.1) (tstamp 89ae3215-7bdc-4664-beb8-5c7d8769bce8))
  (fp_line (start 1.9939 1.073) (end 1.9939 1.327) (layer "F.Fab") (width 0.1) (tstamp 8a7257de-4711-4660-a1fb-f5576af64876))
  (fp_line (start -1.9939 0.273) (end -1.9939 0.527) (layer "F.Fab") (width 0.1) (tstamp 8ab677e3-34a9-4f2f-b6fa-0c4de8f13189))
  (fp_line (start -0.927 -1.9939) (end -0.927 -1.9939) (layer "F.Fab") (width 0.1) (tstamp 8b9d07e2-cf7b-43a8-9597-daddac43b814))
  (fp_line (start 1.073 -1.9939) (end 1.327 -1.9939) (layer "F.Fab") (width 0.1) (tstamp 8d264cc2-a1ff-4462-9ab6-9d50323b6105))
  (fp_line (start 0.127 1.9939) (end -0.127 1.9939) (layer "F.Fab") (width 0.1) (tstamp 8e8e6e39-e0c0-4ee0-911a-b43cf8f2ab70))
  (fp_line (start -1.9939 1.073) (end -1.9939 1.327) (layer "F.Fab") (width 0.1) (tstamp 8ec49db3-9aa4-4392-a3e1-70be6e0a69c5))
  (fp_line (start -1.9939 0.673) (end -1.9939 0.927) (layer "F.Fab") (width 0.1) (tstamp 8f7002fb-32ae-4e99-bf9a-aecb5675258f))
  (fp_line (start -1.9939 -1.073) (end -1.9939 -1.327) (layer "F.Fab") (width 0.1) (tstamp 920bb246-535e-4c05-808e-e6d232320594))
  (fp_line (start 0.673 -1.9939) (end 0.927 -1.9939) (layer "F.Fab") (width 0.1) (tstamp 92639738-e67e-40fb-a85d-1a620bbe3fcd))
  (fp_line (start 1.327 1.9939) (end 1.073 1.9939) (layer "F.Fab") (width 0.1) (tstamp 94e59e84-f7fe-454d-8c0e-0350eefa4d52))
  (fp_line (start -1.9939 0.673) (end -1.9939 0.673) (layer "F.Fab") (width 0.1) (tstamp 957fdc2b-c4b4-429a-9ea9-247df2c437e9))
  (fp_line (start -1.073 -1.9939) (end -1.327 -1.9939) (layer "F.Fab") (width 0.1) (tstamp 96e5eebc-eac1-47f4-bf5d-5d155afab596))
  (fp_line (start 1.9939 0.273) (end 1.9939 0.527) (layer "F.Fab") (width 0.1) (tstamp 9c09a8ad-0931-41ce-9a2e-faf2046ebbc3))
  (fp_line (start 1.073 1.9939) (end 1.327 1.9939) (layer "F.Fab") (width 0.1) (tstamp 9c6d89b5-988d-4dc5-9422-833ae30fc94e))
  (fp_line (start 1.9939 -1.327) (end 1.9939 -1.327) (layer "F.Fab") (width 0.1) (tstamp 9eb3a3a5-0b9d-4efd-9394-15f37b684fb8))
  (fp_line (start 0.273 1.9939) (end 0.527 1.9939) (layer "F.Fab") (width 0.1) (tstamp a3fd0929-2c35-4543-8b1d-923e513878e1))
  (fp_line (start 1.9939 1.9939) (end 1.9939 -1.9939) (layer "F.Fab") (width 0.1) (tstamp ab1567fc-29c8-4533-8524-e7c22ab4bc18))
  (fp_line (start -1.9939 -0.927) (end -1.9939 -0.673) (layer "F.Fab") (width 0.1) (tstamp b1133c1f-a1d0-41f5-abf6-837f50722d8b))
  (fp_line (start 0.927 -1.9939) (end 0.927 -1.9939) (layer "F.Fab") (width 0.1) (tstamp b1debfd6-175c-43fe-b896-caaa2af76919))
  (fp_line (start -1.9939 -1.9939) (end -1.9939 1.9939) (layer "F.Fab") (width 0.1) (tstamp b1f055e5-95f2-481f-beea-70b77e730394))
  (fp_line (start -1.9939 -0.527) (end -1.9939 -0.527) (layer "F.Fab") (width 0.1) (tstamp b1f720d6-a840-4bce-be16-dd6ab5f39800))
  (fp_line (start 0.527 1.9939) (end 0.527 1.9939) (layer "F.Fab") (width 0.1) (tstamp b1fd283a-c1d9-4eb7-bb33-f317f25cab9f))
  (fp_line (start -1.9939 1.9939) (end -1.9939 1.9939) (layer "F.Fab") (width 0.1) (tstamp b29ff6b5-4c51-4c49-a98d-3d5742ec6e2d))
  (fp_line (start -1.9939 1.9939) (end 1.9939 1.9939) (layer "F.Fab") (width 0.1) (tstamp b3957570-be9f-45c4-ba30-9dc60d432e2e))
  (fp_line (start 0.273 -1.9939) (end 0.527 -1.9939) (layer "F.Fab") (width 0.1) (tstamp b512bb3a-89df-444f-a6c4-07e9501015db))
  (fp_line (start 1.9939 1.327) (end 1.9939 1.327) (layer "F.Fab") (width 0.1) (tstamp b5d96cc4-771a-4a77-b77d-0fe00e3ef99a))
  (fp_line (start -1.9939 0.273) (end -1.9939 0.273) (layer "F.Fab") (width 0.1) (tstamp b6a5b490-4974-4f6f-b595-478a1c841e8a))
  (fp_line (start -1.073 1.9939) (end -1.073 1.9939) (layer "F.Fab") (width 0.1) (tstamp ba3fb8c9-cbca-4ca1-a3d3-fb5452952374))
  (fp_line (start 0.273 -1.9939) (end 0.273 -1.9939) (layer "F.Fab") (width 0.1) (tstamp bb4b0a3c-79b8-40e2-9152-2e92464e2fc7))
  (fp_line (start -1.9939 -1.073) (end -1.9939 -1.073) (layer "F.Fab") (width 0.1) (tstamp bd61e84e-5b9f-4634-840d-153426f9685d))
  (fp_line (start -0.127 1.9939) (end -0.127 1.9939) (layer "F.Fab") (width 0.1) (tstamp be3920b1-5bd0-4247-b1bb-0d79cc297261))
  (fp_line (start -0.673 1.9939) (end -0.927 1.9939) (layer "F.Fab") (width 0.1) (tstamp bec78398-db19-43dd-9808-d44b8ff60c56))
  (fp_line (start 1.073 -1.9939) (end 1.073 -1.9939) (layer "F.Fab") (width 0.1) (tstamp bf7a32b2-20bb-4ede-bed4-c769a205cea1))
  (fp_line (start 1.9939 0.273) (end 1.9939 0.273) (layer "F.Fab") (width 0.1) (tstamp c3bd56a4-c888-4a4b-9f67-4af2594df38f))
  (fp_line (start -1.9939 -1.327) (end -1.9939 -1.073) (layer "F.Fab") (width 0.1) (tstamp c458724e-685d-41ab-9c91-09e4166e94b5))
  (fp_line (start -1.9939 -0.127) (end -1.9939 -0.127) (layer "F.Fab") (width 0.1) (tstamp c94e860e-67b8-404e-8eff-17274603c026))
  (fp_line (start -1.9939 1.073) (end -1.9939 1.073) (layer "F.Fab") (width 0.1) (tstamp ca3814d1-d0c6-42f5-8a33-e38db5494ef5))
  (fp_line (start 1.9939 0.527) (end 1.9939 0.527) (layer "F.Fab") (width 0.1) (tstamp cb60df5c-9be3-4e87-973a-52d10d861d39))
  (fp_line (start -0.673 -1.9939) (end -0.927 -1.9939) (layer "F.Fab") (width 0.1) (tstamp cd5155e5-bc98-4e83-af8b-fc3fd746d42e))
  (fp_line (start -0.673 -1.9939) (end -0.673 -1.9939) (layer "F.Fab") (width 0.1) (tstamp cf3f478e-693c-4295-9cfb-ca03ffb27bf0))
  (fp_line (start -0.273 -1.9939) (end -0.273 -1.9939) (layer "F.Fab") (width 0.1) (tstamp d4ea2337-b718-45e4-9bec-4136ddfc44b0))
  (fp_line (start 0.673 1.9939) (end 0.927 1.9939) (layer "F.Fab") (width 0.1) (tstamp d6009912-e975-4f95-88b7-9cdea501a3b4))
  (fp_line (start 1.9939 -0.127) (end 1.9939 -0.127) (layer "F.Fab") (width 0.1) (tstamp e042ff7a-747c-4783-a3e2-23ed006c637c))
  (fp_line (start 1.9939 -0.927) (end 1.9939 -0.673) (layer "F.Fab") (width 0.1) (tstamp e0e3bc23-1290-4bbb-b1ae-708ab81f61b7))
  (fp_line (start 1.9939 -1.9939) (end 1.9939 -1.9939) (layer "F.Fab") (width 0.1) (tstamp e24a6340-efeb-44dd-a7cd-d96e0f400ef2))
  (fp_line (start -0.273 -1.9939) (end -0.527 -1.9939) (layer "F.Fab") (width 0.1) (tstamp e3b24fae-8b57-440f-b232-bbd6aaa27ebe))
  (fp_line (start 0.927 1.9939) (end 0.673 1.9939) (layer "F.Fab") (width 0.1) (tstamp e4577fbf-acdb-44df-a59c-95dc9f72b348))
  (fp_line (start 1.327 -1.9939) (end 1.327 -1.9939) (layer "F.Fab") (width 0.1) (tstamp e7fb81f6-dcef-42eb-b08e-15395244c332))
  (fp_line (start -0.127 -1.9939) (end 0.127 -1.9939) (layer "F.Fab") (width 0.1) (tstamp ec9d3724-305c-4d80-93ae-64721f2de950))
  (fp_line (start 0.127 -1.9939) (end 0.127 -1.9939) (layer "F.Fab") (width 0.1) (tstamp ee8449fc-92e9-4fa0-8f6a-73ab0cf8ec19))
  (fp_line (start -1.9939 -1.327) (end -1.9939 -1.327) (layer "F.Fab") (width 0.1) (tstamp f3333fa5-6267-4353-b958-e4b4ffdba5c1))
  (fp_line (start 0.127 -1.9939) (end -0.127 -1.9939) (layer "F.Fab") (width 0.1) (tstamp f5b4d9fc-988c-4fba-ac2f-848603e29ac6))
  (fp_line (start 1.9939 -0.673) (end 1.9939 -0.927) (layer "F.Fab") (width 0.1) (tstamp f7c982b4-0f85-41e3-8b25-f2c390756fa8))
  (fp_line (start -1.9939 1.327) (end -1.9939 1.327) (layer "F.Fab") (width 0.1) (tstamp f90ec41a-a6ba-4cae-9281-9de970d27bcb))
  (fp_line (start 1.9939 0.527) (end 1.9939 0.273) (layer "F.Fab") (width 0.1) (tstamp fb5e3186-eb67-4f1a-949e-a9dacae44203))
  (fp_line (start -1.9939 -0.7239) (end -0.7239 -1.9939) (layer "F.Fab") (width 0.1) (tstamp ff16d543-6590-4744-abd8-16258397c5ec))
  (pad "1" smd rect (at -1.8899 -1.2 90) (size 0.204 0.807999) (layers "F.Cu" "F.Paste" "F.Mask") (tstamp a080c63f-60e6-432b-8bb7-1a3e49587541))
  (pad "2" smd rect (at -1.8899 -0.800001 90) (size 0.204 0.807999) (layers "F.Cu" "F.Paste" "F.Mask") (tstamp aefd3fbf-26f5-479b-9101-276f598b0333))
  (pad "3" smd rect (at -1.8899 -0.399999 90) (size 0.204 0.807999) (layers "F.Cu" "F.Paste" "F.Mask") (tstamp 47be0e20-4ddd-47b5-8bec-996ad2856802))
  (pad "4" smd rect (at -1.8899 0 90) (size 0.204 0.807999) (layers "F.Cu" "F.Paste" "F.Mask") (tstamp 0b364baa-c7d8-4ec4-935f-5162df8142b1))
  (pad "5" smd rect (at -1.8899 0.399999 90) (size 0.204 0.807999) (layers "F.Cu" "F.Paste" "F.Mask") (tstamp d96880e0-3d77-49a6-9b93-849cce24062a))
  (pad "6" smd rect (at -1.8899 0.800001 90) (size 0.204 0.807999) (layers "F.Cu" "F.Paste" "F.Mask") (tstamp a40e9fbf-a3fc-4c44-a1c5-fc0ee4217ae7))
  (pad "7" smd rect (at -1.8899 1.2 90) (size 0.204 0.807999) (layers "F.Cu" "F.Paste" "F.Mask") (tstamp 3ef803f3-5aa2-4766-9499-5a88ab9d8b4f))
  (pad "8" smd rect (at -1.2 1.8899) (size 0.204 0.807999) (layers "F.Cu" "F.Paste" "F.Mask") (tstamp 2641c72f-350c-40ad-8e4b-7e218f6a0494))
  (pad "9" smd rect (at -0.800001 1.8899) (size 0.204 0.807999) (layers "F.Cu" "F.Paste" "F.Mask") (tstamp cfae0e21-0966-4ddb-90c1-71dc58c35984))
  (pad "10" smd rect (at -0.399999 1.8899) (size 0.204 0.807999) (layers "F.Cu" "F.Paste" "F.Mask") (tstamp 5bf20ae4-d629-462b-874c-86ac1ceb6e53))
  (pad "11" smd rect (at 0 1.8899) (size 0.204 0.807999) (layers "F.Cu" "F.Paste" "F.Mask") (tstamp 180a1364-d278-4938-9e96-7afdca4b09fc))
  (pad "12" smd rect (at 0.399999 1.8899) (size 0.204 0.807999) (layers "F.Cu" "F.Paste" "F.Mask") (tstamp ef41ca84-d76e-4bc1-84ae-a24a9df030bc))
  (pad "13" smd rect (at 0.800001 1.8899) (size 0.204 0.807999) (layers "F.Cu" "F.Paste" "F.Mask") (tstamp 43507915-c37e-4170-8a5f-7073f3504321))
  (pad "14" smd rect (at 1.2 1.8899) (size 0.204 0.807999) (layers "F.Cu" "F.Paste" "F.Mask") (tstamp c4f5862c-0168-4ec7-9904-a0d3487238ea))
  (pad "15" smd rect (at 1.8899 1.2 90) (size 0.204 0.807999) (layers "F.Cu" "F.Paste" "F.Mask") (tstamp 4211a7a3-8c0d-48e6-9c53-bfd5b45b24e4))
  (pad "16" smd rect (at 1.8899 0.800001 90) (size 0.204 0.807999) (layers "F.Cu" "F.Paste" "F.Mask") (tstamp 7c790824-ddd4-4bd4-b304-c09b5ff471bc))
  (pad "17" smd rect (at 1.8899 0.399999 90) (size 0.204 0.807999) (layers "F.Cu" "F.Paste" "F.Mask") (tstamp 72da1cda-8e29-4c83-8062-bbbb2f7b6c11))
  (pad "18" smd rect (at 1.8899 0 90) (size 0.204 0.807999) (layers "F.Cu" "F.Paste" "F.Mask") (tstamp d739b174-92f4-4c8d-a151-7090e1f52646))
  (pad "19" smd rect (at 1.8899 -0.399999 90) (size 0.204 0.807999) (layers "F.Cu" "F.Paste" "F.Mask") (tstamp cea7aa9f-2267-4835-8ae0-bcff33d4decc))
  (pad "20" smd rect (at 1.8899 -0.800001 90) (size 0.204 0.807999) (layers "F.Cu" "F.Paste" "F.Mask") (tstamp a0c056c0-d908-41ca-9e4c-f7fce91efc1f))
  (pad "21" smd rect (at 1.8899 -1.2 90) (size 0.204 0.807999) (layers "F.Cu" "F.Paste" "F.Mask") (tstamp 2d92461c-602b-4a66-9998-31b922119c45))
  (pad "22" smd rect (at 1.2 -1.8899) (size 0.204 0.807999) (layers "F.Cu" "F.Paste" "F.Mask") (tstamp eb203264-776a-4899-9083-4c0974d41211))
  (pad "23" smd rect (at 0.800001 -1.8899) (size 0.204 0.807999) (layers "F.Cu" "F.Paste" "F.Mask") (tstamp 6acf740d-0270-4239-a75b-de37f6d78f5a))
  (pad "24" smd rect (at 0.399999 -1.8899) (size 0.204 0.807999) (layers "F.Cu" "F.Paste" "F.Mask") (tstamp 3dacff71-b51f-4863-9082-b18781ae4910))
  (pad "25" smd rect (at 0 -1.8899) (size 0.204 0.807999) (layers "F.Cu" "F.Paste" "F.Mask") (tstamp a8f93d25-0639-47a3-a888-835e2a6ca0cc))
  (pad "26" smd rect (at -0.399999 -1.8899) (size 0.204 0.807999) (layers "F.Cu" "F.Paste" "F.Mask") (tstamp 6b8c016f-8678-488a-85fd-fa9a4c55e9d0))
  (pad "27" smd rect (at -0.800001 -1.8899) (size 0.204 0.807999) (layers "F.Cu" "F.Paste" "F.Mask") (tstamp 5574bba5-ddcb-423f-ba48-7578b777440b))
  (pad "28" smd rect (at -1.2 -1.8899) (size 0.204 0.807999) (layers "F.Cu" "F.Paste" "F.Mask") (tstamp 17c757ba-98b3-413c-bb1b-354c1db312d6))
  (pad "29" smd rect (at 0 0) (size 2.6924 2.6924) (layers "F.Cu" "F.Mask") (tstamp 747bbd55-29c9-46e0-92e7-7eca89a4f7cc))
)
