PCBNEW-LibModule-V1  2023-02-04 13:04:31
# encoding utf-8
Units mm
$INDEX
QFN40P1200X1200X90-101N-D
$EndINDEX
$MODULE QFN40P1200X1200X90-101N-D
Po 0 0 0 15 63de57df 00000000 ~~
Li QFN40P1200X1200X90-101N-D
Cd 100-VQFN C04-407
Kw Integrated Circuit
Sc 0
At SMD
AR 
Op 0 0 0
T0 0 0 1.27 1.27 0 0.254 N V 21 N "IC**"
T1 0 0 1.27 1.27 0 0.254 N I 21 N "QFN40P1200X1200X90-101N-D"
DS -6.625 -6.625 6.625 -6.625 0.05 24
DS 6.625 -6.625 6.625 6.625 0.05 24
DS 6.625 6.625 -6.625 6.625 0.05 24
DS -6.625 6.625 -6.625 -6.625 0.05 24
DS -6 -6 6 -6 0.1 24
DS 6 -6 6 6 0.1 24
DS 6 6 -6 6 0.1 24
DS -6 6 -6 -6 0.1 24
DS -6 -5.6 -5.6 -6 0.1 24
DC -6.375 -5.4 -6.275 -5.4 0.254 21
$PAD
Po -5.85 -4.8
Sh "1" R 0.2 1.05 0 0 900
At SMD N 00888000
Ne 0 ""
$EndPAD
$PAD
Po -5.85 -4.4
Sh "2" R 0.2 1.05 0 0 900
At SMD N 00888000
Ne 0 ""
$EndPAD
$PAD
Po -5.85 -4
Sh "3" R 0.2 1.05 0 0 900
At SMD N 00888000
Ne 0 ""
$EndPAD
$PAD
Po -5.85 -3.6
Sh "4" R 0.2 1.05 0 0 900
At SMD N 00888000
Ne 0 ""
$EndPAD
$PAD
Po -5.85 -3.2
Sh "5" R 0.2 1.05 0 0 900
At SMD N 00888000
Ne 0 ""
$EndPAD
$PAD
Po -5.85 -2.8
Sh "6" R 0.2 1.05 0 0 900
At SMD N 00888000
Ne 0 ""
$EndPAD
$PAD
Po -5.85 -2.4
Sh "7" R 0.2 1.05 0 0 900
At SMD N 00888000
Ne 0 ""
$EndPAD
$PAD
Po -5.85 -2
Sh "8" R 0.2 1.05 0 0 900
At SMD N 00888000
Ne 0 ""
$EndPAD
$PAD
Po -5.85 -1.6
Sh "9" R 0.2 1.05 0 0 900
At SMD N 00888000
Ne 0 ""
$EndPAD
$PAD
Po -5.85 -1.2
Sh "10" R 0.2 1.05 0 0 900
At SMD N 00888000
Ne 0 ""
$EndPAD
$PAD
Po -5.85 -0.8
Sh "11" R 0.2 1.05 0 0 900
At SMD N 00888000
Ne 0 ""
$EndPAD
$PAD
Po -5.85 -0.4
Sh "12" R 0.2 1.05 0 0 900
At SMD N 00888000
Ne 0 ""
$EndPAD
$PAD
Po -5.85 0
Sh "13" R 0.2 1.05 0 0 900
At SMD N 00888000
Ne 0 ""
$EndPAD
$PAD
Po -5.85 0.4
Sh "14" R 0.2 1.05 0 0 900
At SMD N 00888000
Ne 0 ""
$EndPAD
$PAD
Po -5.85 0.8
Sh "15" R 0.2 1.05 0 0 900
At SMD N 00888000
Ne 0 ""
$EndPAD
$PAD
Po -5.85 1.2
Sh "16" R 0.2 1.05 0 0 900
At SMD N 00888000
Ne 0 ""
$EndPAD
$PAD
Po -5.85 1.6
Sh "17" R 0.2 1.05 0 0 900
At SMD N 00888000
Ne 0 ""
$EndPAD
$PAD
Po -5.85 2
Sh "18" R 0.2 1.05 0 0 900
At SMD N 00888000
Ne 0 ""
$EndPAD
$PAD
Po -5.85 2.4
Sh "19" R 0.2 1.05 0 0 900
At SMD N 00888000
Ne 0 ""
$EndPAD
$PAD
Po -5.85 2.8
Sh "20" R 0.2 1.05 0 0 900
At SMD N 00888000
Ne 0 ""
$EndPAD
$PAD
Po -5.85 3.2
Sh "21" R 0.2 1.05 0 0 900
At SMD N 00888000
Ne 0 ""
$EndPAD
$PAD
Po -5.85 3.6
Sh "22" R 0.2 1.05 0 0 900
At SMD N 00888000
Ne 0 ""
$EndPAD
$PAD
Po -5.85 4
Sh "23" R 0.2 1.05 0 0 900
At SMD N 00888000
Ne 0 ""
$EndPAD
$PAD
Po -5.85 4.4
Sh "24" R 0.2 1.05 0 0 900
At SMD N 00888000
Ne 0 ""
$EndPAD
$PAD
Po -5.85 4.8
Sh "25" R 0.2 1.05 0 0 900
At SMD N 00888000
Ne 0 ""
$EndPAD
$PAD
Po -4.8 5.85
Sh "26" R 0.2 1.05 0 0 0
At SMD N 00888000
Ne 0 ""
$EndPAD
$PAD
Po -4.4 5.85
Sh "27" R 0.2 1.05 0 0 0
At SMD N 00888000
Ne 0 ""
$EndPAD
$PAD
Po -4 5.85
Sh "28" R 0.2 1.05 0 0 0
At SMD N 00888000
Ne 0 ""
$EndPAD
$PAD
Po -3.6 5.85
Sh "29" R 0.2 1.05 0 0 0
At SMD N 00888000
Ne 0 ""
$EndPAD
$PAD
Po -3.2 5.85
Sh "30" R 0.2 1.05 0 0 0
At SMD N 00888000
Ne 0 ""
$EndPAD
$PAD
Po -2.8 5.85
Sh "31" R 0.2 1.05 0 0 0
At SMD N 00888000
Ne 0 ""
$EndPAD
$PAD
Po -2.4 5.85
Sh "32" R 0.2 1.05 0 0 0
At SMD N 00888000
Ne 0 ""
$EndPAD
$PAD
Po -2 5.85
Sh "33" R 0.2 1.05 0 0 0
At SMD N 00888000
Ne 0 ""
$EndPAD
$PAD
Po -1.6 5.85
Sh "34" R 0.2 1.05 0 0 0
At SMD N 00888000
Ne 0 ""
$EndPAD
$PAD
Po -1.2 5.85
Sh "35" R 0.2 1.05 0 0 0
At SMD N 00888000
Ne 0 ""
$EndPAD
$PAD
Po -0.8 5.85
Sh "36" R 0.2 1.05 0 0 0
At SMD N 00888000
Ne 0 ""
$EndPAD
$PAD
Po -0.4 5.85
Sh "37" R 0.2 1.05 0 0 0
At SMD N 00888000
Ne 0 ""
$EndPAD
$PAD
Po 0 5.85
Sh "38" R 0.2 1.05 0 0 0
At SMD N 00888000
Ne 0 ""
$EndPAD
$PAD
Po 0.4 5.85
Sh "39" R 0.2 1.05 0 0 0
At SMD N 00888000
Ne 0 ""
$EndPAD
$PAD
Po 0.8 5.85
Sh "40" R 0.2 1.05 0 0 0
At SMD N 00888000
Ne 0 ""
$EndPAD
$PAD
Po 1.2 5.85
Sh "41" R 0.2 1.05 0 0 0
At SMD N 00888000
Ne 0 ""
$EndPAD
$PAD
Po 1.6 5.85
Sh "42" R 0.2 1.05 0 0 0
At SMD N 00888000
Ne 0 ""
$EndPAD
$PAD
Po 2 5.85
Sh "43" R 0.2 1.05 0 0 0
At SMD N 00888000
Ne 0 ""
$EndPAD
$PAD
Po 2.4 5.85
Sh "44" R 0.2 1.05 0 0 0
At SMD N 00888000
Ne 0 ""
$EndPAD
$PAD
Po 2.8 5.85
Sh "45" R 0.2 1.05 0 0 0
At SMD N 00888000
Ne 0 ""
$EndPAD
$PAD
Po 3.2 5.85
Sh "46" R 0.2 1.05 0 0 0
At SMD N 00888000
Ne 0 ""
$EndPAD
$PAD
Po 3.6 5.85
Sh "47" R 0.2 1.05 0 0 0
At SMD N 00888000
Ne 0 ""
$EndPAD
$PAD
Po 4 5.85
Sh "48" R 0.2 1.05 0 0 0
At SMD N 00888000
Ne 0 ""
$EndPAD
$PAD
Po 4.4 5.85
Sh "49" R 0.2 1.05 0 0 0
At SMD N 00888000
Ne 0 ""
$EndPAD
$PAD
Po 4.8 5.85
Sh "50" R 0.2 1.05 0 0 0
At SMD N 00888000
Ne 0 ""
$EndPAD
$PAD
Po 5.85 4.8
Sh "51" R 0.2 1.05 0 0 900
At SMD N 00888000
Ne 0 ""
$EndPAD
$PAD
Po 5.85 4.4
Sh "52" R 0.2 1.05 0 0 900
At SMD N 00888000
Ne 0 ""
$EndPAD
$PAD
Po 5.85 4
Sh "53" R 0.2 1.05 0 0 900
At SMD N 00888000
Ne 0 ""
$EndPAD
$PAD
Po 5.85 3.6
Sh "54" R 0.2 1.05 0 0 900
At SMD N 00888000
Ne 0 ""
$EndPAD
$PAD
Po 5.85 3.2
Sh "55" R 0.2 1.05 0 0 900
At SMD N 00888000
Ne 0 ""
$EndPAD
$PAD
Po 5.85 2.8
Sh "56" R 0.2 1.05 0 0 900
At SMD N 00888000
Ne 0 ""
$EndPAD
$PAD
Po 5.85 2.4
Sh "57" R 0.2 1.05 0 0 900
At SMD N 00888000
Ne 0 ""
$EndPAD
$PAD
Po 5.85 2
Sh "58" R 0.2 1.05 0 0 900
At SMD N 00888000
Ne 0 ""
$EndPAD
$PAD
Po 5.85 1.6
Sh "59" R 0.2 1.05 0 0 900
At SMD N 00888000
Ne 0 ""
$EndPAD
$PAD
Po 5.85 1.2
Sh "60" R 0.2 1.05 0 0 900
At SMD N 00888000
Ne 0 ""
$EndPAD
$PAD
Po 5.85 0.8
Sh "61" R 0.2 1.05 0 0 900
At SMD N 00888000
Ne 0 ""
$EndPAD
$PAD
Po 5.85 0.4
Sh "62" R 0.2 1.05 0 0 900
At SMD N 00888000
Ne 0 ""
$EndPAD
$PAD
Po 5.85 0
Sh "63" R 0.2 1.05 0 0 900
At SMD N 00888000
Ne 0 ""
$EndPAD
$PAD
Po 5.85 -0.4
Sh "64" R 0.2 1.05 0 0 900
At SMD N 00888000
Ne 0 ""
$EndPAD
$PAD
Po 5.85 -0.8
Sh "65" R 0.2 1.05 0 0 900
At SMD N 00888000
Ne 0 ""
$EndPAD
$PAD
Po 5.85 -1.2
Sh "66" R 0.2 1.05 0 0 900
At SMD N 00888000
Ne 0 ""
$EndPAD
$PAD
Po 5.85 -1.6
Sh "67" R 0.2 1.05 0 0 900
At SMD N 00888000
Ne 0 ""
$EndPAD
$PAD
Po 5.85 -2
Sh "68" R 0.2 1.05 0 0 900
At SMD N 00888000
Ne 0 ""
$EndPAD
$PAD
Po 5.85 -2.4
Sh "69" R 0.2 1.05 0 0 900
At SMD N 00888000
Ne 0 ""
$EndPAD
$PAD
Po 5.85 -2.8
Sh "70" R 0.2 1.05 0 0 900
At SMD N 00888000
Ne 0 ""
$EndPAD
$PAD
Po 5.85 -3.2
Sh "71" R 0.2 1.05 0 0 900
At SMD N 00888000
Ne 0 ""
$EndPAD
$PAD
Po 5.85 -3.6
Sh "72" R 0.2 1.05 0 0 900
At SMD N 00888000
Ne 0 ""
$EndPAD
$PAD
Po 5.85 -4
Sh "73" R 0.2 1.05 0 0 900
At SMD N 00888000
Ne 0 ""
$EndPAD
$PAD
Po 5.85 -4.4
Sh "74" R 0.2 1.05 0 0 900
At SMD N 00888000
Ne 0 ""
$EndPAD
$PAD
Po 5.85 -4.8
Sh "75" R 0.2 1.05 0 0 900
At SMD N 00888000
Ne 0 ""
$EndPAD
$PAD
Po 4.8 -5.85
Sh "76" R 0.2 1.05 0 0 0
At SMD N 00888000
Ne 0 ""
$EndPAD
$PAD
Po 4.4 -5.85
Sh "77" R 0.2 1.05 0 0 0
At SMD N 00888000
Ne 0 ""
$EndPAD
$PAD
Po 4 -5.85
Sh "78" R 0.2 1.05 0 0 0
At SMD N 00888000
Ne 0 ""
$EndPAD
$PAD
Po 3.6 -5.85
Sh "79" R 0.2 1.05 0 0 0
At SMD N 00888000
Ne 0 ""
$EndPAD
$PAD
Po 3.2 -5.85
Sh "80" R 0.2 1.05 0 0 0
At SMD N 00888000
Ne 0 ""
$EndPAD
$PAD
Po 2.8 -5.85
Sh "81" R 0.2 1.05 0 0 0
At SMD N 00888000
Ne 0 ""
$EndPAD
$PAD
Po 2.4 -5.85
Sh "82" R 0.2 1.05 0 0 0
At SMD N 00888000
Ne 0 ""
$EndPAD
$PAD
Po 2 -5.85
Sh "83" R 0.2 1.05 0 0 0
At SMD N 00888000
Ne 0 ""
$EndPAD
$PAD
Po 1.6 -5.85
Sh "84" R 0.2 1.05 0 0 0
At SMD N 00888000
Ne 0 ""
$EndPAD
$PAD
Po 1.2 -5.85
Sh "85" R 0.2 1.05 0 0 0
At SMD N 00888000
Ne 0 ""
$EndPAD
$PAD
Po 0.8 -5.85
Sh "86" R 0.2 1.05 0 0 0
At SMD N 00888000
Ne 0 ""
$EndPAD
$PAD
Po 0.4 -5.85
Sh "87" R 0.2 1.05 0 0 0
At SMD N 00888000
Ne 0 ""
$EndPAD
$PAD
Po 0 -5.85
Sh "88" R 0.2 1.05 0 0 0
At SMD N 00888000
Ne 0 ""
$EndPAD
$PAD
Po -0.4 -5.85
Sh "89" R 0.2 1.05 0 0 0
At SMD N 00888000
Ne 0 ""
$EndPAD
$PAD
Po -0.8 -5.85
Sh "90" R 0.2 1.05 0 0 0
At SMD N 00888000
Ne 0 ""
$EndPAD
$PAD
Po -1.2 -5.85
Sh "91" R 0.2 1.05 0 0 0
At SMD N 00888000
Ne 0 ""
$EndPAD
$PAD
Po -1.6 -5.85
Sh "92" R 0.2 1.05 0 0 0
At SMD N 00888000
Ne 0 ""
$EndPAD
$PAD
Po -2 -5.85
Sh "93" R 0.2 1.05 0 0 0
At SMD N 00888000
Ne 0 ""
$EndPAD
$PAD
Po -2.4 -5.85
Sh "94" R 0.2 1.05 0 0 0
At SMD N 00888000
Ne 0 ""
$EndPAD
$PAD
Po -2.8 -5.85
Sh "95" R 0.2 1.05 0 0 0
At SMD N 00888000
Ne 0 ""
$EndPAD
$PAD
Po -3.2 -5.85
Sh "96" R 0.2 1.05 0 0 0
At SMD N 00888000
Ne 0 ""
$EndPAD
$PAD
Po -3.6 -5.85
Sh "97" R 0.2 1.05 0 0 0
At SMD N 00888000
Ne 0 ""
$EndPAD
$PAD
Po -4 -5.85
Sh "98" R 0.2 1.05 0 0 0
At SMD N 00888000
Ne 0 ""
$EndPAD
$PAD
Po -4.4 -5.85
Sh "99" R 0.2 1.05 0 0 0
At SMD N 00888000
Ne 0 ""
$EndPAD
$PAD
Po -4.8 -5.85
Sh "100" R 0.2 1.05 0 0 0
At SMD N 00888000
Ne 0 ""
$EndPAD
$PAD
Po 0 0
Sh "101" R 8.1 8.1 0 0 0
At SMD N 00888000
Ne 0 ""
$EndPAD
$EndMODULE QFN40P1200X1200X90-101N-D
$EndLIBRARY
